V1/simulation/qsim/V1.msim.vcd
$comment
	File created using the following command:
		vcd file V1.msim.vcd -direction
$end
$date
	Mon Aug 27 14:41:34 2018
$end
$version
	ModelSim Version 10.5b
$end
$timescale
	1ps
$end

$scope module testSong_vlg_vec_tst $end
$var reg 1 ! CLK $end
$var reg 1 " resetN $end
$var reg 1 # screen_end $end
$var wire 1 $ finish $end
$var wire 1 % note_length [31] $end
$var wire 1 & note_length [30] $end
$var wire 1 ' note_length [29] $end
$var wire 1 ( note_length [28] $end
$var wire 1 ) note_length [27] $end
$var wire 1 * note_length [26] $end
$var wire 1 + note_length [25] $end
$var wire 1 , note_length [24] $end
$var wire 1 - note_length [23] $end
$var wire 1 . note_length [22] $end
$var wire 1 / note_length [21] $end
$var wire 1 0 note_length [20] $end
$var wire 1 1 note_length [19] $end
$var wire 1 2 note_length [18] $end
$var wire 1 3 note_length [17] $end
$var wire 1 4 note_length [16] $end
$var wire 1 5 note_length [15] $end
$var wire 1 6 note_length [14] $end
$var wire 1 7 note_length [13] $end
$var wire 1 8 note_length [12] $end
$var wire 1 9 note_length [11] $end
$var wire 1 : note_length [10] $end
$var wire 1 ; note_length [9] $end
$var wire 1 < note_length [8] $end
$var wire 1 = note_length [7] $end
$var wire 1 > note_length [6] $end
$var wire 1 ? note_length [5] $end
$var wire 1 @ note_length [4] $end
$var wire 1 A note_length [3] $end
$var wire 1 B note_length [2] $end
$var wire 1 C note_length [1] $end
$var wire 1 D note_length [0] $end

$scope module i1 $end
$var wire 1 E gnd $end
$var wire 1 F vcc $end
$var wire 1 G unknown $end
$var tri1 1 H devclrn $end
$var tri1 1 I devpor $end
$var tri1 1 J devoe $end
$var wire 1 K ~QUARTUS_CREATED_GND~I_combout $end
$var wire 1 L CLK~input_o $end
$var wire 1 M CLK~inputCLKENA0_outclk $end
$var wire 1 N resetN~input_o $end
$var wire 1 O screen_end~input_o $end
$var wire 1 P Add1~5_sumout $end
$var wire 1 Q Add1~6 $end
$var wire 1 R Add1~1_sumout $end
$var wire 1 S Add1~2 $end
$var wire 1 T Add1~29_sumout $end
$var wire 1 U Add1~30 $end
$var wire 1 V Add1~25_sumout $end
$var wire 1 W Add0~1_sumout $end
$var wire 1 X Mux7~0_combout $end
$var wire 1 Y LessThan0~0_combout $end
$var wire 1 Z tmp_wait~13_combout $end
$var wire 1 [ Mux4~0_combout $end
$var wire 1 \ Add0~2 $end
$var wire 1 ] Add0~26 $end
$var wire 1 ^ Add0~22 $end
$var wire 1 _ Add0~18 $end
$var wire 1 ` Add0~14 $end
$var wire 1 a Add0~10 $end
$var wire 1 b Add0~6 $end
$var wire 1 c Add0~34 $end
$var wire 1 d Add0~29_sumout $end
$var wire 1 e tmp_wait~44_combout $end
$var wire 1 f Add0~33_sumout $end
$var wire 1 g tmp_wait~49_combout $end
$var wire 1 h tmp_wait~19_combout $end
$var wire 1 i Mux3~0_combout $end
$var wire 1 j Add0~13_sumout $end
$var wire 1 k tmp_wait~20_combout $end
$var wire 1 l Equal2~0_combout $end
$var wire 1 m tmp_wait~23_combout $end
$var wire 1 n Add0~21_sumout $end
$var wire 1 o Mux5~0_combout $end
$var wire 1 p tmp_wait~24_combout $end
$var wire 1 q Add0~25_sumout $end
$var wire 1 r tmp_wait~26_combout $end
$var wire 1 s Add2~126_cout $end
$var wire 1 t Add2~22 $end
$var wire 1 u Add2~17_sumout $end
$var wire 1 v index[31]~1_combout $end
$var wire 1 w tmp_wait~11_combout $end
$var wire 1 x tmp_wait~21_combout $end
$var wire 1 y Add0~17_sumout $end
$var wire 1 z tmp_wait~22_combout $end
$var wire 1 { Add2~18 $end
$var wire 1 | Add2~13_sumout $end
$var wire 1 } Add2~14 $end
$var wire 1 ~ Add2~9_sumout $end
$var wire 1 !! tmp_wait~15_combout $end
$var wire 1 "! Mux1~0_combout $end
$var wire 1 #! Add0~5_sumout $end
$var wire 1 $! tmp_wait~16_combout $end
$var wire 1 %! Add0~9_sumout $end
$var wire 1 &! Mux2~0_combout $end
$var wire 1 '! tmp_wait~18_combout $end
$var wire 1 (! Add2~10 $end
$var wire 1 )! Add2~6 $end
$var wire 1 *! Add2~1_sumout $end
$var wire 1 +! Add2~2 $end
$var wire 1 ,! Add2~90 $end
$var wire 1 -! Add2~77_sumout $end
$var wire 1 .! tmp_wait~46_combout $end
$var wire 1 /! tmp_wait~47_combout $end
$var wire 1 0! tmp_wait~52_combout $end
$var wire 1 1! tmp_wait~54_combout $end
$var wire 1 2! tmp_wait~55_combout $end
$var wire 1 3! Add2~86 $end
$var wire 1 4! Add2~106 $end
$var wire 1 5! Add2~114 $end
$var wire 1 6! Add2~101_sumout $end
$var wire 1 7! tmp_wait~56_combout $end
$var wire 1 8! Add2~105_sumout $end
$var wire 1 9! tmp_wait~57_combout $end
$var wire 1 :! tmp_wait~58_combout $end
$var wire 1 ;! Add2~102 $end
$var wire 1 <! Add2~109_sumout $end
$var wire 1 =! tmp_wait~59_combout $end
$var wire 1 >! Add2~113_sumout $end
$var wire 1 ?! tmp_wait~8_combout $end
$var wire 1 @! tmp_wait~60_combout $end
$var wire 1 A! tmp_wait~42_combout $end
$var wire 1 B! Add2~78 $end
$var wire 1 C! Add2~82 $end
$var wire 1 D! Add2~26 $end
$var wire 1 E! Add2~62 $end
$var wire 1 F! Add2~42 $end
$var wire 1 G! Add2~74 $end
$var wire 1 H! Add2~38 $end
$var wire 1 I! Add2~69_sumout $end
$var wire 1 J! tmp_wait~40_combout $end
$var wire 1 K! Add2~61_sumout $end
$var wire 1 L! tmp_wait~41_combout $end
$var wire 1 M! Add2~70 $end
$var wire 1 N! Add2~34 $end
$var wire 1 O! Add2~65_sumout $end
$var wire 1 P! Add2~66 $end
$var wire 1 Q! Add2~30 $end
$var wire 1 R! Add2~94 $end
$var wire 1 S! Add2~46 $end
$var wire 1 T! Add2~122 $end
$var wire 1 U! Add2~53_sumout $end
$var wire 1 V! tmp_wait~33_combout $end
$var wire 1 W! tmp_wait~35_combout $end
$var wire 1 X! Add2~118 $end
$var wire 1 Y! Add2~49_sumout $end
$var wire 1 Z! tmp_wait~34_combout $end
$var wire 1 [! Add2~45_sumout $end
$var wire 1 \! tmp_wait~36_combout $end
$var wire 1 ]! Add2~54 $end
$var wire 1 ^! Add2~117_sumout $end
$var wire 1 _! tmp_wait~53_combout $end
$var wire 1 `! Add2~50 $end
$var wire 1 a! Add2~97_sumout $end
$var wire 1 b! Add2~98 $end
$var wire 1 c! Add2~85_sumout $end
$var wire 1 d! tmp_wait~48_combout $end
$var wire 1 e! Add2~89_sumout $end
$var wire 1 f! tmp_wait~45_combout $end
$var wire 1 g! Add2~81_sumout $end
$var wire 1 h! tmp_wait~7_combout $end
$var wire 1 i! tmp_wait~51_combout $end
$var wire 1 j! tmp_wait~61_combout $end
$var wire 1 k! Add2~121_sumout $end
$var wire 1 l! tmp_wait~9_combout $end
$var wire 1 m! tmp_wait~37_combout $end
$var wire 1 n! tmp_wait~43_combout $end
$var wire 1 o! Add2~73_sumout $end
$var wire 1 p! tmp_wait~6_combout $end
$var wire 1 q! tmp_wait~38_combout $end
$var wire 1 r! Add2~110 $end
$var wire 1 s! Add2~57_sumout $end
$var wire 1 t! tmp_wait~4_combout $end
$var wire 1 u! tmp_wait~39_combout $end
$var wire 1 v! tmp_wait~50_combout $end
$var wire 1 w! Add2~93_sumout $end
$var wire 1 x! tmp_wait~10_combout $end
$var wire 1 y! tmp_wait~27_combout $end
$var wire 1 z! Add2~25_sumout $end
$var wire 1 {! tmp_wait~28_combout $end
$var wire 1 |! tmp_wait~30_combout $end
$var wire 1 }! Add2~33_sumout $end
$var wire 1 ~! tmp_wait~31_combout $end
$var wire 1 !" Add2~37_sumout $end
$var wire 1 "" tmp_wait~32_combout $end
$var wire 1 #" Add2~41_sumout $end
$var wire 1 $" tmp_wait~29_combout $end
$var wire 1 %" Add2~29_sumout $end
$var wire 1 &" tmp_wait~3_combout $end
$var wire 1 '" tmp_wait~5_combout $end
$var wire 1 (" tmp_wait~12_combout $end
$var wire 1 )" tmp_wait~14_combout $end
$var wire 1 *" tmp_wait~25_combout $end
$var wire 1 +" Add2~21_sumout $end
$var wire 1 ," tmp_wait~1_combout $end
$var wire 1 -" tmp_wait~17_combout $end
$var wire 1 ." Add2~5_sumout $end
$var wire 1 /" tmp_wait~0_combout $end
$var wire 1 0" tmp_wait~2_combout $end
$var wire 1 1" index[30]~0_combout $end
$var wire 1 2" Equal0~0_combout $end
$var wire 1 3" Add1~26 $end
$var wire 1 4" Add1~21_sumout $end
$var wire 1 5" Add1~22 $end
$var wire 1 6" Add1~17_sumout $end
$var wire 1 7" Add1~18 $end
$var wire 1 8" Add1~13_sumout $end
$var wire 1 9" Add1~14 $end
$var wire 1 :" Add1~9_sumout $end
$var wire 1 ;" Add1~10 $end
$var wire 1 <" Add1~53_sumout $end
$var wire 1 =" Add1~54 $end
$var wire 1 >" Add1~49_sumout $end
$var wire 1 ?" Add1~50 $end
$var wire 1 @" Add1~45_sumout $end
$var wire 1 A" Add1~46 $end
$var wire 1 B" Add1~41_sumout $end
$var wire 1 C" Add1~42 $end
$var wire 1 D" Add1~37_sumout $end
$var wire 1 E" Add1~38 $end
$var wire 1 F" Add1~33_sumout $end
$var wire 1 G" Add1~34 $end
$var wire 1 H" Add1~77_sumout $end
$var wire 1 I" Add1~78 $end
$var wire 1 J" Add1~73_sumout $end
$var wire 1 K" Add1~74 $end
$var wire 1 L" Add1~69_sumout $end
$var wire 1 M" Add1~70 $end
$var wire 1 N" Add1~65_sumout $end
$var wire 1 O" Add1~66 $end
$var wire 1 P" Add1~61_sumout $end
$var wire 1 Q" Add1~62 $end
$var wire 1 R" Add1~57_sumout $end
$var wire 1 S" Equal0~3_combout $end
$var wire 1 T" Add1~58 $end
$var wire 1 U" Add1~125_sumout $end
$var wire 1 V" Add1~126 $end
$var wire 1 W" Add1~121_sumout $end
$var wire 1 X" Add1~122 $end
$var wire 1 Y" Add1~117_sumout $end
$var wire 1 Z" Add1~118 $end
$var wire 1 [" Add1~113_sumout $end
$var wire 1 \" Add1~114 $end
$var wire 1 ]" Add1~109_sumout $end
$var wire 1 ^" Add1~110 $end
$var wire 1 _" Add1~105_sumout $end
$var wire 1 `" Equal0~5_combout $end
$var wire 1 a" Equal0~2_combout $end
$var wire 1 b" Add1~106 $end
$var wire 1 c" Add1~101_sumout $end
$var wire 1 d" Add1~102 $end
$var wire 1 e" Add1~97_sumout $end
$var wire 1 f" Add1~98 $end
$var wire 1 g" Add1~93_sumout $end
$var wire 1 h" Add1~94 $end
$var wire 1 i" Add1~89_sumout $end
$var wire 1 j" Add1~90 $end
$var wire 1 k" Add1~85_sumout $end
$var wire 1 l" Add1~86 $end
$var wire 1 m" Add1~81_sumout $end
$var wire 1 n" Equal0~4_combout $end
$var wire 1 o" Equal0~1_combout $end
$var wire 1 p" Equal0~6_combout $end
$var wire 1 q" finish~0_combout $end
$var wire 1 r" finish~reg0_q $end
$var wire 1 s" note_length~0_combout $end
$var wire 1 t" note_length[0]~reg0_q $end
$var wire 1 u" note_length~6_combout $end
$var wire 1 v" note_length[1]~reg0_q $end
$var wire 1 w" note_length~1_combout $end
$var wire 1 x" note_length[2]~reg0_q $end
$var wire 1 y" note_length~2_combout $end
$var wire 1 z" note_length[3]~reg0_q $end
$var wire 1 {" note_length~3_combout $end
$var wire 1 |" note_length[4]~reg0_q $end
$var wire 1 }" note_length~4_combout $end
$var wire 1 ~" note_length[5]~reg0_q $end
$var wire 1 !# note_length~5_combout $end
$var wire 1 "# note_length[6]~reg0_q $end
$var wire 1 ## index [31] $end
$var wire 1 $# index [30] $end
$var wire 1 %# index [29] $end
$var wire 1 &# index [28] $end
$var wire 1 '# index [27] $end
$var wire 1 (# index [26] $end
$var wire 1 )# index [25] $end
$var wire 1 *# index [24] $end
$var wire 1 +# index [23] $end
$var wire 1 ,# index [22] $end
$var wire 1 -# index [21] $end
$var wire 1 .# index [20] $end
$var wire 1 /# index [19] $end
$var wire 1 0# index [18] $end
$var wire 1 1# index [17] $end
$var wire 1 2# index [16] $end
$var wire 1 3# index [15] $end
$var wire 1 4# index [14] $end
$var wire 1 5# index [13] $end
$var wire 1 6# index [12] $end
$var wire 1 7# index [11] $end
$var wire 1 8# index [10] $end
$var wire 1 9# index [9] $end
$var wire 1 :# index [8] $end
$var wire 1 ;# index [7] $end
$var wire 1 <# index [6] $end
$var wire 1 =# index [5] $end
$var wire 1 ># index [4] $end
$var wire 1 ?# index [3] $end
$var wire 1 @# index [2] $end
$var wire 1 A# index [1] $end
$var wire 1 B# index [0] $end
$var wire 1 C# tmp_wait [31] $end
$var wire 1 D# tmp_wait [30] $end
$var wire 1 E# tmp_wait [29] $end
$var wire 1 F# tmp_wait [28] $end
$var wire 1 G# tmp_wait [27] $end
$var wire 1 H# tmp_wait [26] $end
$var wire 1 I# tmp_wait [25] $end
$var wire 1 J# tmp_wait [24] $end
$var wire 1 K# tmp_wait [23] $end
$var wire 1 L# tmp_wait [22] $end
$var wire 1 M# tmp_wait [21] $end
$var wire 1 N# tmp_wait [20] $end
$var wire 1 O# tmp_wait [19] $end
$var wire 1 P# tmp_wait [18] $end
$var wire 1 Q# tmp_wait [17] $end
$var wire 1 R# tmp_wait [16] $end
$var wire 1 S# tmp_wait [15] $end
$var wire 1 T# tmp_wait [14] $end
$var wire 1 U# tmp_wait [13] $end
$var wire 1 V# tmp_wait [12] $end
$var wire 1 W# tmp_wait [11] $end
$var wire 1 X# tmp_wait [10] $end
$var wire 1 Y# tmp_wait [9] $end
$var wire 1 Z# tmp_wait [8] $end
$var wire 1 [# tmp_wait [7] $end
$var wire 1 \# tmp_wait [6] $end
$var wire 1 ]# tmp_wait [5] $end
$var wire 1 ^# tmp_wait [4] $end
$var wire 1 _# tmp_wait [3] $end
$var wire 1 `# tmp_wait [2] $end
$var wire 1 a# tmp_wait [1] $end
$var wire 1 b# tmp_wait [0] $end
$upscope $end
$upscope $end
$enddefinitions $end
#0
$dumpvars
0!
0"
0#
0$
0D
0C
0B
0A
0@
0?
0>
0=
0<
0;
0:
09
08
07
06
05
04
03
02
01
00
0/
0.
0-
0,
0+
0*
0)
0(
0'
0&
0%
0E
1F
xG
1H
1I
1J
0K
0L
0M
0N
0O
1P
0Q
0R
0S
0T
0U
0V
0W
1X
0Y
0Z
1[
1\
0]
0^
0_
0`
0a
0b
0c
0d
0e
0f
0g
0h
0i
1j
1k
1l
0m
0n
1o
0p
1q
1r
0s
1t
0u
0v
1w
0x
0y
0z
1{
0|
1}
1~
0!!
0"!
0#!
0$!
1%!
0&!
1'!
1(!
1)!
0*!
1+!
1,!
0-!
1.!
0/!
10!
11!
02!
13!
14!
15!
06!
07!
08!
19!
0:!
1;!
0<!
0=!
0>!
1?!
0@!
0A!
1B!
1C!
1D!
1E!
1F!
1G!
1H!
0I!
0J!
0K!
0L!
1M!
1N!
0O!
1P!
1Q!
1R!
1S!
1T!
0U!
0V!
0W!
1X!
0Y!
0Z!
0[!
0\!
1]!
0^!
0_!
1`!
0a!
1b!
0c!
0d!
0e!
0f!
0g!
1h!
1i!
0j!
0k!
1l!
1m!
0n!
0o!
1p!
0q!
1r!
0s!
1t!
1u!
0v!
0w!
1x!
0y!
0z!
0{!
0|!
0}!
0~!
0!"
0""
0#"
0$"
0%"
1&"
1'"
0("
1)"
0*"
0+"
1,"
0-"
1."
1/"
10"
01"
02"
03"
04"
05"
06"
07"
08"
09"
0:"
0;"
0<"
0="
0>"
0?"
0@"
0A"
0B"
0C"
0D"
0E"
0F"
0G"
0H"
0I"
0J"
0K"
0L"
0M"
0N"
0O"
0P"
0Q"
0R"
1S"
0T"
0U"
0V"
0W"
0X"
0Y"
0Z"
0["
0\"
0]"
0^"
0_"
1`"
1a"
0b"
0c"
0d"
0e"
0f"
0g"
0h"
0i"
0j"
0k"
0l"
0m"
1n"
0o"
0p"
0q"
0r"
0s"
0t"
0u"
0v"
0w"
0x"
0y"
0z"
0{"
0|"
0}"
0~"
0!#
0"#
0B#
0A#
0@#
0?#
0>#
0=#
0<#
0;#
0:#
09#
08#
07#
06#
05#
04#
03#
02#
01#
00#
0/#
0.#
0-#
0,#
0+#
0*#
0)#
0(#
0'#
0&#
0%#
0$#
0##
0b#
0a#
0`#
0_#
0^#
0]#
0\#
0[#
0Z#
0Y#
0X#
0W#
0V#
0U#
0T#
0S#
0R#
0Q#
0P#
0O#
0N#
0M#
0L#
0K#
0J#
0I#
0H#
0G#
0F#
0E#
0D#
0C#
$end
#100
1!
1L
1M
#200
0!
0L
0M
#300
1#
1!
1O
1L
1M
11"
1v
#400
0!
0L
0M
#500
1!
1L
1M
#600
0#
0!
0O
0L
0M
01"
0v
#700
1!
1L
1M
#800
0!
0L
0M
#900
1#
1!
1O
1L
1M
11"
1v
#1000
0!
0L
0M
#1100
1!
1L
1M
#1200
0#
0!
0O
0L
0M
01"
0v
#1300
1!
1L
1M
#1400
0!
0L
0M
#1500
1#
1!
1O
1L
1M
11"
1v
#1600
0!
0L
0M
#1700
1!
1L
1M
#1800
0#
0!
0O
0L
0M
01"
0v
#1900
1!
1L
1M
#2000
0!
0L
0M
#2100
1#
1!
1O
1L
1M
11"
1v
#2200
0!
0L
0M
#2300
1!
1L
1M
#2400
0#
0!
0O
0L
0M
01"
0v
#2500
1!
1L
1M
#2600
0!
0L
0M
#2700
1#
1!
1O
1L
1M
11"
1v
#2800
0!
0L
0M
#2900
1!
1L
1M
#3000
0#
0!
0O
0L
0M
01"
0v
#3100
1!
1L
1M
#3200
0!
0L
0M
#3300
1#
1!
1O
1L
1M
11"
1v
#3400
0!
0L
0M
#3500
1!
1L
1M
#3600
0#
0!
0O
0L
0M
01"
0v
#3700
1!
1L
1M
#3800
0!
0L
0M
#3900
1#
1!
1O
1L
1M
11"
1v
#4000
0!
0L
0M
#4100
1!
1L
1M
#4200
0#
0!
0O
0L
0M
01"
0v
#4300
1!
1L
1M
#4400
0!
0L
0M
#4500
1#
1!
1O
1L
1M
11"
1v
#4600
0!
0L
0M
#4700
1!
1L
1M
#4800
0#
0!
0O
0L
0M
01"
0v
#4900
1!
1L
1M
#5000
0!
0L
0M
#5100
1#
1!
1O
1L
1M
11"
1v
#5200
0!
0L
0M
#5300
1!
1L
1M
#5400
0#
0!
0O
0L
0M
01"
0v
#5500
1!
1L
1M
#5600
0!
0L
0M
#5700
1#
1!
1O
1L
1M
11"
1v
#5800
0!
0L
0M
#5900
1!
1L
1M
#6000
0#
0!
0O
0L
0M
01"
0v
#6100
1!
1L
1M
#6200
0!
0L
0M
#6300
1#
1!
1O
1L
1M
11"
1v
#6400
0!
0L
0M
#6500
1!
1L
1M
#6600
0#
0!
0O
0L
0M
01"
0v
#6700
1!
1L
1M
#6800
0!
0L
0M
#6900
1#
1!
1O
1L
1M
11"
1v
#7000
0!
0L
0M
#7100
1!
1L
1M
#7200
0#
0!
0O
0L
0M
01"
0v
#7300
1!
1L
1M
#7400
0!
0L
0M
#7500
1#
1!
1O
1L
1M
11"
1v
#7600
0!
0L
0M
#7700
1!
1L
1M
#7800
0#
0!
0O
0L
0M
01"
0v
#7900
1!
1L
1M
#8000
0!
0L
0M
#8100
1#
1!
1O
1L
1M
11"
1v
#8200
0!
0L
0M
#8300
1!
1L
1M
#8400
0#
0!
0O
0L
0M
01"
0v
#8500
1!
1L
1M
#8600
0!
0L
0M
#8700
1#
1!
1O
1L
1M
11"
1v
#8800
0!
0L
0M
#8900
1!
1L
1M
#9000
0#
0!
0O
0L
0M
01"
0v
#9100
1!
1L
1M
#9200
0!
0L
0M
#9300
1#
1!
1O
1L
1M
11"
1v
#9400
0!
0L
0M
#9500
1!
1L
1M
#9600
0#
0!
0O
0L
0M
01"
0v
#9700
1!
1L
1M
#9800
0!
0L
0M
#9900
1#
1!
1O
1L
1M
11"
1v
#10000
0!
0L
0M
#10100
1!
1L
1M
#10200
0#
0!
0O
0L
0M
01"
0v
#10300
1!
1L
1M
#10400
0!
0L
0M
#10500
1#
1!
1O
1L
1M
11"
1v
#10600
0!
0L
0M
#10700
1!
1L
1M
#10800
0#
0!
0O
0L
0M
01"
0v
#10900
1!
1L
1M
#11000
0!
0L
0M
#11100
1#
1!
1O
1L
1M
11"
1v
#11200
0!
0L
0M
#11300
1!
1L
1M
#11400
0#
0!
0O
0L
0M
01"
0v
#11500
1!
1L
1M
#11600
0!
0L
0M
#11700
1#
1!
1O
1L
1M
11"
1v
#11800
0!
0L
0M
#11900
1!
1L
1M
#12000
0#
0!
0O
0L
0M
01"
0v
#12100
1!
1L
1M
#12200
0!
0L
0M
#12300
1#
1!
1O
1L
1M
11"
1v
#12400
0!
0L
0M
#12500
1!
1L
1M
#12600
0#
0!
0O
0L
0M
01"
0v
#12700
1!
1L
1M
#12800
0!
0L
0M
#12900
1#
1!
1O
1L
1M
11"
1v
#13000
0!
0L
0M
#13100
1!
1L
1M
#13200
0#
0!
0O
0L
0M
01"
0v
#13300
1!
1L
1M
#13400
0!
0L
0M
#13500
1#
1!
1O
1L
1M
11"
1v
#13600
0!
0L
0M
#13700
1!
1L
1M
#13800
0#
0!
0O
0L
0M
01"
0v
#13900
1!
1L
1M
#14000
0!
0L
0M
#14100
1#
1!
1O
1L
1M
11"
1v
#14200
0!
0L
0M
#14300
1!
1L
1M
#14400
0#
0!
0O
0L
0M
01"
0v
#14500
1!
1L
1M
#14600
0!
0L
0M
#14700
1#
1!
1O
1L
1M
11"
1v
#14800
0!
0L
0M
#14900
1!
1L
1M
#15000
0#
0!
0O
0L
0M
01"
0v
#15100
1!
1L
1M
#15200
0!
0L
0M
#15300
1#
1!
1O
1L
1M
11"
1v
#15400
0!
0L
0M
#15500
1!
1L
1M
#15600
0#
0!
0O
0L
0M
01"
0v
#15700
1!
1L
1M
#15800
0!
0L
0M
#15900
1#
1!
1O
1L
1M
11"
1v
#16000
0!
0L
0M
#16100
1!
1L
1M
#16200
0#
0!
0O
0L
0M
01"
0v
#16300
1!
1L
1M
#16400
0!
0L
0M
#16500
1#
1!
1O
1L
1M
11"
1v
#16600
0!
0L
0M
#16700
1!
1L
1M
#16800
0#
0!
0O
0L
0M
01"
0v
#16900
1!
1L
1M
#17000
0!
0L
0M
#17100
1#
1!
1O
1L
1M
11"
1v
#17200
0!
0L
0M
#17300
1!
1L
1M
#17400
0#
0!
0O
0L
0M
01"
0v
#17500
1!
1L
1M
#17600
0!
0L
0M
#17700
1#
1!
1O
1L
1M
11"
1v
#17800
0!
0L
0M
#17900
1!
1L
1M
#18000
0#
0!
0O
0L
0M
01"
0v
#18100
1!
1L
1M
#18200
0!
0L
0M
#18300
1#
1!
1O
1L
1M
11"
1v
#18400
0!
0L
0M
#18500
1!
1L
1M
#18600
0#
0!
0O
0L
0M
01"
0v
#18700
1!
1L
1M
#18800
0!
0L
0M
#18900
1#
1!
1O
1L
1M
11"
1v
#19000
0!
0L
0M
#19100
1!
1L
1M
#19200
0#
0!
0O
0L
0M
01"
0v
#19300
1!
1L
1M
#19400
0!
0L
0M
#19500
1#
1!
1O
1L
1M
11"
1v
#19600
0!
0L
0M
#19700
1!
1L
1M
#19800
0#
0!
0O
0L
0M
01"
0v
#19900
1!
1L
1M
#20000
1"
0!
1N
0L
0M
#20100
1#
1!
1O
1L
1M
11"
1v
#20200
0!
0L
0M
#20300
1!
1L
1M
1B#
1]#
1b#
1^#
0/"
1-"
1!!
0,"
1*"
1x
1s
1m
1h
1&!
1"!
0o
1i
1d
1f
1#!
0%!
0j
1n
0[
1Y
1Q
0P
0)"
1u"
1R
1y
00"
0u!
1("
1}"
1{"
1v!
1n!
0i!
1f!
1d!
1L!
1J!
1A!
0.!
1e
01"
1q!
0}"
0{"
0u"
1j!
1_!
1@!
09!
01!
17!
12!
#20400
0#
0!
0O
0L
0M
0v
#20500
1!
1L
1M
#20600
0!
0L
0M
#20700
1#
1!
1O
1L
1M
1v
#20800
0!
0L
0M
#20900
1!
1L
1M
0b#
1,"
0s
1)"
0t
1+"
0{
1u
0}
1|
0~
#21000
0#
0!
0O
0L
0M
0v
#21100
1!
1L
1M
#21200
0!
0L
0M
#21300
1#
1!
1O
1L
1M
1v
#21400
0!
0L
0M
#21500
1!
1L
1M
1a#
1b#
0^#
1_#
1`#
0,"
0w
1{
1}
0-"
0(!
1s
1t
0u
0|
1~
0)"
0+"
1(!
1-"
1|
0~
0."
1+"
1u
1."
#21600
0#
0!
0O
0L
0M
0v
#21700
1!
1L
1M
#21800
0!
0L
0M
#21900
1#
1!
1O
1L
1M
1v
#22000
0!
0L
0M
#22100
1!
1L
1M
0b#
0s
1)"
0+"
#22200
0#
0!
0O
0L
0M
0v
#22300
1!
1L
1M
#22400
0!
0L
0M
#22500
1#
1!
1O
1L
1M
1v
#22600
0!
0L
0M
#22700
1!
1L
1M
0a#
1b#
1s
0t
0)"
1+"
1t
0+"
0u
1u
#22800
0#
0!
0O
0L
0M
0v
#22900
1!
1L
1M
#23000
0!
0L
0M
#23100
1#
1!
1O
1L
1M
1v
#23200
0!
0L
0M
#23300
1!
1L
1M
0b#
0s
1)"
0t
1+"
0u
#23400
0#
0!
0O
0L
0M
0v
#23500
1!
1L
1M
#23600
0!
0L
0M
#23700
1#
1!
1O
1L
1M
1v
#23800
0!
0L
0M
#23900
1!
1L
1M
1a#
1b#
0`#
0{
1s
1t
1u
0)"
0+"
1{
0|
1+"
0u
1|
#24000
0#
0!
0O
0L
0M
0v
#24100
1!
1L
1M
#24200
0!
0L
0M
#24300
1#
1!
1O
1L
1M
1v
#24400
0!
0L
0M
#24500
1!
1L
1M
0b#
0s
1)"
0+"
#24600
0#
0!
0O
0L
0M
0v
#24700
1!
1L
1M
#24800
0!
0L
0M
#24900
1#
1!
1O
1L
1M
1v
#25000
0!
0L
0M
#25100
1!
1L
1M
0a#
1b#
1s
1w
0t
0)"
1+"
1t
0{
0+"
1u
1{
0u
0|
1|
#25200
0#
0!
0O
0L
0M
0v
#25300
1!
1L
1M
#25400
0!
0L
0M
#25500
1#
1!
1O
1L
1M
1v
#25600
0!
0L
0M
#25700
1!
1L
1M
0b#
0s
1)"
0t
1+"
0{
1u
0|
#25800
0#
0!
0O
0L
0M
0v
#25900
1!
1L
1M
#26000
0!
0L
0M
#26100
1#
1!
1O
1L
1M
1v
#26200
0!
0L
0M
#26300
1!
1L
1M
1a#
1b#
0_#
1`#
0w
1{
0}
1s
1t
0u
1|
0)"
0+"
1}
0(!
0|
1~
1+"
1u
1(!
0~
0."
1."
#26400
0#
0!
0O
0L
0M
0v
#26500
1!
1L
1M
#26600
0!
0L
0M
#26700
1#
1!
1O
1L
1M
1v
#26800
0!
0L
0M
#26900
1!
1L
1M
0b#
0s
1)"
0+"
#27000
0#
0!
0O
0L
0M
0v
#27100
1!
1L
1M
#27200
0!
0L
0M
#27300
1#
1!
1O
1L
1M
1v
#27400
0!
0L
0M
#27500
1!
1L
1M
0a#
1b#
1s
0t
0)"
1+"
1t
0+"
0u
1u
#27600
0#
0!
0O
0L
0M
0v
#27700
1!
1L
1M
#27800
0!
0L
0M
#27900
1#
1!
1O
1L
1M
1v
#28000
0!
0L
0M
#28100
1!
1L
1M
0b#
0s
1)"
0t
1+"
0u
#28200
0#
0!
0O
0L
0M
0v
#28300
1!
1L
1M
#28400
0!
0L
0M
#28500
1#
1!
1O
1L
1M
1v
#28600
0!
0L
0M
#28700
1!
1L
1M
1a#
1b#
0`#
0{
1s
1t
1u
0)"
0+"
0}
1{
1|
1+"
0u
0(!
1}
1~
0|
1(!
0."
0~
1."
#28800
0#
0!
0O
0L
0M
0v
#28900
1!
1L
1M
#29000
0!
0L
0M
#29100
1#
1!
1O
1L
1M
1v
#29200
0!
0L
0M
#29300
1!
1L
1M
0b#
0s
1)"
0+"
#29400
0#
0!
0O
0L
0M
0v
#29500
1!
1L
1M
#29600
0!
0L
0M
#29700
1#
1!
1O
1L
1M
1v
#29800
0!
0L
0M
#29900
1!
1L
1M
0a#
1b#
1s
1w
0t
0)"
1+"
1t
0{
0+"
1u
1{
0}
0u
1|
1}
0(!
0|
1~
1(!
0~
0."
1."
#30000
0#
0!
0O
0L
0M
0v
#30100
1!
1L
1M
#30200
0!
0L
0M
#30300
1#
1!
1O
1L
1M
1v
#30400
0!
0L
0M
#30500
1!
1L
1M
0b#
1,"
0s
1)"
0t
0-"
1+"
0{
1u
0}
1|
0(!
1~
0."
#30600
0#
0!
0O
0L
0M
0v
#30700
1!
1L
1M
#30800
0!
0L
0M
#30900
1#
1!
1O
1L
1M
1v
#31000
0!
0L
0M
#31100
1!
1L
1M
0]#
1a#
1b#
1^#
1_#
1`#
0,"
0w
1{
1}
1-"
1(!
1s
1t
0h
0u
0|
0~
0)"
0+"
1h
1|
1~
1+"
1u
#31200
0#
0!
0O
0L
0M
0v
#31300
1!
1L
1M
#31400
0!
0L
0M
#31500
1#
1!
1O
1L
1M
1v
#31600
0!
0L
0M
#31700
1!
1L
1M
0b#
0s
1)"
0+"
#31800
0#
0!
0O
0L
0M
0v
#31900
1!
1L
1M
#32000
0!
0L
0M
#32100
1#
1!
1O
1L
1M
1v
#32200
0!
0L
0M
#32300
1!
1L
1M
0a#
1b#
1s
0t
0)"
1+"
1t
0+"
0u
1u
#32400
0#
0!
0O
0L
0M
0v
#32500
1!
1L
1M
#32600
0!
0L
0M
#32700
1#
1!
1O
1L
1M
1v
#32800
0!
0L
0M
#32900
1!
1L
1M
0b#
0s
1)"
0t
1+"
0u
#33000
0#
0!
0O
0L
0M
0v
#33100
1!
1L
1M
#33200
0!
0L
0M
#33300
1#
1!
1O
1L
1M
1v
#33400
0!
0L
0M
