V1/simulation/qsim/V1.msim.vcd
$comment
	File created using the following command:
		vcd file V1.msim.vcd -direction
$end
$date
	Fri Aug 31 13:21:43 2018
$end
$version
	ModelSim Version 10.5b
$end
$timescale
	1ps
$end

$scope module key_chooser_vlg_vec_tst $end
$var reg 1 ! break_from_key $end
$var reg 1 " clk $end
$var reg 9 # din [8:0] $end
$var reg 1 $ make_from_key $end
$var reg 1 % resetN $end
$var wire 1 & break [12] $end
$var wire 1 ' break [11] $end
$var wire 1 ( break [10] $end
$var wire 1 ) break [9] $end
$var wire 1 * break [8] $end
$var wire 1 + break [7] $end
$var wire 1 , break [6] $end
$var wire 1 - break [5] $end
$var wire 1 . break [4] $end
$var wire 1 / break [3] $end
$var wire 1 0 break [2] $end
$var wire 1 1 break [1] $end
$var wire 1 2 break [0] $end
$var wire 1 3 break_q $end
$var wire 1 4 make [12] $end
$var wire 1 5 make [11] $end
$var wire 1 6 make [10] $end
$var wire 1 7 make [9] $end
$var wire 1 8 make [8] $end
$var wire 1 9 make [7] $end
$var wire 1 : make [6] $end
$var wire 1 ; make [5] $end
$var wire 1 < make [4] $end
$var wire 1 = make [3] $end
$var wire 1 > make [2] $end
$var wire 1 ? make [1] $end
$var wire 1 @ make [0] $end
$var wire 1 A make_q $end

$scope module i1 $end
$var wire 1 B gnd $end
$var wire 1 C vcc $end
$var wire 1 D unknown $end
$var tri1 1 E devclrn $end
$var tri1 1 F devpor $end
$var tri1 1 G devoe $end
$var wire 1 H clk~input_o $end
$var wire 1 I clk~inputCLKENA0_outclk $end
$var wire 1 J din[7]~input_o $end
$var wire 1 K din[2]~input_o $end
$var wire 1 L din[6]~input_o $end
$var wire 1 M din[8]~input_o $end
$var wire 1 N din[1]~input_o $end
$var wire 1 O Equal0~0_combout $end
$var wire 1 P din[3]~input_o $end
$var wire 1 Q din[5]~input_o $end
$var wire 1 R din[0]~input_o $end
$var wire 1 S Mux25~0_combout $end
$var wire 1 T make_from_key~input_o $end
$var wire 1 U cur_state~0_combout $end
$var wire 1 V resetN~input_o $end
$var wire 1 W cur_state~q $end
$var wire 1 X din[4]~input_o $end
$var wire 1 Y make_q~0_combout $end
$var wire 1 Z make_q~1_combout $end
$var wire 1 [ make_q~reg0_q $end
$var wire 1 \ break_from_key~input_o $end
$var wire 1 ] Mux12~4_combout $end
$var wire 1 ^ Mux12~5_combout $end
$var wire 1 _ Mux12~2_combout $end
$var wire 1 ` Mux12~3_combout $end
$var wire 1 a Mux12~0_combout $end
$var wire 1 b Mux12~1_combout $end
$var wire 1 c Mux12~6_combout $end
$var wire 1 d make[0]~reg0_q $end
$var wire 1 e make~2_combout $end
$var wire 1 f Mux11~5_combout $end
$var wire 1 g Mux11~4_combout $end
$var wire 1 h Mux11~6_combout $end
$var wire 1 i Mux11~0_combout $end
$var wire 1 j make~1_combout $end
$var wire 1 k make~0_combout $end
$var wire 1 l Mux11~1_combout $end
$var wire 1 m Mux11~7_combout $end
$var wire 1 n Mux11~8_combout $end
$var wire 1 o Mux11~2_combout $end
$var wire 1 p Mux11~3_combout $end
$var wire 1 q Mux11~9_combout $end
$var wire 1 r make[1]~reg0_q $end
$var wire 1 s Mux10~3_combout $end
$var wire 1 t Mux10~2_combout $end
$var wire 1 u Mux10~5_combout $end
$var wire 1 v Mux10~1_combout $end
$var wire 1 w Mux10~0_combout $end
$var wire 1 x Mux10~4_combout $end
$var wire 1 y make[2]~reg0_q $end
$var wire 1 z Mux9~0_combout $end
$var wire 1 { make~3_combout $end
$var wire 1 | Mux9~1_combout $end
$var wire 1 } Mux9~4_combout $end
$var wire 1 ~ Mux9~5_combout $end
$var wire 1 !! Mux9~2_combout $end
$var wire 1 "! Mux9~3_combout $end
$var wire 1 #! Mux9~6_combout $end
$var wire 1 $! make[3]~reg0_q $end
$var wire 1 %! Mux8~0_combout $end
$var wire 1 &! Mux8~1_combout $end
$var wire 1 '! Mux8~2_combout $end
$var wire 1 (! Mux8~3_combout $end
$var wire 1 )! Mux8~4_combout $end
$var wire 1 *! make[4]~reg0_q $end
$var wire 1 +! Mux7~3_combout $end
$var wire 1 ,! Mux7~5_combout $end
$var wire 1 -! Mux7~1_combout $end
$var wire 1 .! Mux7~2_combout $end
$var wire 1 /! Mux7~0_combout $end
$var wire 1 0! Mux7~4_combout $end
$var wire 1 1! make[5]~reg0_q $end
$var wire 1 2! Mux6~3_combout $end
$var wire 1 3! Mux6~0_combout $end
$var wire 1 4! Mux6~4_combout $end
$var wire 1 5! Mux6~1_combout $end
$var wire 1 6! Mux6~2_combout $end
$var wire 1 7! Mux6~5_combout $end
$var wire 1 8! make[6]~reg0_q $end
$var wire 1 9! Mux5~2_combout $end
$var wire 1 :! Mux5~0_combout $end
$var wire 1 ;! Mux5~4_combout $end
$var wire 1 <! Mux5~1_combout $end
$var wire 1 =! Mux5~3_combout $end
$var wire 1 >! Mux5~5_combout $end
$var wire 1 ?! make[7]~reg0_q $end
$var wire 1 @! Mux4~3_combout $end
$var wire 1 A! Mux4~2_combout $end
$var wire 1 B! Mux4~1_combout $end
$var wire 1 C! Mux4~4_combout $end
$var wire 1 D! Mux4~0_combout $end
$var wire 1 E! Mux4~5_combout $end
$var wire 1 F! make[8]~reg0_q $end
$var wire 1 G! Mux3~1_combout $end
$var wire 1 H! Mux3~3_combout $end
$var wire 1 I! Mux3~2_combout $end
$var wire 1 J! Mux3~4_combout $end
$var wire 1 K! Mux8~5_combout $end
$var wire 1 L! Mux3~0_combout $end
$var wire 1 M! Mux3~5_combout $end
$var wire 1 N! make[9]~reg0_q $end
$var wire 1 O! Mux2~1_combout $end
$var wire 1 P! Mux2~0_combout $end
$var wire 1 Q! Mux2~2_combout $end
$var wire 1 R! Mux2~3_combout $end
$var wire 1 S! make[10]~reg0_q $end
$var wire 1 T! Mux1~0_combout $end
$var wire 1 U! Mux1~1_combout $end
$var wire 1 V! Mux1~2_combout $end
$var wire 1 W! Mux1~3_combout $end
$var wire 1 X! make[11]~reg0_q $end
$var wire 1 Y! Mux0~2_combout $end
$var wire 1 Z! Mux0~0_combout $end
$var wire 1 [! Mux0~1_combout $end
$var wire 1 \! Mux0~3_combout $end
$var wire 1 ]! make[12]~reg0_q $end
$var wire 1 ^! Mux25~1_combout $end
$var wire 1 _! Mux25~4_combout $end
$var wire 1 `! Mux25~2_combout $end
$var wire 1 a! Mux25~3_combout $end
$var wire 1 b! ~GND~combout $end
$var wire 1 c! break[0]~reg0_q $end
$var wire 1 d! Mux13~0_combout $end
$var wire 1 e! Mux24~1_combout $end
$var wire 1 f! Mux24~3_combout $end
$var wire 1 g! Mux24~0_combout $end
$var wire 1 h! Mux24~2_combout $end
$var wire 1 i! break[1]~reg0_q $end
$var wire 1 j! Mux23~1_combout $end
$var wire 1 k! Mux23~0_combout $end
$var wire 1 l! Mux23~4_combout $end
$var wire 1 m! Mux23~2_combout $end
$var wire 1 n! Mux23~3_combout $end
$var wire 1 o! break[2]~reg0_q $end
$var wire 1 p! Mux22~2_combout $end
$var wire 1 q! Mux22~0_combout $end
$var wire 1 r! Mux22~1_combout $end
$var wire 1 s! break[3]~reg0_q $end
$var wire 1 t! Mux21~1_combout $end
$var wire 1 u! Mux21~2_combout $end
$var wire 1 v! Mux21~0_combout $end
$var wire 1 w! Mux21~3_combout $end
$var wire 1 x! break[4]~reg0_q $end
$var wire 1 y! Mux20~2_combout $end
$var wire 1 z! Mux20~0_combout $end
$var wire 1 {! Mux20~1_combout $end
$var wire 1 |! break[5]~reg0_q $end
$var wire 1 }! Mux19~2_combout $end
$var wire 1 ~! Mux19~0_combout $end
$var wire 1 !" Mux19~1_combout $end
$var wire 1 "" break[6]~reg0_q $end
$var wire 1 #" Mux18~0_combout $end
$var wire 1 $" Mux18~1_combout $end
$var wire 1 %" break[7]~reg0_q $end
$var wire 1 &" Mux17~2_combout $end
$var wire 1 '" Mux17~0_combout $end
$var wire 1 (" Mux17~1_combout $end
$var wire 1 )" break[8]~reg0_q $end
$var wire 1 *" Mux16~2_combout $end
$var wire 1 +" Mux16~0_combout $end
$var wire 1 ," Mux16~1_combout $end
$var wire 1 -" break[9]~reg0_q $end
$var wire 1 ." Mux15~2_combout $end
$var wire 1 /" Mux15~0_combout $end
$var wire 1 0" Mux15~1_combout $end
$var wire 1 1" break[10]~reg0_q $end
$var wire 1 2" Mux14~0_combout $end
$var wire 1 3" Mux14~1_combout $end
$var wire 1 4" Mux14~2_combout $end
$var wire 1 5" Mux14~4_combout $end
$var wire 1 6" Mux14~5_combout $end
$var wire 1 7" Mux14~3_combout $end
$var wire 1 8" Mux14~6_combout $end
$var wire 1 9" break[11]~reg0_q $end
$var wire 1 :" Mux13~3_combout $end
$var wire 1 ;" Mux13~1_combout $end
$var wire 1 <" Mux13~2_combout $end
$var wire 1 =" break[12]~reg0_q $end
$upscope $end
$upscope $end
$enddefinitions $end
#0
$dumpvars
0!
0"
b0 #
0$
0%
02
01
00
0/
0.
0-
0,
0+
0*
0)
0(
0'
0&
03
0@
0?
0>
0=
0<
0;
0:
09
08
07
06
05
04
0A
0B
1C
xD
1E
1F
1G
0H
0I
0J
0K
0L
0M
0N
0O
0P
0Q
0R
0S
0T
0U
0V
0W
0X
0Y
1Z
0[
0\
0]
0^
0_
0`
0a
0b
1c
0d
1e
0f
0g
0h
0i
0j
1k
0l
0m
1n
0o
0p
1q
0r
0s
0t
0u
0v
1w
1x
0y
0z
0{
0|
0}
1~
0!!
0"!
1#!
0$!
0%!
0&!
0'!
0(!
1)!
0*!
0+!
0,!
0-!
0.!
1/!
10!
01!
02!
13!
04!
05!
06!
17!
08!
19!
0:!
0;!
1<!
1=!
1>!
0?!
0@!
0A!
0B!
0C!
1D!
1E!
0F!
0G!
0H!
0I!
0J!
0K!
0L!
1M!
0N!
0O!
1P!
0Q!
1R!
0S!
1T!
1U!
1V!
1W!
0X!
0Y!
1Z!
0[!
1\!
0]!
0^!
1_!
0`!
1a!
0b!
0c!
0d!
0e!
0f!
0g!
1h!
0i!
0j!
0k!
0l!
0m!
1n!
0o!
0p!
0q!
1r!
0s!
1t!
0u!
0v!
1w!
0x!
0y!
0z!
1{!
0|!
0}!
0~!
1!"
0""
0#"
1$"
0%"
0&"
0'"
1("
0)"
0*"
0+"
1,"
0-"
1."
0/"
10"
01"
02"
03"
14"
05"
06"
07"
18"
09"
1:"
0;"
1<"
0="
$end
#5000
1"
1H
1I
#10000
0"
0H
0I
#15000
1"
1H
1I
#20000
0"
0H
0I
#25000
1"
1H
1I
#30000
0"
0H
0I
#35000
1"
1H
1I
#40000
0"
0H
0I
#45000
1"
1H
1I
#50000
1$
b10000 #
b10100 #
b10110 #
0"
1T
1N
1K
1X
0H
0I
13"
1&"
1y!
0t!
1k!
1f!
0T!
0P!
1I!
0D!
1;!
15!
1'!
1!!
1z
1p
1l
1a
1d!
1[!
1J!
09!
16!
03!
0/!
0~
0w
0n
1;"
1/"
1+"
1~!
1q!
1g!
1`!
1+!
0\!
1U
16"
1u!
1b
0+!
1"!
0[!
1(!
06!
0U!
0J!
0g!
1'"
1z!
1m!
04"
0a!
0h!
0r!
0!"
0,"
00"
0<"
0x
0>!
1\!
0E!
08"
0n!
0{!
0("
1h!
0M!
0W!
07!
0R!
0)!
0\!
0#!
00!
0c
0$"
0w!
#55000
1"
1H
1I
#60000
0"
0H
0I
#65000
1"
1H
1I
#70000
0"
0H
0I
#75000
1"
1H
1I
#80000
0"
0H
0I
#85000
1"
1H
1I
#90000
0"
0H
0I
#95000
1"
1H
1I
#100000
0"
0H
0I
#105000
1"
1H
1I
#110000
0"
0H
0I
#115000
1"
1H
1I
#120000
0"
0H
0I
#125000
1"
1H
1I
#130000
0"
0H
0I
#135000
1"
1H
1I
#140000
0"
0H
0I
#145000
1"
1H
1I
#150000
0"
0H
0I
#155000
1"
1H
1I
#160000
0"
0H
0I
#165000
1"
1H
1I
#170000
0"
0H
0I
#175000
1"
1H
1I
#180000
1!
0$
0"
1\
0T
0H
0I
1j
0U
0l
0q
#185000
1"
1H
1I
#190000
b110 #
b10 #
b0 #
0!
0"
0N
0K
0X
0\
0H
0I
1T!
1D!
05!
0j
03"
0&"
0y!
1t!
0k!
0f!
1P!
0I!
0;!
0'!
0!!
0z
0p
0a
0d!
19!
13!
1/!
0(!
1~
1w
1n
0b
0;"
0/"
0+"
0~!
0u!
0q!
0`!
1a!
1\!
1W!
1E!
1>!
06"
0"!
1U!
0'"
0z!
0m!
14"
1r!
1$"
1w!
1!"
1,"
10"
1<"
1c
1q
1x
1#!
1R!
1)!
10!
1M!
17!
1("
1{!
1n!
18"
#195000
1"
1H
1I
#200000
0"
0H
0I
#205000
1"
1H
1I
#210000
0"
0H
0I
#215000
1"
1H
1I
#220000
0"
0H
0I
#225000
1"
1H
1I
#230000
0"
0H
0I
#235000
1"
1H
1I
#240000
0"
0H
0I
#245000
1"
1H
1I
#250000
0"
0H
0I
#255000
1"
1H
1I
#260000
0"
0H
0I
#265000
1"
1H
1I
#270000
0"
0H
0I
#275000
1"
1H
1I
#280000
0"
0H
0I
#285000
1"
1H
1I
#290000
0"
0H
0I
#295000
1"
1H
1I
#300000
0"
0H
0I
#305000
1"
1H
1I
#310000
0"
0H
0I
#315000
1"
1H
1I
#320000
0"
0H
0I
#325000
1"
1H
1I
#330000
0"
0H
0I
#335000
1"
1H
1I
#340000
0"
0H
0I
#345000
1"
1H
1I
#350000
0"
0H
0I
#355000
1"
1H
1I
#360000
0"
0H
0I
#365000
1"
1H
1I
#370000
0"
0H
0I
#375000
1"
1H
1I
#380000
0"
0H
0I
#385000
1"
1H
1I
#390000
0"
0H
0I
#395000
1"
1H
1I
#400000
0"
0H
0I
#405000
1"
1H
1I
#410000
0"
0H
0I
#415000
1"
1H
1I
#420000
0"
0H
0I
#425000
1"
1H
1I
#430000
0"
0H
0I
#435000
1"
1H
1I
#440000
0"
0H
0I
#445000
1"
1H
1I
#450000
0"
0H
0I
#455000
1"
1H
1I
#460000
0"
0H
0I
#465000
1"
1H
1I
#470000
0"
0H
0I
#475000
1"
1H
1I
#480000
0"
0H
0I
#485000
1"
1H
1I
#490000
0"
0H
0I
#495000
1"
1H
1I
#500000
0"
0H
0I
#505000
1"
1H
1I
#510000
0"
0H
0I
#515000
1"
1H
1I
#520000
0"
0H
0I
#525000
1"
1H
1I
#530000
0"
0H
0I
#535000
1"
1H
1I
#540000
0"
0H
0I
#545000
1"
1H
1I
#550000
0"
0H
0I
#555000
1"
1H
1I
#560000
0"
0H
0I
#565000
1"
1H
1I
#570000
0"
0H
0I
#575000
1"
1H
1I
#580000
0"
0H
0I
#585000
1"
1H
1I
#590000
0"
0H
0I
#595000
1"
1H
1I
#600000
0"
0H
0I
#605000
1"
1H
1I
#610000
0"
0H
0I
#615000
1"
1H
1I
#620000
0"
0H
0I
#625000
1"
1H
1I
#630000
0"
0H
0I
#635000
1"
1H
1I
#640000
0"
0H
0I
#645000
1"
1H
1I
#650000
0"
0H
0I
#655000
1"
1H
1I
#660000
0"
0H
0I
#665000
1"
1H
1I
#670000
0"
0H
0I
#675000
1"
1H
1I
#680000
0"
0H
0I
#685000
1"
1H
1I
#690000
0"
0H
0I
#695000
1"
1H
1I
#700000
0"
0H
0I
#705000
1"
1H
1I
#710000
0"
0H
0I
#715000
1"
1H
1I
#720000
0"
0H
0I
#725000
1"
1H
1I
#730000
0"
0H
0I
#735000
1"
1H
1I
#740000
0"
0H
0I
#745000
1"
1H
1I
#750000
0"
0H
0I
#755000
1"
1H
1I
#760000
0"
0H
0I
#765000
1"
1H
1I
#770000
0"
0H
0I
#775000
1"
1H
1I
#780000
0"
0H
0I
#785000
1"
1H
1I
#790000
0"
0H
0I
#795000
1"
1H
1I
#800000
0"
0H
0I
#805000
1"
1H
1I
#810000
0"
0H
0I
#815000
1"
1H
1I
#820000
0"
0H
0I
#825000
1"
1H
1I
#830000
0"
0H
0I
#835000
1"
1H
1I
#840000
0"
0H
0I
#845000
1"
1H
1I
#850000
0"
0H
0I
#855000
1"
1H
1I
#860000
0"
0H
0I
#865000
1"
1H
1I
#870000
0"
0H
0I
#875000
1"
1H
1I
#880000
0"
0H
0I
#885000
1"
1H
1I
#890000
0"
0H
0I
#895000
1"
1H
1I
#900000
0"
0H
0I
#905000
1"
1H
1I
#910000
0"
0H
0I
#915000
1"
1H
1I
#920000
0"
0H
0I
#925000
1"
1H
1I
#930000
0"
0H
0I
#935000
1"
1H
1I
#940000
0"
0H
0I
#945000
1"
1H
1I
#950000
0"
0H
0I
#955000
1"
1H
1I
#960000
0"
0H
0I
#965000
1"
1H
1I
#970000
0"
0H
0I
#975000
1"
1H
1I
#980000
0"
0H
0I
#985000
1"
1H
1I
#990000
0"
0H
0I
#995000
1"
1H
1I
