V1/simulation/qsim/V1.msim.vcd
$comment
	File created using the following command:
		vcd file V1.msim.vcd -direction
$end
$date
	Wed Aug 29 16:55:50 2018
$end
$version
	ModelSim Version 10.5b
$end
$timescale
	1ps
$end

$scope module addr_counter_vlg_vec_tst $end
$var reg 1 ! CLK_IN $end
$var reg 1 " en $end
$var reg 1 # en1 $end
$var reg 1 $ resetN $end
$var wire 1 % addr [7] $end
$var wire 1 & addr [6] $end
$var wire 1 ' addr [5] $end
$var wire 1 ( addr [4] $end
$var wire 1 ) addr [3] $end
$var wire 1 * addr [2] $end
$var wire 1 + addr [1] $end
$var wire 1 , addr [0] $end

$scope module i1 $end
$var wire 1 - gnd $end
$var wire 1 . vcc $end
$var wire 1 / unknown $end
$var tri1 1 0 devclrn $end
$var tri1 1 1 devpor $end
$var tri1 1 2 devoe $end
$var wire 1 3 ~QUARTUS_CREATED_GND~I_combout $end
$var wire 1 4 CLK_IN~input_o $end
$var wire 1 5 CLK_IN~inputCLKENA0_outclk $end
$var wire 1 6 en1~input_o $end
$var wire 1 7 en~input_o $end
$var wire 1 8 Add0~2 $end
$var wire 1 9 Add0~5_sumout $end
$var wire 1 : tmp~1_combout $end
$var wire 1 ; resetN~input_o $end
$var wire 1 < Add0~6 $end
$var wire 1 = Add0~9_sumout $end
$var wire 1 > tmp~2_combout $end
$var wire 1 ? Add0~10 $end
$var wire 1 @ Add0~13_sumout $end
$var wire 1 A tmp~3_combout $end
$var wire 1 B Add0~14 $end
$var wire 1 C Add0~17_sumout $end
$var wire 1 D tmp~4_combout $end
$var wire 1 E Add0~18 $end
$var wire 1 F Add0~21_sumout $end
$var wire 1 G tmp~5_combout $end
$var wire 1 H Add0~22 $end
$var wire 1 I Add0~25_sumout $end
$var wire 1 J tmp~6_combout $end
$var wire 1 K Add0~26 $end
$var wire 1 L Add0~29_sumout $end
$var wire 1 M tmp~7_combout $end
$var wire 1 N Equal0~6_combout $end
$var wire 1 O tmp~26_combout $end
$var wire 1 P tmp~27_combout $end
$var wire 1 Q Add0~30 $end
$var wire 1 R Add0~61_sumout $end
$var wire 1 S tmp~20_combout $end
$var wire 1 T tmp~21_combout $end
$var wire 1 U Add0~62 $end
$var wire 1 V Add0~66 $end
$var wire 1 W Add0~117_sumout $end
$var wire 1 X tmp~16_combout $end
$var wire 1 Y tmp~17_combout $end
$var wire 1 Z Add0~118 $end
$var wire 1 [ Add0~121_sumout $end
$var wire 1 \ tmp~14_combout $end
$var wire 1 ] tmp~15_combout $end
$var wire 1 ^ Add0~122 $end
$var wire 1 _ Add0~125_sumout $end
$var wire 1 ` tmp~12_combout $end
$var wire 1 a tmp~13_combout $end
$var wire 1 b Add0~126 $end
$var wire 1 c Add0~85_sumout $end
$var wire 1 d tmp~10_combout $end
$var wire 1 e tmp~11_combout $end
$var wire 1 f Add0~86 $end
$var wire 1 g Add0~41_sumout $end
$var wire 1 h tmp~32_combout $end
$var wire 1 i tmp~33_combout $end
$var wire 1 j Add0~42 $end
$var wire 1 k Add0~89_sumout $end
$var wire 1 l tmp~30_combout $end
$var wire 1 m tmp~31_combout $end
$var wire 1 n Add0~90 $end
$var wire 1 o Add0~93_sumout $end
$var wire 1 p tmp~28_combout $end
$var wire 1 q tmp~29_combout $end
$var wire 1 r Add0~94 $end
$var wire 1 s Add0~97_sumout $end
$var wire 1 t tmp~50_combout $end
$var wire 1 u tmp~51_combout $end
$var wire 1 v Add0~98 $end
$var wire 1 w Add0~45_sumout $end
$var wire 1 x tmp~24_combout $end
$var wire 1 y tmp~25_combout $end
$var wire 1 z Add0~46 $end
$var wire 1 { Add0~49_sumout $end
$var wire 1 | tmp~22_combout $end
$var wire 1 } tmp~23_combout $end
$var wire 1 ~ Add0~50 $end
$var wire 1 !! Add0~54 $end
$var wire 1 "! Add0~69_sumout $end
$var wire 1 #! tmp~54_combout $end
$var wire 1 $! tmp~55_combout $end
$var wire 1 %! Add0~70 $end
$var wire 1 &! Add0~101_sumout $end
$var wire 1 '! tmp~52_combout $end
$var wire 1 (! tmp~53_combout $end
$var wire 1 )! Add0~102 $end
$var wire 1 *! Add0~105_sumout $end
$var wire 1 +! tmp~48_combout $end
$var wire 1 ,! tmp~49_combout $end
$var wire 1 -! Add0~106 $end
$var wire 1 .! Add0~109_sumout $end
$var wire 1 /! ready~3_combout $end
$var wire 1 0! tmp~38_combout $end
$var wire 1 1! tmp~39_combout $end
$var wire 1 2! Add0~110 $end
$var wire 1 3! Add0~57_sumout $end
$var wire 1 4! tmp~46_combout $end
$var wire 1 5! tmp~47_combout $end
$var wire 1 6! Add0~58 $end
$var wire 1 7! Add0~73_sumout $end
$var wire 1 8! tmp~44_combout $end
$var wire 1 9! tmp~45_combout $end
$var wire 1 :! Add0~74 $end
$var wire 1 ;! Add0~78 $end
$var wire 1 <! Add0~81_sumout $end
$var wire 1 =! tmp~40_combout $end
$var wire 1 >! tmp~41_combout $end
$var wire 1 ?! Add0~82 $end
$var wire 1 @! Add0~113_sumout $end
$var wire 1 A! ready~4_combout $end
$var wire 1 B! tmp~42_combout $end
$var wire 1 C! tmp~43_combout $end
$var wire 1 D! Add0~77_sumout $end
$var wire 1 E! Add0~1_sumout $end
$var wire 1 F! ready~7_combout $end
$var wire 1 G! ready~8_combout $end
$var wire 1 H! ready~2_combout $end
$var wire 1 I! tmp~8_combout $end
$var wire 1 J! tmp~9_combout $end
$var wire 1 K! Add0~53_sumout $end
$var wire 1 L! Add0~65_sumout $end
$var wire 1 M! ready~0_combout $end
$var wire 1 N! ready~1_combout $end
$var wire 1 O! tmp~18_combout $end
$var wire 1 P! tmp~19_combout $end
$var wire 1 Q! Equal0~1_combout $end
$var wire 1 R! Equal0~3_combout $end
$var wire 1 S! Equal0~0_combout $end
$var wire 1 T! Equal0~2_combout $end
$var wire 1 U! Equal0~4_combout $end
$var wire 1 V! Equal0~5_combout $end
$var wire 1 W! process_0~1_combout $end
$var wire 1 X! tmp~34_combout $end
$var wire 1 Y! ready~9_combout $end
$var wire 1 Z! ready~6_combout $end
$var wire 1 [! tmp~35_combout $end
$var wire 1 \! Add0~114 $end
$var wire 1 ]! Add0~34 $end
$var wire 1 ^! Add0~37_sumout $end
$var wire 1 _! tmp~36_combout $end
$var wire 1 `! tmp~37_combout $end
$var wire 1 a! Add0~33_sumout $end
$var wire 1 b! ready~5_combout $end
$var wire 1 c! ready~q $end
$var wire 1 d! process_0~0_combout $end
$var wire 1 e! tmp~0_combout $end
$var wire 1 f! tmp [31] $end
$var wire 1 g! tmp [30] $end
$var wire 1 h! tmp [29] $end
$var wire 1 i! tmp [28] $end
$var wire 1 j! tmp [27] $end
$var wire 1 k! tmp [26] $end
$var wire 1 l! tmp [25] $end
$var wire 1 m! tmp [24] $end
$var wire 1 n! tmp [23] $end
$var wire 1 o! tmp [22] $end
$var wire 1 p! tmp [21] $end
$var wire 1 q! tmp [20] $end
$var wire 1 r! tmp [19] $end
$var wire 1 s! tmp [18] $end
$var wire 1 t! tmp [17] $end
$var wire 1 u! tmp [16] $end
$var wire 1 v! tmp [15] $end
$var wire 1 w! tmp [14] $end
$var wire 1 x! tmp [13] $end
$var wire 1 y! tmp [12] $end
$var wire 1 z! tmp [11] $end
$var wire 1 {! tmp [10] $end
$var wire 1 |! tmp [9] $end
$var wire 1 }! tmp [8] $end
$var wire 1 ~! tmp [7] $end
$var wire 1 !" tmp [6] $end
$var wire 1 "" tmp [5] $end
$var wire 1 #" tmp [4] $end
$var wire 1 $" tmp [3] $end
$var wire 1 %" tmp [2] $end
$var wire 1 &" tmp [1] $end
$var wire 1 '" tmp [0] $end
$upscope $end
$upscope $end
$enddefinitions $end
#0
$dumpvars
0!
0"
0#
0$
1,
1+
1*
1)
1(
1'
1&
1%
0-
1.
x/
10
11
12
03
04
05
06
07
18
09
0:
0;
1<
0=
0>
1?
0@
0A
1B
0C
0D
1E
0F
0G
1H
0I
0J
1K
0L
0M
1N
1O
0P
1Q
0R
1S
0T
1U
1V
0W
1X
0Y
1Z
0[
1\
0]
1^
0_
1`
0a
1b
0c
1d
0e
1f
0g
1h
0i
1j
0k
1l
0m
1n
0o
1p
0q
1r
0s
1t
0u
1v
0w
1x
0y
1z
0{
1|
0}
1~
1!!
0"!
1#!
0$!
1%!
0&!
1'!
0(!
1)!
0*!
1+!
0,!
1-!
0.!
0/!
10!
01!
12!
03!
14!
05!
16!
07!
18!
09!
1:!
1;!
0<!
1=!
0>!
1?!
0@!
0A!
1B!
0C!
0D!
0E!
0F!
1G!
0H!
1I!
0J!
0K!
0L!
0M!
0N!
1O!
0P!
1Q!
1R!
1S!
1T!
1U!
1V!
0W!
1X!
0Y!
0Z!
0[!
1\!
1]!
0^!
1_!
0`!
0a!
1b!
0c!
0d!
0e!
0'"
0&"
0%"
0$"
0#"
0""
0!"
0~!
0}!
0|!
0{!
0z!
0y!
0x!
0w!
0v!
0u!
0t!
0s!
0r!
0q!
0p!
0o!
0n!
0m!
0l!
0k!
0j!
0i!
0h!
0g!
0f!
$end
#750
1!
14
15
#1000
0!
04
05
#1500
1"
17
#1750
1!
14
15
#2000
0"
0!
07
04
05
#2750
1!
14
15
#3000
0!
04
05
#3500
1"
17
#3750
1!
14
15
#4000
0"
0!
07
04
05
#4750
1!
14
15
#5000
0!
04
05
#5500
1"
17
#5750
1!
14
15
#6000
0"
0!
07
04
05
#6750
1!
14
15
#7000
0!
04
05
#7500
1"
17
#7750
1!
14
15
#8000
0"
0!
07
04
05
#8750
1!
14
15
#9000
0!
04
05
#9500
1"
17
#9750
1!
14
15
#10000
0"
0!
07
04
05
#10750
1!
14
15
#11000
0!
04
05
#11500
1"
17
#11750
1!
14
15
#12000
0"
0!
07
04
05
#12750
1!
14
15
#13000
0!
04
05
#13500
1"
17
#13750
1!
14
15
#14000
0"
0!
07
04
05
#14750
1!
14
15
#15000
0!
04
05
#15500
1"
17
#15750
1!
14
15
#16000
0"
0!
07
04
05
#16750
1!
14
15
#17000
0!
04
05
#17500
1"
17
#17750
1!
14
15
#18000
0"
0!
07
04
05
#18750
1!
14
15
#19000
0!
04
05
#19500
1"
17
#19750
1!
14
15
#20000
0"
0!
07
04
05
#20750
1!
14
15
#21000
0!
04
05
#21500
1"
17
#21750
1!
14
15
#22000
0"
0!
07
04
05
#22750
1!
14
15
#23000
0!
04
05
#23500
1"
17
#23750
1!
14
15
#24000
0"
0!
07
04
05
#24750
1!
14
15
#25000
0!
04
05
#25500
1"
17
#25750
1!
14
15
#26000
0"
0!
07
04
05
#26750
1!
14
15
#27000
0!
04
05
#27500
1"
17
#27750
1!
14
15
#28000
0"
0!
07
04
05
#28750
1!
14
15
#29000
0!
04
05
#29500
1"
17
#29750
1!
14
15
#30000
0"
0!
07
04
05
#30750
1!
14
15
#31000
0!
04
05
#31500
1"
17
#31750
1!
14
15
#32000
0"
0!
07
04
05
#32750
1!
14
15
#33000
0!
04
05
#33500
1"
17
#33750
1!
14
15
#34000
0"
0!
07
04
05
#34750
1!
14
15
#35000
0!
04
05
#35500
1"
17
#35750
1!
14
15
#36000
0"
0!
07
04
05
#36750
1!
14
15
#37000
0!
04
05
#37500
1"
17
#37750
1!
14
15
#38000
0"
0!
07
04
05
#38750
1!
14
15
#39000
0!
04
05
#39500
1"
17
#39750
1!
14
15
#40000
1$
0"
0!
1;
07
04
05
#40750
1!
14
15
1c!
#41000
0!
04
05
#41500
1"
17
#41750
1!
14
15
#42000
0"
0!
07
04
05
#42750
1!
14
15
#43000
0!
04
05
#43500
1"
17
#43750
1!
14
15
#44000
0"
0!
07
04
05
#44750
1!
14
15
#45000
0!
04
05
#45500
1"
17
#45750
1!
14
15
#46000
0"
0!
07
04
05
#46750
1!
14
15
#47000
0!
04
05
#47500
1"
17
#47750
1!
14
15
#48000
0"
0!
07
04
05
#48750
1!
14
15
#49000
0!
04
05
#49500
1"
17
#49750
1!
14
15
#50000
0"
0!
07
04
05
#50750
1!
14
15
#51000
0!
04
05
#51500
1"
17
#51750
1!
14
15
#52000
0"
0!
07
04
05
#52750
1!
14
15
#53000
0!
04
05
#53500
1"
17
#53750
1!
14
15
#54000
0"
0!
07
04
05
#54750
1!
14
15
#55000
0!
04
05
#55500
1"
17
#55750
1!
14
15
#56000
0"
0!
07
04
05
#56750
1!
14
15
#57000
0!
04
05
#57500
1"
17
#57750
1!
14
15
#58000
0"
0!
07
04
05
#58750
1!
14
15
#59000
0!
04
05
#59500
1"
17
#59750
1!
14
15
#60000
1#
0"
0!
16
07
04
05
1d!
1^!
0]!
1a!
0\!
1@!
0?!
1<!
0;!
1D!
0:!
17!
06!
13!
02!
1.!
0-!
1*!
0)!
1&!
0%!
1"!
0!!
1K!
0~
1{
0z
1w
0v
1s
0r
1o
0n
1k
0j
1g
0f
1c
0b
1_
0^
1[
0Z
1W
0V
1L!
0U
1R
0N
0Q
1L
0K
1I
0H
1F
0E
1C
0B
1@
0?
1=
0<
19
08
1E!
0b!
0^!
0a!
0@!
0<!
0D!
07!
03!
0.!
0*!
0&!
0"!
0K!
0{
0w
0s
0o
0k
0g
0c
0_
0[
0W
0L!
0R
0L
0I
0F
0C
0@
0=
09
1e!
1F!
1:
1>
1A
1D
1G
1J
1M
0X!
0O!
0|
0x
0p
0l
0h
0d
0`
0\
0X
0S
0O
0G!
0I!
0#!
0'!
0t
0+!
04!
08!
0B!
0=!
00!
0_!
0F!
1G!
1`!
11!
1>!
1C!
19!
15!
1,!
1u
1(!
1$!
1J!
1P
1T
1Y
1]
1a
1e
1i
1m
1q
1y
1}
1P!
1[!
#60750
1!
14
15
1'"
0c!
1g!
1f!
1|!
1q!
1j!
1i!
1k!
1l!
1h!
1m!
1o!
1p!
1r!
1s!
1n!
1u!
1v!
1w!
1x!
1y!
1z!
1{!
1}!
1t!
1~!
1!"
1""
1#"
1$"
1%"
1&"
0+
0*
0)
0(
0'
0&
0%
0,
0S!
0T!
0Q!
0U!
0R!
0V!
0d!
#61000
0!
04
05
#61500
1"
17
1W!
1/!
1A!
0e!
#61750
1!
14
15
0'"
1,
18
0E!
19
1e!
0:
#62000
0"
0!
07
04
05
0W!
0/!
0A!
0e!
1:
#62750
1!
14
15
#63000
0!
04
05
#63500
1"
17
1W!
1/!
1A!
1e!
0:
#63750
1!
14
15
1'"
0&"
1+
0,
1<
09
08
1E!
1=
0<
19
0e!
1:
0=
0:
0>
1>
#64000
0"
0!
07
04
05
0W!
0/!
0A!
1e!
#64750
1!
14
15
#65000
0!
04
05
#65500
1"
17
1W!
1/!
1A!
0e!
#65750
1!
14
15
0'"
1,
18
0E!
1<
09
1e!
1=
1:
0>
#66000
0"
0!
07
04
05
0W!
0/!
0A!
0e!
1>
0:
#66750
1!
14
15
#67000
0!
04
05
#67500
1"
17
1W!
1/!
1A!
1e!
0>
1:
#67750
1!
14
15
1'"
0%"
1&"
0+
1*
0,
0<
19
1?
0=
08
1E!
0?
1=
1@
09
0e!
1>
0:
0@
1:
0A
0>
1A
#68000
0"
0!
07
04
05
0W!
0/!
0A!
1e!
#68750
1!
14
15
#69000
0!
04
05
#69500
1"
17
1W!
1/!
1A!
0e!
#69750
1!
14
15
0'"
1,
18
0E!
19
1e!
0:
#70000
0"
0!
07
04
05
0W!
0/!
0A!
0e!
1:
#70750
1!
14
15
#71000
0!
04
05
#71500
1"
17
1W!
1/!
1A!
1e!
0:
#71750
1!
14
15
1'"
0&"
1+
0,
1<
09
08
1E!
1?
0=
0<
19
0e!
1:
1@
0?
1=
0:
1>
0@
0>
0A
1A
#72000
0"
0!
07
04
05
0W!
0/!
0A!
1e!
#72750
1!
14
15
#73000
0!
04
05
#73500
1"
17
1W!
1/!
1A!
0e!
#73750
1!
14
15
0'"
1,
18
0E!
1<
09
1e!
1?
0=
1:
1@
1>
0A
#74000
0"
0!
07
04
05
0W!
0/!
0A!
0e!
1A
0>
0:
#74750
1!
14
15
#75000
0!
04
05
#75500
1"
17
1W!
1/!
1A!
1e!
0A
1>
1:
#75750
1!
14
15
1'"
0$"
1%"
1&"
0+
0*
1)
0,
0<
19
0?
1=
1B
0@
08
1E!
0=
0B
1@
1C
09
0e!
1A
0>
0:
0C
1:
0D
0A
1>
1D
#76000
0"
0!
07
04
05
0W!
0/!
0A!
1e!
#76750
1!
14
15
#77000
0!
04
05
#77500
1"
17
1W!
1/!
1A!
0e!
#77750
1!
14
15
0'"
1,
18
0E!
19
1e!
0:
#78000
0"
0!
07
04
05
0W!
0/!
0A!
0e!
1:
#78750
1!
14
15
#79000
0!
04
05
#79500
1"
17
1W!
1/!
1A!
1e!
0:
#79750
1!
14
15
1'"
0&"
1+
0,
1<
09
08
1E!
1=
0<
19
0e!
1:
0=
0:
0>
1>
#80000
0"
0!
07
04
05
0W!
0/!
0A!
1e!
#80750
1!
14
15
#81000
0!
04
05
#81500
1"
17
1W!
1/!
1A!
0e!
#81750
1!
14
15
0'"
1,
18
0E!
1<
09
1e!
1=
1:
0>
#82000
0"
0!
07
04
05
0W!
0/!
0A!
0e!
1>
0:
#82750
1!
14
15
#83000
0!
04
05
#83500
1"
17
1W!
1/!
1A!
1e!
0>
1:
#83750
1!
14
15
1'"
0%"
1&"
0+
1*
0,
0<
19
1?
0=
08
1E!
0?
1=
1B
0@
09
0e!
1>
0:
0B
1@
1C
1:
1A
0>
0C
0D
0A
1D
#84000
0"
0!
07
04
05
0W!
0/!
0A!
1e!
#84750
1!
14
15
#85000
0!
04
05
#85500
1"
17
1W!
1/!
1A!
0e!
#85750
1!
14
15
0'"
1,
18
0E!
19
1e!
0:
#86000
0"
0!
07
04
05
0W!
0/!
0A!
0e!
1:
#86750
1!
14
15
#87000
0!
04
05
#87500
1"
17
1W!
1/!
1A!
1e!
0:
#87750
1!
14
15
1'"
0&"
1+
0,
1<
09
08
1E!
1?
0=
0<
19
0e!
1:
1B
0@
0?
1=
0:
1>
1C
0B
1@
0>
1A
0C
0A
0D
1D
#88000
0"
0!
07
04
05
0W!
0/!
0A!
1e!
#88750
1!
14
15
#89000
0!
04
05
#89500
1"
17
1W!
1/!
1A!
0e!
#89750
1!
14
15
0'"
1,
18
0E!
1<
09
1e!
1?
0=
1:
1B
0@
1>
1C
1A
0D
#90000
0"
0!
07
04
05
0W!
0/!
0A!
0e!
1D
0A
0>
0:
#90750
1!
14
15
#91000
0!
04
05
#91500
1"
17
1W!
1/!
1A!
1e!
0D
1A
1>
1:
#91750
1!
14
15
1'"
0#"
1$"
1%"
1&"
0+
0*
0)
1(
0,
0<
19
0?
1=
0B
1@
1E
0C
08
1E!
0=
0@
0E
1C
1F
09
0e!
1D
0A
0>
0:
0F
1:
0G
0D
1A
1>
1G
#92000
0"
0!
07
04
05
0W!
0/!
0A!
1e!
#92750
1!
14
15
#93000
0!
04
05
#93500
1"
17
1W!
1/!
1A!
0e!
#93750
1!
14
15
0'"
1,
18
0E!
19
1e!
0:
#94000
0"
0!
07
04
05
0W!
0/!
0A!
0e!
1:
#94750
1!
14
15
#95000
0!
04
05
#95500
1"
17
1W!
1/!
1A!
1e!
0:
#95750
1!
14
15
1'"
0&"
1+
0,
1<
09
08
1E!
1=
0<
19
0e!
1:
0=
0:
0>
1>
#96000
0"
0!
07
04
05
0W!
0/!
0A!
1e!
#96750
1!
14
15
#97000
0!
04
05
#97500
1"
17
1W!
1/!
1A!
0e!
#97750
1!
14
15
0'"
1,
18
0E!
1<
09
1e!
1=
1:
0>
#98000
0"
0!
07
04
05
0W!
0/!
0A!
0e!
1>
0:
#98750
1!
14
15
#99000
0!
04
05
#99500
1"
17
1W!
1/!
1A!
1e!
0>
1:
#99750
1!
14
15
1'"
0%"
1&"
0+
1*
0,
0<
19
1?
0=
08
1E!
0?
1=
1@
09
0e!
1>
0:
0@
1:
0A
0>
1A
#100000
0#
0"
0!
06
07
04
05
0W!
0/!
1b!
0A!
1e!
#100750
1!
14
15
1c!
#101000
0!
04
05
#101500
1"
17
1W!
1/!
1A!
0e!
#101750
1!
14
15
0'"
1,
18
0E!
19
1e!
0:
#102000
0"
0!
07
04
05
0W!
0/!
0A!
0e!
1:
#102750
1!
14
15
#103000
0!
04
05
#103500
1"
17
1W!
1/!
1A!
1e!
0:
#103750
1!
14
15
1'"
0&"
1+
0,
1<
09
08
1E!
1?
0=
0<
19
0e!
1:
1@
0?
1=
0:
1>
0@
0>
0A
1A
#104000
0"
0!
07
04
05
0W!
0/!
0A!
1e!
#104750
1!
14
15
#105000
0!
04
05
#105500
1"
17
1W!
1/!
1A!
0e!
#105750
1!
14
15
0'"
1,
18
0E!
1<
09
1e!
1?
0=
1:
1@
1>
0A
#106000
0"
0!
07
04
05
0W!
0/!
0A!
0e!
1A
0>
0:
#106750
1!
14
15
#107000
0!
04
05
#107500
1"
17
1W!
1/!
1A!
1e!
0A
1>
1:
#107750
1!
14
15
1'"
0$"
1%"
1&"
0+
0*
1)
0,
0<
19
0?
1=
1B
0@
08
1E!
0=
0B
1@
1E
0C
09
0e!
1A
0>
0:
0E
1C
1F
1:
1D
0A
1>
0F
0G
0D
1G
#108000
0"
0!
07
04
05
0W!
0/!
0A!
1e!
#108750
1!
14
15
#109000
0!
04
05
#109500
1"
17
1W!
1/!
1A!
0e!
#109750
1!
14
15
0'"
1,
18
0E!
19
1e!
0:
#110000
0"
0!
07
04
05
0W!
0/!
0A!
0e!
1:
#110750
1!
14
15
#111000
0!
04
05
#111500
1"
17
1W!
1/!
1A!
1e!
0:
#111750
1!
14
15
1'"
0&"
1+
0,
1<
09
08
1E!
1=
0<
19
0e!
1:
0=
0:
0>
1>
#112000
0"
0!
07
04
05
0W!
0/!
0A!
1e!
#112750
1!
14
15
#113000
0!
04
05
#113500
1"
17
1W!
1/!
1A!
0e!
#113750
1!
14
15
0'"
1,
18
0E!
1<
09
1e!
1=
1:
0>
#114000
0"
0!
07
04
05
0W!
0/!
0A!
0e!
1>
0:
#114750
1!
14
15
#115000
0!
04
05
#115500
1"
17
1W!
1/!
1A!
1e!
0>
1:
#115750
1!
14
15
1'"
0%"
1&"
0+
1*
0,
0<
19
1?
0=
08
1E!
0?
1=
1B
0@
09
0e!
1>
0:
0B
1@
1E
0C
1:
1A
0>
0E
1C
1F
1D
0A
0F
0G
0D
1G
#116000
0"
0!
07
04
05
0W!
0/!
0A!
1e!
#116750
1!
14
15
#117000
0!
04
05
#117500
1"
17
1W!
1/!
1A!
0e!
#117750
1!
14
15
0'"
1,
18
0E!
19
1e!
0:
#118000
0"
0!
07
04
05
0W!
0/!
0A!
0e!
1:
#118750
1!
14
15
#119000
0!
04
05
#119500
1"
17
1W!
1/!
1A!
1e!
0:
#119750
1!
14
15
1'"
0&"
1+
0,
1<
09
08
1E!
1?
0=
0<
19
0e!
1:
1B
0@
0?
1=
0:
1>
1E
0C
0B
1@
0>
1A
1F
0E
1C
0A
1D
0F
1F!
0D
0G
1H!
0F!
1G
0H!
#120000
0"
0!
07
04
05
0W!
0/!
0A!
1e!
#120750
1!
14
15
#121000
0!
04
05
#121500
1"
17
1W!
1/!
1A!
0e!
#121750
1!
14
15
0'"
1,
18
0E!
1<
09
1e!
1?
0=
1:
1B
0@
1>
1E
0C
1A
1F
1D
0G
#122000
0"
0!
07
04
05
0W!
0/!
0A!
0e!
1G
0D
0A
0>
0:
#122750
1!
14
15
#123000
0!
04
05
#123500
1"
17
1W!
1/!
1A!
1e!
0G
1D
1A
1>
1:
#123750
1!
14
15
1'"
0""
1#"
1$"
1%"
1&"
0+
0*
0)
0(
1'
0,
0<
19
0?
1=
0B
1@
0E
1C
1H
0F
08
1E!
0=
0@
0C
0H
1F
1I
09
0e!
1G
0D
0A
0>
0:
0I
1:
0J
0G
1D
1A
1>
1J
#124000
0"
0!
07
04
05
0W!
0/!
0A!
1e!
#124750
1!
14
15
#125000
0!
04
05
#125500
1"
17
1W!
1/!
1A!
0e!
#125750
1!
14
15
0'"
1,
18
0E!
19
1e!
0:
#126000
0"
0!
07
04
05
0W!
0/!
0A!
0e!
1:
#126750
1!
14
15
#127000
0!
04
05
#127500
1"
17
1W!
1/!
1A!
1e!
0:
#127750
1!
14
15
1'"
0&"
1+
0,
1<
09
08
1E!
1=
0<
19
0e!
1:
0=
0:
0>
1>
#128000
0"
0!
07
04
05
0W!
0/!
0A!
1e!
#128750
1!
14
15
#129000
0!
04
05
#129500
1"
17
1W!
1/!
1A!
0e!
#129750
1!
14
15
0'"
1,
18
0E!
1<
09
1e!
1=
1:
0>
#130000
0"
0!
07
04
05
0W!
0/!
0A!
0e!
1>
0:
#130750
1!
14
15
#131000
0!
04
05
#131500
1"
17
1W!
1/!
1A!
1e!
0>
1:
#131750
1!
14
15
1'"
0%"
1&"
0+
1*
0,
0<
19
1?
0=
08
1E!
0?
1=
1@
09
0e!
1>
0:
0@
1:
0A
0>
1A
#132000
0"
0!
07
04
05
0W!
0/!
0A!
1e!
#132750
1!
14
15
#133000
0!
04
05
#133500
1"
17
1W!
1/!
1A!
0e!
#133750
1!
14
15
0'"
1,
18
0E!
19
1e!
0:
#134000
0"
0!
07
04
05
0W!
0/!
0A!
0e!
1:
#134750
1!
14
15
#135000
0!
04
05
#135500
1"
17
1W!
1/!
1A!
1e!
0:
#135750
1!
14
15
1'"
0&"
1+
0,
1<
09
08
1E!
1?
0=
0<
19
0e!
1:
1@
0?
1=
0:
1>
0@
0>
0A
1A
#136000
0"
0!
07
04
05
0W!
0/!
0A!
1e!
#136750
1!
14
15
#137000
0!
04
05
#137500
1"
17
1W!
1/!
1A!
0e!
#137750
1!
14
15
0'"
1,
18
0E!
1<
09
1e!
1?
0=
1:
1@
1>
0A
#138000
0"
0!
07
04
05
0W!
0/!
0A!
0e!
1A
0>
0:
#138750
1!
14
15
#139000
0!
04
05
#139500
1"
17
1W!
1/!
1A!
1e!
0A
1>
1:
#139750
1!
14
15
1'"
0$"
1%"
1&"
0+
0*
1)
0,
0<
19
0?
1=
1B
0@
08
1E!
0=
0B
1@
1C
09
0e!
1A
0>
0:
0C
1:
0D
0A
1>
1D
#140000
0"
0!
07
04
05
0W!
0/!
0A!
1e!
#140750
1!
14
15
#141000
0!
04
05
#141500
1"
17
1W!
1/!
1A!
0e!
#141750
1!
14
15
0'"
1,
18
0E!
19
1e!
0:
#142000
0"
0!
07
04
05
0W!
0/!
0A!
0e!
1:
#142750
1!
14
15
#143000
0!
04
05
#143500
1"
17
1W!
1/!
1A!
1e!
0:
#143750
1!
14
15
1'"
0&"
1+
0,
1<
09
08
1E!
1=
0<
19
0e!
1:
0=
0:
0>
1>
#144000
0"
0!
07
04
05
0W!
0/!
0A!
1e!
#144750
1!
14
15
#145000
0!
04
05
#145500
1"
17
1W!
1/!
1A!
0e!
#145750
1!
14
15
0'"
1,
18
0E!
1<
09
1e!
1=
1:
0>
#146000
0"
0!
07
04
05
0W!
0/!
0A!
0e!
1>
0:
#146750
1!
14
15
#147000
0!
04
05
#147500
1"
17
1W!
1/!
1A!
1e!
0>
1:
#147750
1!
14
15
1'"
0%"
1&"
0+
1*
0,
0<
19
1?
0=
08
1E!
0?
1=
1B
0@
09
0e!
1>
0:
0B
1@
1C
1:
1A
0>
0C
0D
0A
1D
#148000
0"
0!
07
04
05
0W!
0/!
0A!
1e!
#148750
1!
14
15
#149000
0!
04
05
#149500
1"
17
1W!
1/!
1A!
0e!
#149750
1!
14
15
0'"
1,
18
0E!
19
1e!
0:
#150000
0"
0!
07
04
05
0W!
0/!
0A!
0e!
1:
#150750
1!
14
15
#151000
0!
04
05
#151500
1"
17
1W!
1/!
1A!
1e!
0:
#151750
1!
14
15
1'"
0&"
1+
0,
1<
09
08
1E!
1?
0=
0<
19
0e!
1:
1B
0@
0?
1=
0:
1>
1C
0B
1@
0>
1A
0C
1F!
0A
0D
1H!
0F!
1D
0H!
#152000
0"
0!
07
04
05
0W!
0/!
0A!
1e!
#152750
1!
14
15
#153000
0!
04
05
#153500
1"
17
1W!
1/!
1A!
0e!
#153750
1!
14
15
0'"
1,
18
0E!
1<
09
1e!
1?
0=
1:
1B
0@
1>
1C
1A
0D
#154000
0"
0!
07
04
05
0W!
0/!
0A!
0e!
1D
0A
0>
0:
#154750
1!
14
15
#155000
0!
04
05
#155500
1"
17
1W!
1/!
1A!
1e!
0D
1A
1>
1:
#155750
1!
14
15
1'"
0#"
1$"
1%"
1&"
0+
0*
0)
1(
0,
0<
19
0?
1=
0B
1@
1E
0C
08
1E!
0=
0@
0E
1C
1H
0F
09
0e!
1D
0A
0>
0:
0H
1F
1I
1:
1G
0D
1A
1>
0I
0J
0G
1J
#156000
0"
0!
07
04
05
0W!
0/!
0A!
1e!
#156750
1!
14
15
#157000
0!
04
05
#157500
1"
17
1W!
1/!
1A!
0e!
#157750
1!
14
15
0'"
1,
18
0E!
19
1e!
0:
#158000
0"
0!
07
04
05
0W!
0/!
0A!
0e!
1:
#158750
1!
14
15
#159000
0!
04
05
#159500
1"
17
1W!
1/!
1A!
1e!
0:
#159750
1!
14
15
1'"
0&"
1+
0,
1<
09
08
1E!
1=
0<
19
0e!
1:
0=
0:
0>
1>
#160000
0"
0!
07
04
05
0W!
0/!
0A!
1e!
#160750
1!
14
15
#161000
0!
04
05
#161500
1"
17
1W!
1/!
1A!
0e!
#161750
1!
14
15
0'"
1,
18
0E!
1<
09
1e!
1=
1:
0>
#162000
0"
0!
07
04
05
0W!
0/!
0A!
0e!
1>
0:
#162750
1!
14
15
#163000
0!
04
05
#163500
1"
17
1W!
1/!
1A!
1e!
0>
1:
#163750
1!
14
15
1'"
0%"
1&"
0+
1*
0,
0<
19
1?
0=
08
1E!
0?
1=
1@
09
0e!
1>
0:
0@
1:
0A
0>
1A
#164000
0"
0!
07
04
05
0W!
0/!
0A!
1e!
#164750
1!
14
15
#165000
0!
04
05
