V1/simulation/qsim/V1.msim.vcd
$comment
	File created using the following command:
		vcd file V1.msim.vcd -direction
$end
$date
	Tue Aug 21 19:49:19 2018
$end
$version
	ModelSim Version 10.5b
$end
$timescale
	1ps
$end

$scope module play_controller_vhd_vec_tst $end
$var wire 1 ! break $end
$var wire 1 " clk $end
$var wire 1 # collision $end
$var wire 1 $ error $end
$var wire 1 % make $end
$var wire 1 & resetN $end
$var wire 1 ' scors [15] $end
$var wire 1 ( scors [14] $end
$var wire 1 ) scors [13] $end
$var wire 1 * scors [12] $end
$var wire 1 + scors [11] $end
$var wire 1 , scors [10] $end
$var wire 1 - scors [9] $end
$var wire 1 . scors [8] $end
$var wire 1 / scors [7] $end
$var wire 1 0 scors [6] $end
$var wire 1 1 scors [5] $end
$var wire 1 2 scors [4] $end
$var wire 1 3 scors [3] $end
$var wire 1 4 scors [2] $end
$var wire 1 5 scors [1] $end
$var wire 1 6 scors [0] $end
$var wire 1 7 sound $end

$scope module i1 $end
$var wire 1 8 gnd $end
$var wire 1 9 vcc $end
$var wire 1 : unknown $end
$var wire 1 ; devoe $end
$var wire 1 < devclrn $end
$var wire 1 = devpor $end
$var wire 1 > ww_devoe $end
$var wire 1 ? ww_devclrn $end
$var wire 1 @ ww_devpor $end
$var wire 1 A ww_clk $end
$var wire 1 B ww_resetN $end
$var wire 1 C ww_make $end
$var wire 1 D ww_break $end
$var wire 1 E ww_collision $end
$var wire 1 F ww_sound $end
$var wire 1 G ww_error $end
$var wire 1 H ww_scors [15] $end
$var wire 1 I ww_scors [14] $end
$var wire 1 J ww_scors [13] $end
$var wire 1 K ww_scors [12] $end
$var wire 1 L ww_scors [11] $end
$var wire 1 M ww_scors [10] $end
$var wire 1 N ww_scors [9] $end
$var wire 1 O ww_scors [8] $end
$var wire 1 P ww_scors [7] $end
$var wire 1 Q ww_scors [6] $end
$var wire 1 R ww_scors [5] $end
$var wire 1 S ww_scors [4] $end
$var wire 1 T ww_scors [3] $end
$var wire 1 U ww_scors [2] $end
$var wire 1 V ww_scors [1] $end
$var wire 1 W ww_scors [0] $end
$var wire 1 X \~QUARTUS_CREATED_GND~I_combout\ $end
$var wire 1 Y \clk~input_o\ $end
$var wire 1 Z \clk~inputCLKENA0_outclk\ $end
$var wire 1 [ \make~input_o\ $end
$var wire 1 \ \break~input_o\ $end
$var wire 1 ] \collision~input_o\ $end
$var wire 1 ^ \state.uncol_pre_err~0_combout\ $end
$var wire 1 _ \resetN~input_o\ $end
$var wire 1 ` \state.uncol_pre_err~q\ $end
$var wire 1 a \Selector5~0_combout\ $end
$var wire 1 b \Selector5~1_combout\ $end
$var wire 1 c \state.second_pre_err~q\ $end
$var wire 1 d \Selector1~0_combout\ $end
$var wire 1 e \Selector2~1_combout\ $end
$var wire 1 f \state.col_pre_play~q\ $end
$var wire 1 g \Selector0~0_combout\ $end
$var wire 1 h \Selector0~1_combout\ $end
$var wire 1 i \press~q\ $end
$var wire 1 j \Selector4~0_combout\ $end
$var wire 1 k \state.uncol_unpre~q\ $end
$var wire 1 l \state.col_unpre~0_combout\ $end
$var wire 1 m \state.col_unpre~q\ $end
$var wire 1 n \Selector39~0_combout\ $end
$var wire 1 o \Selector39~1_combout\ $end
$var wire 1 p \sound~reg0_q\ $end
$var wire 1 q \Selector6~0_combout\ $end
$var wire 1 r \Selector6~1_combout\ $end
$var wire 1 s \error~reg0_q\ $end
$var wire 1 t \Add0~1_sumout\ $end
$var wire 1 u \scors_num[12]~0_combout\ $end
$var wire 1 v \scors_num[12]~1_combout\ $end
$var wire 1 w \Add0~2\ $end
$var wire 1 x \Add0~5_sumout\ $end
$var wire 1 y \Add0~6\ $end
$var wire 1 z \Add0~9_sumout\ $end
$var wire 1 { \Add0~10\ $end
$var wire 1 | \Add0~13_sumout\ $end
$var wire 1 } \Add0~14\ $end
$var wire 1 ~ \Add0~17_sumout\ $end
$var wire 1 !! \Add0~18\ $end
$var wire 1 "! \Add0~21_sumout\ $end
$var wire 1 #! \Add0~22\ $end
$var wire 1 $! \Add0~25_sumout\ $end
$var wire 1 %! \Add0~26\ $end
$var wire 1 &! \Add0~29_sumout\ $end
$var wire 1 '! \Add0~30\ $end
$var wire 1 (! \Add0~33_sumout\ $end
$var wire 1 )! \Add0~34\ $end
$var wire 1 *! \Add0~37_sumout\ $end
$var wire 1 +! \Add0~38\ $end
$var wire 1 ,! \Add0~41_sumout\ $end
$var wire 1 -! \Add0~42\ $end
$var wire 1 .! \Add0~45_sumout\ $end
$var wire 1 /! \Add0~46\ $end
$var wire 1 0! \Add0~49_sumout\ $end
$var wire 1 1! \Add0~50\ $end
$var wire 1 2! \Add0~53_sumout\ $end
$var wire 1 3! \Add0~54\ $end
$var wire 1 4! \Add0~57_sumout\ $end
$var wire 1 5! \Add0~58\ $end
$var wire 1 6! \Add0~61_sumout\ $end
$var wire 1 7! scors_num [31] $end
$var wire 1 8! scors_num [30] $end
$var wire 1 9! scors_num [29] $end
$var wire 1 :! scors_num [28] $end
$var wire 1 ;! scors_num [27] $end
$var wire 1 <! scors_num [26] $end
$var wire 1 =! scors_num [25] $end
$var wire 1 >! scors_num [24] $end
$var wire 1 ?! scors_num [23] $end
$var wire 1 @! scors_num [22] $end
$var wire 1 A! scors_num [21] $end
$var wire 1 B! scors_num [20] $end
$var wire 1 C! scors_num [19] $end
$var wire 1 D! scors_num [18] $end
$var wire 1 E! scors_num [17] $end
$var wire 1 F! scors_num [16] $end
$var wire 1 G! scors_num [15] $end
$var wire 1 H! scors_num [14] $end
$var wire 1 I! scors_num [13] $end
$var wire 1 J! scors_num [12] $end
$var wire 1 K! scors_num [11] $end
$var wire 1 L! scors_num [10] $end
$var wire 1 M! scors_num [9] $end
$var wire 1 N! scors_num [8] $end
$var wire 1 O! scors_num [7] $end
$var wire 1 P! scors_num [6] $end
$var wire 1 Q! scors_num [5] $end
$var wire 1 R! scors_num [4] $end
$var wire 1 S! scors_num [3] $end
$var wire 1 T! scors_num [2] $end
$var wire 1 U! scors_num [1] $end
$var wire 1 V! scors_num [0] $end
$var wire 1 W! \ALT_INV_make~input_o\ $end
$var wire 1 X! \ALT_INV_collision~input_o\ $end
$var wire 1 Y! \ALT_INV_break~input_o\ $end
$var wire 1 Z! \ALT_INV_scors_num[12]~0_combout\ $end
$var wire 1 [! \ALT_INV_Selector5~0_combout\ $end
$var wire 1 \! \ALT_INV_Selector0~0_combout\ $end
$var wire 1 ]! \ALT_INV_state.uncol_unpre~q\ $end
$var wire 1 ^! \ALT_INV_Selector6~0_combout\ $end
$var wire 1 _! \ALT_INV_state.second_pre_err~q\ $end
$var wire 1 `! \ALT_INV_state.col_unpre~q\ $end
$var wire 1 a! \ALT_INV_press~q\ $end
$var wire 1 b! \ALT_INV_Selector39~0_combout\ $end
$var wire 1 c! \ALT_INV_state.uncol_pre_err~q\ $end
$var wire 1 d! \ALT_INV_state.col_pre_play~q\ $end
$var wire 1 e! ALT_INV_scors_num [15] $end
$var wire 1 f! ALT_INV_scors_num [14] $end
$var wire 1 g! ALT_INV_scors_num [13] $end
$var wire 1 h! ALT_INV_scors_num [12] $end
$var wire 1 i! ALT_INV_scors_num [11] $end
$var wire 1 j! ALT_INV_scors_num [10] $end
$var wire 1 k! ALT_INV_scors_num [9] $end
$var wire 1 l! ALT_INV_scors_num [8] $end
$var wire 1 m! ALT_INV_scors_num [7] $end
$var wire 1 n! ALT_INV_scors_num [6] $end
$var wire 1 o! ALT_INV_scors_num [5] $end
$var wire 1 p! ALT_INV_scors_num [4] $end
$var wire 1 q! ALT_INV_scors_num [3] $end
$var wire 1 r! ALT_INV_scors_num [2] $end
$var wire 1 s! ALT_INV_scors_num [1] $end
$var wire 1 t! ALT_INV_scors_num [0] $end
$var wire 1 u! \ALT_INV_scors_num[12]~1_combout\ $end
$upscope $end
$upscope $end
$enddefinitions $end
#0
$dumpvars
0!
0"
0#
0$
0%
0&
07
08
19
x:
1;
1<
1=
1>
1?
1@
0A
0B
0C
0D
0E
0F
0G
xX
0Y
0Z
0[
0\
0]
0^
0_
0`
0a
0b
0c
0d
0e
0f
0g
0h
0i
1j
0k
0l
0m
0n
0o
0p
0q
0r
0s
1t
0u
1v
0w
1x
0y
0z
0{
1|
0}
1~
0!!
1"!
0#!
1$!
0%!
1&!
0'!
1(!
0)!
1*!
0+!
1,!
0-!
1.!
0/!
10!
01!
12!
03!
14!
05!
16!
1W!
1X!
1Y!
1Z!
1[!
1\!
1]!
1^!
1_!
1`!
1a!
1b!
1c!
1d!
0u!
0H
0I
0J
0K
0L
0M
0N
0O
0P
0Q
0R
0S
0T
0U
0V
0W
x7!
x8!
x9!
x:!
x;!
x<!
x=!
x>!
x?!
x@!
xA!
xB!
xC!
xD!
xE!
xF!
0G!
0H!
0I!
0J!
0K!
0L!
0M!
0N!
0O!
0P!
0Q!
0R!
0S!
0T!
0U!
0V!
1e!
1f!
1g!
1h!
1i!
1j!
1k!
1l!
1m!
1n!
1o!
1p!
1q!
1r!
1s!
1t!
0'
0(
0)
0*
0+
0,
0-
0.
0/
00
01
02
03
04
05
06
$end
#2500
1"
1A
1Y
1Z
#5000
0"
0A
0Y
0Z
#7500
1"
1A
1Y
1Z
#10000
0"
1&
0A
1B
1_
0Y
0Z
#12500
1"
1A
1Y
1Z
#15000
0"
0A
0Y
0Z
#17500
1"
1A
1Y
1Z
#20000
0"
0A
0Y
0Z
#22500
1"
1A
1Y
1Z
#25000
0"
0A
0Y
0Z
#27500
1"
1A
1Y
1Z
#30000
0"
0A
0Y
0Z
#32500
1"
1A
1Y
1Z
#35000
0"
0A
0Y
0Z
#37500
1"
1A
1Y
1Z
#40000
0"
0A
0Y
0Z
#42500
1"
1A
1Y
1Z
#45000
0"
0A
0Y
0Z
#47500
1"
1A
1Y
1Z
#50000
0"
1%
0A
1C
1[
0Y
0Z
0W!
1^
1e
1r
0v
1u!
#52500
1"
1A
1Y
1Z
1`
1k
1s
1V!
1U!
1S!
1R!
1Q!
1P!
1O!
1N!
1M!
1L!
1K!
1J!
1I!
1H!
1G!
0e!
0f!
0g!
0h!
0i!
0j!
0k!
0l!
0m!
0n!
0o!
0p!
0q!
0s!
0t!
0]!
0c!
1q
1u
0e
0r
0t
1w
0Z!
0^!
1H
1I
1J
1K
1L
1M
1N
1O
1P
1Q
1R
1S
1T
1V
1W
1G
0x
1y
1r
1v
16
15
13
12
11
10
1/
1.
1-
1,
1+
1*
1)
1(
1'
1$
1z
0u!
#55000
0"
0A
0Y
0Z
#57500
1"
1A
1Y
1Z
#60000
0"
0A
0Y
0Z
#62500
1"
1A
1Y
1Z
#65000
0"
0A
0Y
0Z
#67500
1"
1A
1Y
1Z
#70000
0"
0A
0Y
0Z
#72500
1"
1A
1Y
1Z
#75000
0"
0A
0Y
0Z
#77500
1"
1A
1Y
1Z
#80000
0"
0A
0Y
0Z
#82500
1"
1A
1Y
1Z
#85000
0"
0A
0Y
0Z
#87500
1"
1A
1Y
1Z
#90000
0"
0A
0Y
0Z
#92500
1"
1A
1Y
1Z
#95000
0"
0A
0Y
0Z
#97500
1"
1A
1Y
1Z
#100000
0"
0A
0Y
0Z
#102500
1"
1A
1Y
1Z
#105000
0"
0A
0Y
0Z
#107500
1"
1A
1Y
1Z
#110000
0"
0%
1!
0A
0C
1D
1\
0[
0Y
0Z
1W!
0Y!
0q
0^
1e
0j
1^!
0r
#112500
1"
1A
1Y
1Z
0`
0k
0s
1]!
1c!
1j
0u
1x
0|
1}
0~
1!!
0"!
1#!
0$!
1%!
0&!
1'!
0(!
1)!
0*!
1+!
0,!
1-!
0.!
1/!
00!
11!
02!
13!
04!
15!
06!
0e
1Z!
0G
16!
14!
12!
10!
1.!
1,!
1*!
1(!
1&!
1$!
1"!
1~
0$
#115000
0"
0A
0Y
0Z
#117500
1"
1A
1Y
1Z
#120000
0"
0!
0A
0D
0\
0Y
0Z
1Y!
#122500
1"
1A
1Y
1Z
#125000
0"
0A
0Y
0Z
#127500
1"
1A
1Y
1Z
#130000
0"
0A
0Y
0Z
#132500
1"
1A
1Y
1Z
#135000
0"
0A
0Y
0Z
#137500
1"
1A
1Y
1Z
#140000
0"
0A
0Y
0Z
#142500
1"
1A
1Y
1Z
#145000
0"
0A
0Y
0Z
#147500
1"
1A
1Y
1Z
#150000
0"
1#
0A
1E
1]
0Y
0Z
0X!
1e
1l
#152500
1"
1A
1Y
1Z
1k
1m
0`!
0]!
0v
0e
1u
0Z!
1u!
1v
0u!
#155000
0"
0A
0Y
0Z
#157500
1"
1A
1Y
1Z
#160000
0"
0A
0Y
0Z
#162500
1"
1A
1Y
1Z
#165000
0"
0A
0Y
0Z
#167500
1"
1A
1Y
1Z
#170000
0"
0A
0Y
0Z
#172500
1"
1A
1Y
1Z
#175000
0"
0A
0Y
0Z
#177500
1"
1A
1Y
1Z
#180000
0"
1%
0A
1C
1[
0Y
0Z
0W!
1d
1e
1h
0l
1o
0u
0x
1|
0}
0~
0"!
0$!
0&!
0(!
0*!
0,!
0.!
00!
02!
04!
06!
1Z!
1~
0!!
0v
1"!
0#!
1u!
1$!
0%!
1&!
0'!
1(!
0)!
1*!
0+!
1,!
0-!
1.!
0/!
10!
01!
12!
03!
14!
05!
16!
#182500
1"
1A
1Y
1Z
1f
1i
0m
1p
0V!
0U!
1T!
0r!
1s!
1t!
1`!
0a!
0d!
1n
1v
0d
0e
1g
0h
0o
0|
1}
0~
1!!
0"!
1#!
0$!
1%!
0&!
1'!
0(!
1)!
0*!
1+!
0,!
1-!
0.!
1/!
00!
11!
02!
13!
04!
15!
06!
1t
0w
0z
1{
0\!
0u!
0b!
1U
0V
0W
1F
1|
1x
0y
16!
14!
12!
10!
1.!
1,!
1*!
1(!
1&!
1$!
1"!
1~
1o
1h
06
05
14
17
1z
0{
0|
#185000
0"
0A
0Y
0Z
#187500
1"
1A
1Y
1Z
#190000
0"
0A
0Y
0Z
#192500
1"
1A
1Y
1Z
#195000
0"
0A
0Y
0Z
#197500
1"
1A
1Y
1Z
#200000
0"
0A
0Y
0Z
#202500
1"
1A
1Y
1Z
#205000
0"
0A
0Y
0Z
#207500
1"
1A
1Y
1Z
#210000
0"
0A
0Y
0Z
#212500
1"
1A
1Y
1Z
#215000
0"
0A
0Y
0Z
#217500
1"
1A
1Y
1Z
#220000
0"
0A
0Y
0Z
#222500
1"
1A
1Y
1Z
#225000
0"
0A
0Y
0Z
#227500
1"
1A
1Y
1Z
#230000
0"
0A
0Y
0Z
#232500
1"
1A
1Y
1Z
#235000
0"
0A
0Y
0Z
#237500
1"
1A
1Y
1Z
#240000
0"
0A
0Y
0Z
#242500
1"
1A
1Y
1Z
#245000
0"
0A
0Y
0Z
#247500
1"
1A
1Y
1Z
#250000
0"
0%
1!
0A
0C
1D
1\
0[
0Y
0Z
1W!
0Y!
0n
1e
1l
1b!
0o
#252500
1"
1A
1Y
1Z
0f
1m
0p
0`!
1d!
0v
0e
1u
0Z!
1u!
0F
1v
07
0u!
#255000
0"
0A
0Y
0Z
#257500
1"
1A
1Y
1Z
#260000
0"
0!
0A
0D
0\
0Y
0Z
1Y!
#262500
1"
1A
1Y
1Z
#265000
0"
0A
0Y
0Z
#267500
1"
1A
1Y
1Z
#270000
0"
0A
0Y
0Z
#272500
1"
1A
1Y
1Z
#275000
0"
0A
0Y
0Z
#277500
1"
1A
1Y
1Z
#280000
0"
0A
0Y
0Z
#282500
1"
1A
1Y
1Z
#285000
0"
0A
0Y
0Z
#287500
1"
1A
1Y
1Z
#290000
0"
0A
0Y
0Z
#292500
1"
1A
1Y
1Z
#295000
0"
0A
0Y
0Z
#297500
1"
1A
1Y
1Z
#300000
0"
0A
0Y
0Z
#302500
1"
1A
1Y
1Z
#305000
0"
0A
0Y
0Z
#307500
1"
1A
1Y
1Z
#310000
0"
0A
0Y
0Z
#312500
1"
1A
1Y
1Z
#315000
0"
0A
0Y
0Z
#317500
1"
1A
1Y
1Z
#320000
0"
0A
0Y
0Z
#322500
1"
1A
1Y
1Z
#325000
0"
0A
0Y
0Z
#327500
1"
1A
1Y
1Z
#330000
0"
1%
0A
1C
1[
0Y
0Z
0W!
1a
1e
0l
1r
0u
1Z!
0[!
1b
0v
1u!
#332500
1"
1A
1Y
1Z
1c
0m
1s
1V!
1U!
0S!
1q!
0s!
0t!
1`!
0_!
1q
1v
0e
0r
0t
1w
0x
1y
1|
0}
0u!
0^!
0T
1V
1W
1G
0~
0z
1{
1x
1r
16
15
03
1$
0|
1}
1~
#335000
0"
0A
0Y
0Z
#337500
1"
1A
1Y
1Z
#340000
0"
0A
0Y
0Z
#342500
1"
1A
1Y
1Z
#345000
0"
0A
0Y
0Z
#347500
1"
1A
1Y
1Z
#350000
0"
0A
0Y
0Z
#352500
1"
1A
1Y
1Z
#355000
0"
0A
0Y
0Z
#357500
1"
1A
1Y
1Z
#360000
0"
0A
0Y
0Z
#362500
1"
1A
1Y
1Z
#365000
0"
0A
0Y
0Z
#367500
1"
1A
1Y
1Z
#370000
0"
0A
0Y
0Z
#372500
1"
1A
1Y
1Z
#375000
0"
0A
0Y
0Z
#377500
1"
1A
1Y
1Z
#380000
0"
0%
1!
0A
0C
1D
1\
0[
0Y
0Z
1W!
0Y!
0q
0a
1e
1l
1[!
1^!
0r
0b
#382500
1"
1A
1Y
1Z
0c
1m
0s
0`!
1_!
0v
0e
1u
0Z!
1u!
0G
1v
0$
0u!
#385000
0"
0A
0Y
0Z
#387500
1"
1A
1Y
1Z
#390000
0"
0!
0A
0D
0\
0Y
0Z
1Y!
#392500
1"
1A
1Y
1Z
#395000
0"
0A
0Y
0Z
#397500
1"
1A
1Y
1Z
#400000
0"
0A
0Y
0Z
#402500
1"
1A
1Y
1Z
#405000
0"
0A
0Y
0Z
#407500
1"
1A
1Y
1Z
#410000
0"
0A
0Y
0Z
#412500
1"
1A
1Y
1Z
#415000
0"
0A
0Y
0Z
#417500
1"
1A
1Y
1Z
#420000
0"
0A
0Y
0Z
#422500
1"
1A
1Y
1Z
#425000
0"
0A
0Y
0Z
#427500
1"
1A
1Y
1Z
#430000
0"
0A
0Y
0Z
#432500
1"
1A
1Y
1Z
#435000
0"
0A
0Y
0Z
#437500
1"
1A
1Y
1Z
#440000
0"
0#
0A
0E
0]
0Y
0Z
1X!
1a
1e
0j
0l
0[!
#442500
1"
1A
1Y
1Z
0k
0m
1`!
1]!
0a
0e
0g
1j
0u
1Z!
1\!
1[!
0h
#445000
0"
0A
0Y
0Z
#447500
1"
1A
1Y
1Z
0i
1a!
#450000
0"
0A
0Y
0Z
#452500
1"
1A
1Y
1Z
#455000
0"
0A
0Y
0Z
#457500
1"
1A
1Y
1Z
#460000
0"
0A
0Y
0Z
#462500
1"
1A
1Y
1Z
#465000
0"
0A
0Y
0Z
#467500
1"
1A
1Y
1Z
#470000
0"
0A
0Y
0Z
#472500
1"
1A
1Y
1Z
#475000
0"
0A
0Y
0Z
#477500
1"
1A
1Y
1Z
#480000
0"
0A
0Y
0Z
#482500
1"
1A
1Y
1Z
#485000
0"
0A
0Y
0Z
#487500
1"
1A
1Y
1Z
#490000
0"
0A
0Y
0Z
#492500
1"
1A
1Y
1Z
#495000
0"
0A
0Y
0Z
#497500
1"
1A
1Y
1Z
#500000
0"
0A
0Y
0Z
#502500
1"
1A
1Y
1Z
#505000
0"
0A
0Y
0Z
#507500
1"
1A
1Y
1Z
#510000
0"
0A
0Y
0Z
#512500
1"
1A
1Y
1Z
#515000
0"
0A
0Y
0Z
#517500
1"
1A
1Y
1Z
#520000
0"
0A
0Y
0Z
#522500
1"
1A
1Y
1Z
#525000
0"
0A
0Y
0Z
#527500
1"
1A
1Y
1Z
#530000
0"
0A
0Y
0Z
#532500
1"
1A
1Y
1Z
#535000
0"
0A
0Y
0Z
#537500
1"
1A
1Y
1Z
#540000
0"
1%
0A
1C
1[
0Y
0Z
0W!
1^
1e
1r
0v
1u!
#542500
1"
1A
1Y
1Z
1`
1k
1s
0V!
0T!
1r!
1t!
0]!
0c!
1q
1u
0x
1|
0}
0~
0"!
0$!
0&!
0(!
0*!
0,!
0.!
00!
02!
04!
06!
0e
0r
1t
0w
1z
0{
0Z!
0^!
0U
0W
1G
0|
1x
0y
1~
0!!
1r
1v
06
04
1$
1"!
0#!
0z
0u!
1$!
0%!
1&!
0'!
1(!
0)!
1*!
0+!
1,!
0-!
1.!
0/!
10!
01!
12!
03!
14!
05!
16!
#545000
0"
0A
0Y
0Z
#547500
1"
1A
1Y
1Z
#550000
0"
0A
0Y
0Z
#552500
1"
1A
1Y
1Z
#555000
0"
0A
0Y
0Z
#557500
1"
1A
1Y
1Z
#560000
0"
0A
0Y
0Z
#562500
1"
1A
1Y
1Z
#565000
0"
0A
0Y
0Z
#567500
1"
1A
1Y
1Z
#570000
0"
1#
0A
1E
1]
0Y
0Z
0X!
0^
1d
1e
1h
1n
0u
1Z!
0b!
1o
0v
1u!
#572500
1"
1A
1Y
1Z
0`
1f
1i
1p
1V!
0t!
0a!
0d!
1c!
0e
0h
0q
1v
0d
1g
0x
1y
1|
0~
1!!
0"!
1#!
0$!
1%!
0&!
1'!
0(!
1)!
0*!
1+!
0,!
1-!
0.!
1/!
00!
11!
02!
13!
04!
15!
06!
0t
1w
0\!
0u!
1^!
1W
1F
1x
16!
14!
12!
10!
1.!
1,!
1*!
1(!
1&!
1$!
1"!
1z
0r
1h
16
17
#575000
0"
0A
0Y
0Z
#577500
1"
1A
1Y
1Z
0s
0G
0$
#580000
0"
0A
0Y
0Z
#582500
1"
1A
1Y
1Z
#585000
0"
0A
0Y
0Z
#587500
1"
1A
1Y
1Z
#590000
0"
0A
0Y
0Z
#592500
1"
1A
1Y
1Z
#595000
0"
0A
0Y
0Z
#597500
1"
1A
1Y
1Z
#600000
0"
0A
0Y
0Z
#602500
1"
1A
1Y
1Z
#605000
0"
0A
0Y
0Z
#607500
1"
1A
1Y
1Z
#610000
0"
0A
0Y
0Z
#612500
1"
1A
1Y
1Z
#615000
0"
0A
0Y
0Z
#617500
1"
1A
1Y
1Z
#620000
0"
0A
0Y
0Z
#622500
1"
1A
1Y
1Z
#625000
0"
0A
0Y
0Z
#627500
1"
1A
1Y
1Z
#630000
0"
0%
1!
0A
0C
1D
1\
0[
0Y
0Z
1W!
0Y!
0n
1e
1l
1b!
0o
#632500
1"
1A
1Y
1Z
0f
1m
0p
0`!
1d!
0v
0e
1u
0Z!
1u!
0F
1v
07
0u!
#635000
0"
0A
0Y
0Z
#637500
1"
1A
1Y
1Z
#640000
0"
0!
0A
0D
0\
0Y
0Z
1Y!
#642500
1"
1A
1Y
1Z
#645000
0"
0A
0Y
0Z
#647500
1"
1A
1Y
1Z
#650000
0"
0A
0Y
0Z
#652500
1"
1A
1Y
1Z
#655000
0"
0A
0Y
0Z
#657500
1"
1A
1Y
1Z
#660000
0"
0A
0Y
0Z
#662500
1"
1A
1Y
1Z
#665000
0"
0A
0Y
0Z
#667500
1"
1A
1Y
1Z
#670000
0"
0A
0Y
0Z
#672500
1"
1A
1Y
1Z
#675000
0"
0A
0Y
0Z
#677500
1"
1A
1Y
1Z
#680000
0"
0A
0Y
0Z
#682500
1"
1A
1Y
1Z
#685000
0"
0A
0Y
0Z
#687500
1"
1A
1Y
1Z
#690000
0"
0A
0Y
0Z
#692500
1"
1A
1Y
1Z
#695000
0"
0A
0Y
0Z
#697500
1"
1A
1Y
1Z
#700000
0"
0A
0Y
0Z
#702500
1"
1A
1Y
1Z
#705000
0"
0A
0Y
0Z
#707500
1"
1A
1Y
1Z
#710000
0"
0A
0Y
0Z
#712500
1"
1A
1Y
1Z
#715000
0"
0A
0Y
0Z
#717500
1"
1A
1Y
1Z
#720000
0"
0A
0Y
0Z
#722500
1"
1A
1Y
1Z
#725000
0"
0A
0Y
0Z
#727500
1"
1A
1Y
1Z
#730000
0"
0A
0Y
0Z
#732500
1"
1A
1Y
1Z
#735000
0"
0A
0Y
0Z
#737500
1"
1A
1Y
1Z
#740000
0"
0A
0Y
0Z
#742500
1"
1A
1Y
1Z
#745000
0"
0A
0Y
0Z
#747500
1"
1A
1Y
1Z
#750000
0"
0A
0Y
0Z
#752500
1"
1A
1Y
1Z
#755000
0"
0A
0Y
0Z
#757500
1"
1A
1Y
1Z
#760000
0"
0A
0Y
0Z
#762500
1"
1A
1Y
1Z
#765000
0"
0A
0Y
0Z
#767500
1"
1A
1Y
1Z
#770000
0"
0A
0Y
0Z
#772500
1"
1A
1Y
1Z
#775000
0"
0A
0Y
0Z
#777500
1"
1A
1Y
1Z
#780000
0"
0A
0Y
0Z
#782500
1"
1A
1Y
1Z
#785000
0"
0A
0Y
0Z
#787500
1"
1A
1Y
1Z
#790000
0"
1%
0A
1C
1[
0Y
0Z
0W!
1a
1e
0l
1r
0u
1Z!
0[!
1b
0v
1u!
#792500
1"
1A
1Y
1Z
1c
0m
1s
0V!
1T!
1S!
0R!
1p!
0q!
0r!
1t!
1`!
0_!
1q
1v
0e
0r
1t
0w
0z
1{
0|
1}
1~
0!!
0u!
0^!
0S
1T
1U
0W
1G
0"!
0~
1!!
1|
0x
1r
06
14
13
02
1$
1"!
#795000
0"
0A
0Y
0Z
#797500
1"
1A
1Y
1Z
#800000
0"
0A
0Y
0Z
#802500
1"
1A
1Y
1Z
#805000
0"
0A
0Y
0Z
#807500
1"
1A
1Y
1Z
#810000
0"
0A
0Y
0Z
#812500
1"
1A
1Y
1Z
#815000
0"
0A
0Y
0Z
#817500
1"
1A
1Y
1Z
#820000
0"
0#
0A
0E
0]
0Y
0Z
1X!
1^
0b
1e
0v
1u!
#822500
1"
1A
1Y
1Z
1`
0c
1V!
0U!
0T!
1r!
1s!
0t!
1_!
0c!
0e
1u
0|
1~
0!!
0"!
0$!
0&!
0(!
0*!
0,!
0.!
00!
02!
04!
06!
0a
0t
1w
0y
1z
0{
1[!
0Z!
0U
0V
1W
1|
0}
0z
1x
1"!
0#!
1v
16
05
04
1$!
0%!
0~
0u!
1&!
0'!
1(!
0)!
1*!
0+!
1,!
0-!
1.!
0/!
10!
01!
12!
03!
14!
05!
16!
#825000
0"
0A
0Y
0Z
#827500
1"
1A
1Y
1Z
#830000
0"
0A
0Y
0Z
#832500
1"
1A
1Y
1Z
#835000
0"
0A
0Y
0Z
#837500
1"
1A
1Y
1Z
#840000
0"
0A
0Y
0Z
#842500
1"
1A
1Y
1Z
#845000
0"
0A
0Y
0Z
#847500
1"
1A
1Y
1Z
#850000
0"
0A
0Y
0Z
#852500
1"
1A
1Y
1Z
#855000
0"
0A
0Y
0Z
#857500
1"
1A
1Y
1Z
#860000
0"
0A
0Y
0Z
#862500
1"
1A
1Y
1Z
#865000
0"
0A
0Y
0Z
#867500
1"
1A
1Y
1Z
#870000
0"
0A
0Y
0Z
#872500
1"
1A
1Y
1Z
#875000
0"
0A
0Y
0Z
#877500
1"
1A
1Y
1Z
#880000
0"
0%
1!
0A
0C
1D
1\
0[
0Y
0Z
1W!
0Y!
0q
0^
1e
0j
1^!
0r
#882500
1"
1A
1Y
1Z
0`
0k
0s
1]!
1c!
0g
1j
0u
0x
1y
0|
1}
1~
0"!
1#!
0$!
1%!
0&!
1'!
0(!
1)!
0*!
1+!
0,!
1-!
0.!
1/!
00!
11!
02!
13!
04!
15!
06!
0e
1Z!
1\!
0G
16!
14!
12!
10!
1.!
1,!
1*!
1(!
1&!
1$!
0~
1!!
1z
0h
0$
1"!
#885000
0"
0A
0Y
0Z
#887500
1"
1A
1Y
1Z
0i
1a!
#890000
0"
0!
0A
0D
0\
0Y
0Z
1Y!
#892500
1"
1A
1Y
1Z
#895000
0"
0A
0Y
0Z
#897500
1"
1A
1Y
1Z
#900000
0"
0A
0Y
0Z
#902500
1"
1A
1Y
1Z
#905000
0"
0A
0Y
0Z
#907500
1"
1A
1Y
1Z
#910000
0"
0A
0Y
0Z
#912500
1"
1A
1Y
1Z
#915000
0"
0A
0Y
0Z
#917500
1"
1A
1Y
1Z
#920000
0"
1#
0A
1E
1]
0Y
0Z
0X!
1e
1l
#922500
1"
1A
1Y
1Z
1k
1m
0`!
0]!
0v
0e
1u
0Z!
1u!
1v
0u!
#925000
0"
0A
0Y
0Z
#927500
1"
1A
1Y
1Z
#930000
0"
0A
0Y
0Z
#932500
1"
1A
1Y
1Z
#935000
0"
0A
0Y
0Z
#937500
1"
1A
1Y
1Z
#940000
0"
0A
0Y
0Z
#942500
1"
1A
1Y
1Z
#945000
0"
0A
0Y
0Z
#947500
1"
1A
1Y
1Z
#950000
0"
0A
0Y
0Z
#952500
1"
1A
1Y
1Z
#955000
0"
0A
0Y
0Z
#957500
1"
1A
1Y
1Z
#960000
0"
0A
0Y
0Z
#962500
1"
1A
1Y
1Z
#965000
0"
0A
0Y
0Z
#967500
1"
1A
1Y
1Z
#970000
0"
0#
0A
0E
0]
0Y
0Z
1X!
1a
1e
0j
0l
1r
0u
1Z!
0[!
0v
1u!
#972500
1"
1A
1Y
1Z
0k
0m
1s
0V!
1T!
0S!
1q!
0r!
1t!
1`!
1]!
1v
0a
0e
1j
0r
1t
0w
0z
1{
1|
0}
1[!
0u!
0T
1U
0W
1G
1~
0!!
0|
1}
1x
0y
06
14
03
1$
1z
0{
0~
1!!
0"!
1"!
1|
0}
1~
0!!
0"!
#975000
0"
0A
0Y
0Z
#977500
1"
1A
1Y
1Z
0s
0G
0$
#980000
0"
0A
0Y
0Z
#982500
1"
1A
1Y
1Z
#985000
0"
0A
0Y
0Z
#987500
1"
1A
1Y
1Z
#990000
0"
0A
0Y
0Z
#992500
1"
1A
1Y
1Z
#995000
0"
0A
0Y
0Z
#997500
1"
1A
1Y
1Z
