V1/simulation/qsim/V1.msim.vcd
$comment
	File created using the following command:
		vcd file V1.msim.vcd -direction
$end
$date
	Mon Aug 27 18:42:02 2018
$end
$version
	ModelSim Version 10.5b
$end
$timescale
	1ps
$end

$scope module addr_counter_vhd_vec_tst $end
$var wire 1 ! addr [7] $end
$var wire 1 " addr [6] $end
$var wire 1 # addr [5] $end
$var wire 1 $ addr [4] $end
$var wire 1 % addr [3] $end
$var wire 1 & addr [2] $end
$var wire 1 ' addr [1] $end
$var wire 1 ( addr [0] $end
$var wire 1 ) CLK_IN $end
$var wire 1 * en $end
$var wire 1 + en1 $end
$var wire 1 , finish $end
$var wire 1 - resetN $end

$scope module i1 $end
$var wire 1 . gnd $end
$var wire 1 / vcc $end
$var wire 1 0 unknown $end
$var wire 1 1 devoe $end
$var wire 1 2 devclrn $end
$var wire 1 3 devpor $end
$var wire 1 4 ww_devoe $end
$var wire 1 5 ww_devclrn $end
$var wire 1 6 ww_devpor $end
$var wire 1 7 ww_CLK_IN $end
$var wire 1 8 ww_resetN $end
$var wire 1 9 ww_en $end
$var wire 1 : ww_en1 $end
$var wire 1 ; ww_addr [7] $end
$var wire 1 < ww_addr [6] $end
$var wire 1 = ww_addr [5] $end
$var wire 1 > ww_addr [4] $end
$var wire 1 ? ww_addr [3] $end
$var wire 1 @ ww_addr [2] $end
$var wire 1 A ww_addr [1] $end
$var wire 1 B ww_addr [0] $end
$var wire 1 C ww_finish $end
$var wire 1 D \~QUARTUS_CREATED_GND~I_combout\ $end
$var wire 1 E \CLK_IN~input_o\ $end
$var wire 1 F \CLK_IN~inputCLKENA0_outclk\ $end
$var wire 1 G \Add0~1_sumout\ $end
$var wire 1 H \resetN~input_o\ $end
$var wire 1 I \en1~input_o\ $end
$var wire 1 J \temp[4]~feeder_combout\ $end
$var wire 1 K \en~input_o\ $end
$var wire 1 L \Add0~2\ $end
$var wire 1 M \Add0~21_sumout\ $end
$var wire 1 N \Add0~22\ $end
$var wire 1 O \Add0~25_sumout\ $end
$var wire 1 P \Add0~26\ $end
$var wire 1 Q \Add0~29_sumout\ $end
$var wire 1 R \temp[3]~feeder_combout\ $end
$var wire 1 S \Add0~30\ $end
$var wire 1 T \Add0~5_sumout\ $end
$var wire 1 U \Add0~6\ $end
$var wire 1 V \Add0~9_sumout\ $end
$var wire 1 W \temp[6]~feeder_combout\ $end
$var wire 1 X \Add0~10\ $end
$var wire 1 Y \Add0~13_sumout\ $end
$var wire 1 Z \Add0~14\ $end
$var wire 1 [ \Add0~17_sumout\ $end
$var wire 1 \ \Equal0~0_combout\ $end
$var wire 1 ] \temp[0]~0_combout\ $end
$var wire 1 ^ \Equal0~1_combout\ $end
$var wire 1 _ \finish~0_combout\ $end
$var wire 1 ` \finish~reg0_q\ $end
$var wire 1 a temp [7] $end
$var wire 1 b temp [6] $end
$var wire 1 c temp [5] $end
$var wire 1 d temp [4] $end
$var wire 1 e temp [3] $end
$var wire 1 f temp [2] $end
$var wire 1 g temp [1] $end
$var wire 1 h temp [0] $end
$var wire 1 i \ALT_INV_Add0~21_sumout\ $end
$var wire 1 j ALT_INV_temp [7] $end
$var wire 1 k ALT_INV_temp [6] $end
$var wire 1 l ALT_INV_temp [5] $end
$var wire 1 m ALT_INV_temp [4] $end
$var wire 1 n ALT_INV_temp [3] $end
$var wire 1 o ALT_INV_temp [2] $end
$var wire 1 p ALT_INV_temp [1] $end
$var wire 1 q ALT_INV_temp [0] $end
$var wire 1 r \ALT_INV_Add0~1_sumout\ $end
$var wire 1 s \ALT_INV_Add0~25_sumout\ $end
$var wire 1 t \ALT_INV_Add0~5_sumout\ $end
$var wire 1 u \ALT_INV_Add0~9_sumout\ $end
$var wire 1 v \ALT_INV_Add0~13_sumout\ $end
$var wire 1 w \ALT_INV_Add0~17_sumout\ $end
$var wire 1 x \ALT_INV_en~input_o\ $end
$var wire 1 y \ALT_INV_en1~input_o\ $end
$var wire 1 z \ALT_INV_Equal0~1_combout\ $end
$var wire 1 { \ALT_INV_Equal0~0_combout\ $end
$var wire 1 | \ALT_INV_Add0~29_sumout\ $end
$upscope $end
$upscope $end
$enddefinitions $end
#0
$dumpvars
0)
0*
0+
0,
0-
0.
1/
x0
11
12
13
14
15
16
07
08
09
0:
0C
xD
0E
0F
1G
0H
0I
0J
0K
0L
0M
0N
0O
0P
0Q
0R
0S
0T
0U
0V
0W
0X
0Y
0Z
0[
0\
1]
0^
0_
0`
1i
0r
1s
1t
1u
1v
1w
1x
1y
1z
1{
1|
0;
0<
0=
0>
0?
0@
0A
0B
0a
0b
0c
0d
0e
0f
0g
0h
1j
1k
1l
1m
1n
1o
1p
1q
0!
0"
0#
0$
0%
0&
0'
0(
$end
#1000
1)
17
1E
1F
#2000
0)
07
0E
0F
#3000
1)
1*
17
19
1K
1E
1F
0x
#4000
0)
0*
07
09
0K
0E
0F
1x
#5000
1)
17
1E
1F
#6000
0)
07
0E
0F
#7000
1)
1*
17
19
1K
1E
1F
0x
#8000
0)
0*
07
09
0K
0E
0F
1x
#9000
1)
17
1E
1F
#10000
0)
1-
07
18
1H
0E
0F
#11000
1)
1*
17
19
1K
1E
1F
0x
#12000
0)
0*
07
09
0K
0E
0F
1x
#13000
1)
17
1E
1F
#14000
0)
07
0E
0F
#15000
1)
1*
17
19
1K
1E
1F
0x
#16000
0)
0*
07
09
0K
0E
0F
1x
#17000
1)
17
1E
1F
#18000
0)
07
0E
0F
#19000
1)
1*
17
19
1K
1E
1F
0x
#20000
0)
0*
07
09
0K
0E
0F
1x
#21000
1)
17
1E
1F
#22000
0)
07
0E
0F
#23000
1)
1*
17
19
1K
1E
1F
0x
#24000
0)
0*
07
09
0K
0E
0F
1x
#25000
1)
17
1E
1F
#26000
0)
07
0E
0F
#27000
1)
1*
17
19
1K
1E
1F
0x
#28000
0)
0*
07
09
0K
0E
0F
1x
#29000
1)
17
1E
1F
#30000
0)
07
0E
0F
#31000
1)
1*
17
19
1K
1E
1F
0x
#32000
0)
0*
07
09
0K
0E
0F
1x
#33000
1)
17
1E
1F
#34000
0)
07
0E
0F
#35000
1)
1*
17
19
1K
1E
1F
0x
#36000
0)
0*
07
09
0K
0E
0F
1x
#37000
1)
17
1E
1F
#38000
0)
07
0E
0F
#39000
1)
1*
17
19
1K
1E
1F
0x
#40000
0)
0*
1+
07
09
1:
1I
0K
0E
0F
1x
0y
0]
#41000
1)
17
1E
1F
#42000
0)
07
0E
0F
#43000
1)
1*
17
19
1K
1E
1F
0x
1h
0q
0G
1L
1r
1B
1M
0i
1(
#44000
0)
0*
07
09
0K
0E
0F
1x
#45000
1)
17
1E
1F
#46000
0)
07
0E
0F
#47000
1)
1*
17
19
1K
1E
1F
0x
1g
0h
1q
0p
0M
1N
1G
0L
0r
1i
0B
1A
1M
0N
1O
0s
0i
0(
1'
0O
1s
#48000
0)
0*
07
09
0K
0E
0F
1x
#49000
1)
17
1E
1F
#50000
0)
07
0E
0F
#51000
1)
1*
17
19
1K
1E
1F
0x
1h
0q
0G
1L
1r
1B
0M
1N
1i
1(
1O
0s
#52000
0)
0*
07
09
0K
0E
0F
1x
#53000
1)
17
1E
1F
#54000
0)
07
0E
0F
#55000
1)
1*
17
19
1K
1E
1F
0x
0g
1f
0h
1q
0o
1p
1M
0N
0O
1P
1G
0L
0r
1s
0i
0B
1@
0A
0M
1Q
1O
0P
0s
0|
1i
0(
0'
1&
0Q
1R
1|
0R
#56000
0)
0*
07
09
0K
0E
0F
1x
#57000
1)
17
1E
1F
#58000
0)
07
0E
0F
#59000
1)
1*
17
19
1K
1E
1F
0x
1h
0q
0G
1L
1r
1B
1M
0i
1(
#60000
0)
0*
07
09
0K
0E
0F
1x
#61000
1)
17
1E
1F
#62000
0)
07
0E
0F
#63000
1)
1*
17
19
1K
1E
1F
0x
1g
0h
1q
0p
0M
1N
1G
0L
0r
1i
0B
1A
1M
0N
0O
1P
1s
0i
0(
1'
1Q
1O
0P
0s
0|
0Q
1R
1\
1|
0{
0R
0\
1{
#64000
0)
0*
07
09
0K
0E
0F
1x
#65000
1)
17
1E
1F
#66000
0)
07
0E
0F
#67000
1)
1*
17
19
1K
1E
1F
0x
1h
0q
0G
1L
1r
1B
0M
1N
1i
1(
0O
1P
1s
1Q
0|
1R
#68000
0)
0*
07
09
0K
0E
0F
1x
#69000
1)
17
1E
1F
#70000
0)
0+
07
0:
0I
0E
0F
1y
1]
#71000
1)
1*
17
19
1K
1E
1F
0x
0g
0f
0h
1q
1o
1p
1M
0N
1O
0P
1G
0L
0r
0s
0i
0B
0@
0A
0M
0Q
0O
1\
1s
1|
1i
0(
0'
0&
0{
0R
0\
1{
#72000
0)
0*
07
09
0K
0E
0F
1x
#73000
1)
17
1E
1F
#74000
0)
07
0E
0F
#75000
1)
1*
17
19
1K
1E
1F
0x
#76000
0)
0*
07
09
0K
0E
0F
1x
#77000
1)
17
1E
1F
#78000
0)
07
0E
0F
#79000
1)
1*
17
19
1K
1E
1F
0x
#80000
0)
0*
07
09
0K
0E
0F
1x
#81000
1)
17
1E
1F
#82000
0)
07
0E
0F
#83000
1)
1*
17
19
1K
1E
1F
0x
#84000
0)
0*
07
09
0K
0E
0F
1x
#85000
1)
17
1E
1F
#86000
0)
07
0E
0F
#87000
1)
1*
17
19
1K
1E
1F
0x
#88000
0)
0*
07
09
0K
0E
0F
1x
#89000
1)
17
1E
1F
#90000
0)
07
0E
0F
#91000
1)
1*
17
19
1K
1E
1F
0x
#92000
0)
0*
07
09
0K
0E
0F
1x
#93000
1)
17
1E
1F
#94000
0)
07
0E
0F
#95000
1)
1*
17
19
1K
1E
1F
0x
#96000
0)
0*
07
09
0K
0E
0F
1x
#97000
1)
17
1E
1F
#98000
0)
07
0E
0F
#99000
1)
1*
17
19
1K
1E
1F
0x
#100000
0)
0*
07
09
0K
0E
0F
1x
#101000
1)
17
1E
1F
#102000
0)
07
0E
0F
#103000
1)
1*
17
19
1K
1E
1F
0x
#104000
0)
0*
07
09
0K
0E
0F
1x
#105000
1)
17
1E
1F
#106000
0)
07
0E
0F
#107000
1)
1*
17
19
1K
1E
1F
0x
#108000
0)
0*
07
09
0K
0E
0F
1x
#109000
1)
17
1E
1F
#110000
0)
07
0E
0F
#111000
1)
1*
17
19
1K
1E
1F
0x
#112000
0)
0*
07
09
0K
0E
0F
1x
#113000
1)
17
1E
1F
#114000
0)
07
0E
0F
#115000
1)
1*
17
19
1K
1E
1F
0x
#116000
0)
0*
07
09
0K
0E
0F
1x
#117000
1)
17
1E
1F
#118000
0)
07
0E
0F
#119000
1)
1*
17
19
1K
1E
1F
0x
#120000
0)
0*
07
09
0K
0E
0F
1x
#121000
1)
17
1E
1F
#122000
0)
07
0E
0F
#123000
1)
1*
17
19
1K
1E
1F
0x
#124000
0)
0*
07
09
0K
0E
0F
1x
#125000
1)
17
1E
1F
#126000
0)
07
0E
0F
#127000
1)
1*
17
19
1K
1E
1F
0x
#128000
0)
0*
07
09
0K
0E
0F
1x
#129000
1)
17
1E
1F
#130000
0)
07
0E
0F
#131000
1)
1*
17
19
1K
1E
1F
0x
#132000
0)
0*
07
09
0K
0E
0F
1x
#133000
1)
17
1E
1F
#134000
0)
07
0E
0F
#135000
1)
1*
17
19
1K
1E
1F
0x
#136000
0)
0*
07
09
0K
0E
0F
1x
#137000
1)
17
1E
1F
#138000
0)
07
0E
0F
#139000
1)
1*
17
19
1K
1E
1F
0x
#140000
0)
0*
07
09
0K
0E
0F
1x
#141000
1)
17
1E
1F
#142000
0)
07
0E
0F
#143000
1)
1*
17
19
1K
1E
1F
0x
#144000
0)
0*
07
09
0K
0E
0F
1x
#145000
1)
17
1E
1F
#146000
0)
07
0E
0F
#147000
1)
1*
17
19
1K
1E
1F
0x
#148000
0)
0*
07
09
0K
0E
0F
1x
#149000
1)
17
1E
1F
#150000
0)
07
0E
0F
#151000
1)
1*
17
19
1K
1E
1F
0x
#152000
0)
0*
07
09
0K
0E
0F
1x
#153000
1)
17
1E
1F
#154000
0)
07
0E
0F
#155000
1)
1*
17
19
1K
1E
1F
0x
#156000
0)
0*
07
09
0K
0E
0F
1x
#157000
1)
17
1E
1F
#158000
0)
07
0E
0F
#159000
1)
1*
17
19
1K
1E
1F
0x
#160000
0)
0*
07
09
0K
0E
0F
1x
#161000
1)
17
1E
1F
#162000
0)
07
0E
0F
#163000
1)
1*
17
19
1K
1E
1F
0x
#164000
0)
0*
07
09
0K
0E
0F
1x
#165000
1)
17
1E
1F
#166000
0)
07
0E
0F
#167000
1)
1*
17
19
1K
1E
1F
0x
#168000
0)
0*
07
09
0K
0E
0F
1x
#169000
1)
17
1E
1F
#170000
0)
07
0E
0F
#171000
1)
1*
17
19
1K
1E
1F
0x
#172000
0)
0*
07
09
0K
0E
0F
1x
#173000
1)
17
1E
1F
#174000
0)
07
0E
0F
#175000
1)
1*
17
19
1K
1E
1F
0x
#176000
0)
0*
07
09
0K
0E
0F
1x
#177000
1)
17
1E
1F
#178000
0)
07
0E
0F
#179000
1)
1*
17
19
1K
1E
1F
0x
#180000
0)
0*
07
09
0K
0E
0F
1x
#181000
1)
17
1E
1F
#182000
0)
07
0E
0F
#183000
1)
1*
17
19
1K
1E
1F
0x
#184000
0)
0*
07
09
0K
0E
0F
1x
#185000
1)
17
1E
1F
#186000
0)
07
0E
0F
#187000
1)
1*
17
19
1K
1E
1F
0x
#188000
0)
0*
07
09
0K
0E
0F
1x
#189000
1)
17
1E
1F
#190000
0)
07
0E
0F
#191000
1)
1*
17
19
1K
1E
1F
0x
#192000
0)
0*
07
09
0K
0E
0F
1x
#193000
1)
17
1E
1F
#194000
0)
07
0E
0F
#195000
1)
1*
17
19
1K
1E
1F
0x
#196000
0)
0*
07
09
0K
0E
0F
1x
#197000
1)
17
1E
1F
#198000
0)
07
0E
0F
#199000
1)
1*
17
19
1K
1E
1F
0x
#200000
0)
0*
07
09
0K
0E
0F
1x
#201000
1)
17
1E
1F
#202000
0)
07
0E
0F
#203000
1)
1*
17
19
1K
1E
1F
0x
#204000
0)
0*
07
09
0K
0E
0F
1x
#205000
1)
17
1E
1F
#206000
0)
07
0E
0F
#207000
1)
1*
17
19
1K
1E
1F
0x
#208000
0)
0*
07
09
0K
0E
0F
1x
#209000
1)
17
1E
1F
#210000
0)
07
0E
0F
#211000
1)
1*
17
19
1K
1E
1F
0x
#212000
0)
0*
07
09
0K
0E
0F
1x
#213000
1)
17
1E
1F
#214000
0)
07
0E
0F
#215000
1)
1*
17
19
1K
1E
1F
0x
#216000
0)
0*
07
09
0K
0E
0F
1x
#217000
1)
17
1E
1F
#218000
0)
07
0E
0F
#219000
1)
1*
17
19
1K
1E
1F
0x
#220000
0)
0*
07
09
0K
0E
0F
1x
#221000
1)
17
1E
1F
#222000
0)
07
0E
0F
#223000
1)
1*
17
19
1K
1E
1F
0x
#224000
0)
0*
07
09
0K
0E
0F
1x
#225000
1)
17
1E
1F
#226000
0)
07
0E
0F
#227000
1)
1*
17
19
1K
1E
1F
0x
#228000
0)
0*
07
09
0K
0E
0F
1x
#229000
1)
17
1E
1F
#230000
0)
07
0E
0F
#231000
1)
1*
17
19
1K
1E
1F
0x
#232000
0)
0*
07
09
0K
0E
0F
1x
#233000
1)
17
1E
1F
#234000
0)
07
0E
0F
#235000
1)
1*
17
19
1K
1E
1F
0x
#236000
0)
0*
07
09
0K
0E
0F
1x
#237000
1)
17
1E
1F
#238000
0)
07
0E
0F
#239000
1)
1*
17
19
1K
1E
1F
0x
#240000
0)
0*
07
09
0K
0E
0F
1x
#241000
1)
17
1E
1F
#242000
0)
07
0E
0F
#243000
1)
1*
17
19
1K
1E
1F
0x
#244000
0)
0*
07
09
0K
0E
0F
1x
#245000
1)
17
1E
1F
#246000
0)
07
0E
0F
#247000
1)
1*
17
19
1K
1E
1F
0x
#248000
0)
0*
07
09
0K
0E
0F
1x
#249000
1)
17
1E
1F
#250000
0)
07
0E
0F
#251000
1)
1*
17
19
1K
1E
1F
0x
#252000
0)
0*
07
09
0K
0E
0F
1x
#253000
1)
17
1E
1F
#254000
0)
07
0E
0F
#255000
1)
1*
17
19
1K
1E
1F
0x
#256000
0)
0*
07
09
0K
0E
0F
1x
#257000
1)
17
1E
1F
#258000
0)
07
0E
0F
#259000
1)
1*
17
19
1K
1E
1F
0x
#260000
0)
0*
07
09
0K
0E
0F
1x
#261000
1)
17
1E
1F
#262000
0)
07
0E
0F
#263000
1)
1*
17
19
1K
1E
1F
0x
#264000
0)
0*
07
09
0K
0E
0F
1x
#265000
1)
17
1E
1F
#266000
0)
07
0E
0F
#267000
1)
1*
17
19
1K
1E
1F
0x
#268000
0)
0*
07
09
0K
0E
0F
1x
#269000
1)
17
1E
1F
#270000
0)
07
0E
0F
#271000
1)
1*
17
19
1K
1E
1F
0x
#272000
0)
0*
07
09
0K
0E
0F
1x
#273000
1)
17
1E
1F
#274000
0)
07
0E
0F
#275000
1)
1*
17
19
1K
1E
1F
0x
#276000
0)
0*
07
09
0K
0E
0F
1x
#277000
1)
17
1E
1F
#278000
0)
07
0E
0F
#279000
1)
1*
17
19
1K
1E
1F
0x
#280000
0)
0*
07
09
0K
0E
0F
1x
#281000
1)
17
1E
1F
#282000
0)
07
0E
0F
#283000
1)
1*
17
19
1K
1E
1F
0x
#284000
0)
0*
07
09
0K
0E
0F
1x
#285000
1)
17
1E
1F
#286000
0)
07
0E
0F
#287000
1)
1*
17
19
1K
1E
1F
0x
#288000
0)
0*
07
09
0K
0E
0F
1x
#289000
1)
17
1E
1F
#290000
0)
07
0E
0F
#291000
1)
1*
17
19
1K
1E
1F
0x
#292000
0)
0*
07
09
0K
0E
0F
1x
#293000
1)
17
1E
1F
#294000
0)
07
0E
0F
#295000
1)
1*
17
19
1K
1E
1F
0x
#296000
0)
0*
07
09
0K
0E
0F
1x
#297000
1)
17
1E
1F
#298000
0)
07
0E
0F
#299000
1)
1*
17
19
1K
1E
1F
0x
#300000
0)
0*
07
09
0K
0E
0F
1x
#301000
1)
17
1E
1F
#302000
0)
07
0E
0F
#303000
1)
1*
17
19
1K
1E
1F
0x
#304000
0)
0*
07
09
0K
0E
0F
1x
#305000
1)
17
1E
1F
#306000
0)
07
0E
0F
#307000
1)
1*
17
19
1K
1E
1F
0x
#308000
0)
0*
07
09
0K
0E
0F
1x
#309000
1)
17
1E
1F
#310000
0)
07
0E
0F
#311000
1)
1*
17
19
1K
1E
1F
0x
#312000
0)
0*
07
09
0K
0E
0F
1x
#313000
1)
17
1E
1F
#314000
0)
07
0E
0F
#315000
1)
1*
17
19
1K
1E
1F
0x
#316000
0)
0*
07
09
0K
0E
0F
1x
#317000
1)
17
1E
1F
#318000
0)
07
0E
0F
#319000
1)
1*
17
19
1K
1E
1F
0x
#320000
0)
0*
07
09
0K
0E
0F
1x
#321000
1)
17
1E
1F
#322000
0)
07
0E
0F
#323000
1)
1*
17
19
1K
1E
1F
0x
#324000
0)
0*
07
09
0K
0E
0F
1x
#325000
1)
17
1E
1F
#326000
0)
07
0E
0F
#327000
1)
1*
17
19
1K
1E
1F
0x
#328000
0)
0*
07
09
0K
0E
0F
1x
#329000
1)
17
1E
1F
#330000
0)
07
0E
0F
#331000
1)
1*
17
19
1K
1E
1F
0x
#332000
0)
0*
07
09
0K
0E
0F
1x
#333000
1)
17
1E
1F
#334000
0)
07
0E
0F
#335000
1)
1*
17
19
1K
1E
1F
0x
#336000
0)
0*
07
09
0K
0E
0F
1x
#337000
1)
17
1E
1F
#338000
0)
07
0E
0F
#339000
1)
1*
17
19
1K
1E
1F
0x
#340000
0)
0*
07
09
0K
0E
0F
1x
#341000
1)
17
1E
1F
#342000
0)
07
0E
0F
#343000
1)
1*
17
19
1K
1E
1F
0x
#344000
0)
0*
07
09
0K
0E
0F
1x
#345000
1)
17
1E
1F
#346000
0)
07
0E
0F
#347000
1)
1*
17
19
1K
1E
1F
0x
#348000
0)
0*
07
09
0K
0E
0F
1x
#349000
1)
17
1E
1F
#350000
0)
07
0E
0F
#351000
1)
1*
17
19
1K
1E
1F
0x
#352000
0)
0*
07
09
0K
0E
0F
1x
#353000
1)
17
1E
1F
#354000
0)
07
0E
0F
#355000
1)
1*
17
19
1K
1E
1F
0x
#356000
0)
0*
07
09
0K
0E
0F
1x
#357000
1)
17
1E
1F
#358000
0)
07
0E
0F
#359000
1)
1*
17
19
1K
1E
1F
0x
#360000
0)
0*
07
09
0K
0E
0F
1x
#361000
1)
17
1E
1F
#362000
0)
07
0E
0F
#363000
1)
1*
17
19
1K
1E
1F
0x
#364000
0)
0*
07
09
0K
0E
0F
1x
#365000
1)
17
1E
1F
#366000
0)
07
0E
0F
#367000
1)
1*
17
19
1K
1E
1F
0x
#368000
0)
0*
07
09
0K
0E
0F
1x
#369000
1)
17
1E
1F
#370000
0)
07
0E
0F
#371000
1)
1*
17
19
1K
1E
1F
0x
#372000
0)
0*
07
09
0K
0E
0F
1x
#373000
1)
17
1E
1F
#374000
0)
07
0E
0F
#375000
1)
1*
17
19
1K
1E
1F
0x
#376000
0)
0*
07
09
0K
0E
0F
1x
#377000
1)
17
1E
1F
#378000
0)
07
0E
0F
#379000
1)
1*
17
19
1K
1E
1F
0x
#380000
0)
0*
07
09
0K
0E
0F
1x
#381000
1)
17
1E
1F
#382000
0)
07
0E
0F
#383000
1)
1*
17
19
1K
1E
1F
0x
#384000
0)
0*
07
09
0K
0E
0F
1x
#385000
1)
17
1E
1F
#386000
0)
07
0E
0F
#387000
1)
1*
17
19
1K
1E
1F
0x
#388000
0)
0*
07
09
0K
0E
0F
1x
#389000
1)
17
1E
1F
#390000
0)
07
0E
0F
#391000
1)
1*
17
19
1K
1E
1F
0x
#392000
0)
0*
07
09
0K
0E
0F
1x
#393000
1)
17
1E
1F
#394000
0)
07
0E
0F
#395000
1)
1*
17
19
1K
1E
1F
0x
#396000
0)
0*
07
09
0K
0E
0F
1x
#397000
1)
17
1E
1F
#398000
0)
07
0E
0F
#399000
1)
1*
17
19
1K
1E
1F
0x
#400000
0)
0*
07
09
0K
0E
0F
1x
#401000
1)
17
1E
1F
#402000
0)
07
0E
0F
#403000
1)
1*
17
19
1K
1E
1F
0x
#404000
0)
0*
07
09
0K
0E
0F
1x
#405000
1)
17
1E
1F
#406000
0)
07
0E
0F
#407000
1)
1*
17
19
1K
1E
1F
0x
#408000
0)
0*
07
09
0K
0E
0F
1x
#409000
1)
17
1E
1F
#410000
0)
07
0E
0F
#411000
1)
1*
17
19
1K
1E
1F
0x
#412000
0)
0*
07
09
0K
0E
0F
1x
#413000
1)
17
1E
1F
#414000
0)
07
0E
0F
#415000
1)
1*
17
19
1K
1E
1F
0x
#416000
0)
0*
07
09
0K
0E
0F
1x
#417000
1)
17
1E
1F
#418000
0)
07
0E
0F
#419000
1)
1*
17
19
1K
1E
1F
0x
#420000
0)
0*
07
09
0K
0E
0F
1x
#421000
1)
17
1E
1F
#422000
0)
07
0E
0F
#423000
1)
1*
17
19
1K
1E
1F
0x
#424000
0)
0*
07
09
0K
0E
0F
1x
#425000
1)
17
1E
1F
#426000
0)
07
0E
0F
#427000
1)
1*
17
19
1K
1E
1F
0x
#428000
0)
0*
07
09
0K
0E
0F
1x
#429000
1)
17
1E
1F
#430000
0)
07
0E
0F
#431000
1)
1*
17
19
1K
1E
1F
0x
#432000
0)
0*
07
09
0K
0E
0F
1x
#433000
1)
17
1E
1F
#434000
0)
07
0E
0F
#435000
1)
1*
17
19
1K
1E
1F
0x
#436000
0)
0*
07
09
0K
0E
0F
1x
#437000
1)
17
1E
1F
#438000
0)
07
0E
0F
#439000
1)
1*
17
19
1K
1E
1F
0x
#440000
0)
0*
07
09
0K
0E
0F
1x
#441000
1)
17
1E
1F
#442000
0)
07
0E
0F
#443000
1)
1*
17
19
1K
1E
1F
0x
#444000
0)
0*
07
09
0K
0E
0F
1x
#445000
1)
17
1E
1F
#446000
0)
07
0E
0F
#447000
1)
1*
17
19
1K
1E
1F
0x
#448000
0)
0*
07
09
0K
0E
0F
1x
#449000
1)
17
1E
1F
#450000
0)
07
0E
0F
#451000
1)
1*
17
19
1K
1E
1F
0x
#452000
0)
0*
07
09
0K
0E
0F
1x
#453000
1)
17
1E
1F
#454000
0)
07
0E
0F
#455000
1)
1*
17
19
1K
1E
1F
0x
#456000
0)
0*
07
09
0K
0E
0F
1x
#457000
1)
17
1E
1F
#458000
0)
07
0E
0F
#459000
1)
1*
17
19
1K
1E
1F
0x
#460000
0)
0*
07
09
0K
0E
0F
1x
#461000
1)
17
1E
1F
#462000
0)
07
0E
0F
#463000
1)
1*
17
19
1K
1E
1F
0x
#464000
0)
0*
07
09
0K
0E
0F
1x
#465000
1)
17
1E
1F
#466000
0)
07
0E
0F
#467000
1)
1*
17
19
1K
1E
1F
0x
#468000
0)
0*
07
09
0K
0E
0F
1x
#469000
1)
17
1E
1F
#470000
0)
07
0E
0F
#471000
1)
1*
17
19
1K
1E
1F
0x
#472000
0)
0*
07
09
0K
0E
0F
1x
#473000
1)
17
1E
1F
#474000
0)
07
0E
0F
#475000
1)
1*
17
19
1K
1E
1F
0x
#476000
0)
0*
07
09
0K
0E
0F
1x
#477000
1)
17
1E
1F
#478000
0)
07
0E
0F
#479000
1)
1*
17
19
1K
1E
1F
0x
#480000
0)
0*
07
09
0K
0E
0F
1x
#481000
1)
17
1E
1F
#482000
0)
07
0E
0F
#483000
1)
1*
17
19
1K
1E
1F
0x
#484000
0)
0*
07
09
0K
0E
0F
1x
#485000
1)
17
1E
1F
#486000
0)
07
0E
0F
#487000
1)
1*
17
19
1K
1E
1F
0x
#488000
0)
0*
07
09
0K
0E
0F
1x
#489000
1)
17
1E
1F
#490000
0)
07
0E
0F
#491000
1)
1*
17
19
1K
1E
1F
0x
#492000
0)
0*
07
09
0K
0E
0F
1x
#493000
1)
17
1E
1F
#494000
0)
07
0E
0F
#495000
1)
1*
17
19
1K
1E
1F
0x
#496000
0)
0*
07
09
0K
0E
0F
1x
#497000
1)
17
1E
1F
#498000
0)
07
0E
0F
#499000
1)
1*
17
19
1K
1E
1F
0x
#500000
0)
0*
07
09
0K
0E
0F
1x
#501000
1)
17
1E
1F
#502000
0)
07
0E
0F
#503000
1)
1*
17
19
1K
1E
1F
0x
#504000
0)
0*
07
09
0K
0E
0F
1x
#505000
1)
17
1E
1F
#506000
0)
07
0E
0F
#507000
1)
1*
17
19
1K
1E
1F
0x
#508000
0)
0*
07
09
0K
0E
0F
1x
#509000
1)
17
1E
1F
#510000
0)
07
0E
0F
#511000
1)
1*
17
19
1K
1E
1F
0x
#512000
0)
0*
07
09
0K
0E
0F
1x
#513000
1)
17
1E
1F
#514000
0)
07
0E
0F
#515000
1)
1*
17
19
1K
1E
1F
0x
#516000
0)
0*
07
09
0K
0E
0F
1x
#517000
1)
17
1E
1F
#518000
0)
07
0E
0F
#519000
1)
1*
17
19
1K
1E
1F
0x
#520000
0)
0*
07
09
0K
0E
0F
1x
#521000
1)
17
1E
1F
#522000
0)
07
0E
0F
#523000
1)
1*
17
19
1K
1E
1F
0x
#524000
0)
0*
07
09
0K
0E
0F
1x
#525000
1)
17
1E
1F
#526000
0)
07
0E
0F
#527000
1)
1*
17
19
1K
1E
1F
0x
#528000
0)
0*
07
09
0K
0E
0F
1x
#529000
1)
17
1E
1F
#530000
0)
07
0E
0F
#531000
1)
1*
17
19
1K
1E
1F
0x
#532000
0)
0*
07
09
0K
0E
0F
1x
#533000
1)
17
1E
1F
#534000
0)
07
0E
0F
#535000
1)
1*
17
19
1K
1E
1F
0x
#536000
0)
0*
07
09
0K
0E
0F
1x
#537000
1)
17
1E
1F
#538000
0)
07
0E
0F
#539000
1)
1*
17
19
1K
1E
1F
0x
#540000
0)
0*
07
09
0K
0E
0F
1x
#541000
1)
17
1E
1F
#542000
0)
07
0E
0F
#543000
1)
1*
17
19
1K
1E
1F
0x
#544000
0)
0*
07
09
0K
0E
0F
1x
#545000
1)
17
1E
1F
#546000
0)
07
0E
0F
#547000
1)
1*
17
19
1K
1E
1F
0x
#548000
0)
0*
07
09
0K
0E
0F
1x
#549000
1)
17
1E
1F
#550000
0)
07
0E
0F
#551000
1)
1*
17
19
1K
1E
1F
0x
#552000
0)
0*
07
09
0K
0E
0F
1x
#553000
1)
17
1E
1F
#554000
0)
07
0E
0F
#555000
1)
1*
17
19
1K
1E
1F
0x
#556000
0)
0*
07
09
0K
0E
0F
1x
#557000
1)
17
1E
1F
#558000
0)
07
0E
0F
#559000
1)
1*
17
19
1K
1E
1F
0x
#560000
0)
0*
07
09
0K
0E
0F
1x
#561000
1)
17
1E
1F
#562000
0)
07
0E
0F
#563000
1)
1*
17
19
1K
1E
1F
0x
#564000
0)
0*
07
09
0K
0E
0F
1x
#565000
1)
17
1E
1F
#566000
0)
07
0E
0F
#567000
1)
1*
17
19
1K
1E
1F
0x
#568000
0)
0*
07
09
0K
0E
0F
1x
#569000
1)
17
1E
1F
#570000
0)
07
0E
0F
#571000
1)
1*
17
19
1K
1E
1F
0x
#572000
0)
0*
07
09
0K
0E
0F
1x
#573000
1)
17
1E
1F
#574000
0)
07
0E
0F
#575000
1)
1*
17
19
1K
1E
1F
0x
#576000
0)
0*
07
09
0K
0E
0F
1x
#577000
1)
17
1E
1F
#578000
0)
07
0E
0F
#579000
1)
1*
17
19
1K
1E
1F
0x
#580000
0)
0*
07
09
0K
0E
0F
1x
#581000
1)
17
1E
1F
#582000
0)
07
0E
0F
#583000
1)
1*
17
19
1K
1E
1F
0x
#584000
0)
0*
07
09
0K
0E
0F
1x
#585000
1)
17
1E
1F
#586000
0)
07
0E
0F
#587000
1)
1*
17
19
1K
1E
1F
0x
#588000
0)
0*
07
09
0K
0E
0F
1x
#589000
1)
17
1E
1F
#590000
0)
07
0E
0F
