V1/simulation/qsim/V1.msim.vcd
$comment
	File created using the following command:
		vcd file V1.msim.vcd -direction
$end
$date
	Mon Aug 27 10:18:29 2018
$end
$version
	ModelSim Version 10.5b
$end
$timescale
	1ps
$end

$scope module score_vlg_vec_tst $end
$var reg 1 ! clk $end
$var reg 1 " resetN $end
$var reg 32 # score_note0 [31:0] $end
$var wire 1 $ tens [31] $end
$var wire 1 % tens [30] $end
$var wire 1 & tens [29] $end
$var wire 1 ' tens [28] $end
$var wire 1 ( tens [27] $end
$var wire 1 ) tens [26] $end
$var wire 1 * tens [25] $end
$var wire 1 + tens [24] $end
$var wire 1 , tens [23] $end
$var wire 1 - tens [22] $end
$var wire 1 . tens [21] $end
$var wire 1 / tens [20] $end
$var wire 1 0 tens [19] $end
$var wire 1 1 tens [18] $end
$var wire 1 2 tens [17] $end
$var wire 1 3 tens [16] $end
$var wire 1 4 tens [15] $end
$var wire 1 5 tens [14] $end
$var wire 1 6 tens [13] $end
$var wire 1 7 tens [12] $end
$var wire 1 8 tens [11] $end
$var wire 1 9 tens [10] $end
$var wire 1 : tens [9] $end
$var wire 1 ; tens [8] $end
$var wire 1 < tens [7] $end
$var wire 1 = tens [6] $end
$var wire 1 > tens [5] $end
$var wire 1 ? tens [4] $end
$var wire 1 @ tens [3] $end
$var wire 1 A tens [2] $end
$var wire 1 B tens [1] $end
$var wire 1 C tens [0] $end
$var wire 1 D unit [31] $end
$var wire 1 E unit [30] $end
$var wire 1 F unit [29] $end
$var wire 1 G unit [28] $end
$var wire 1 H unit [27] $end
$var wire 1 I unit [26] $end
$var wire 1 J unit [25] $end
$var wire 1 K unit [24] $end
$var wire 1 L unit [23] $end
$var wire 1 M unit [22] $end
$var wire 1 N unit [21] $end
$var wire 1 O unit [20] $end
$var wire 1 P unit [19] $end
$var wire 1 Q unit [18] $end
$var wire 1 R unit [17] $end
$var wire 1 S unit [16] $end
$var wire 1 T unit [15] $end
$var wire 1 U unit [14] $end
$var wire 1 V unit [13] $end
$var wire 1 W unit [12] $end
$var wire 1 X unit [11] $end
$var wire 1 Y unit [10] $end
$var wire 1 Z unit [9] $end
$var wire 1 [ unit [8] $end
$var wire 1 \ unit [7] $end
$var wire 1 ] unit [6] $end
$var wire 1 ^ unit [5] $end
$var wire 1 _ unit [4] $end
$var wire 1 ` unit [3] $end
$var wire 1 a unit [2] $end
$var wire 1 b unit [1] $end
$var wire 1 c unit [0] $end

$scope module i1 $end
$var wire 1 d gnd $end
$var wire 1 e vcc $end
$var wire 1 f unknown $end
$var tri1 1 g devclrn $end
$var tri1 1 h devpor $end
$var tri1 1 i devoe $end
$var wire 1 j ~QUARTUS_CREATED_GND~I_combout $end
$var wire 1 k clk~input_o $end
$var wire 1 l clk~inputCLKENA0_outclk $end
$var wire 1 m score_note0[31]~input_o $end
$var wire 1 n Add2~1_sumout $end
$var wire 1 o Add2~14 $end
$var wire 1 p Add2~17_sumout $end
$var wire 1 q resetN~input_o $end
$var wire 1 r tmp_tens[28]~3_combout $end
$var wire 1 s score_note0[30]~input_o $end
$var wire 1 t tmp_unit~4_combout $end
$var wire 1 u score_note0[29]~input_o $end
$var wire 1 v score_note0[28]~input_o $end
$var wire 1 w score_note0[27]~input_o $end
$var wire 1 x score_note0[26]~input_o $end
$var wire 1 y score_note0[25]~input_o $end
$var wire 1 z score_note0[24]~input_o $end
$var wire 1 { score_note0[23]~input_o $end
$var wire 1 | score_note0[22]~input_o $end
$var wire 1 } score_note0[21]~input_o $end
$var wire 1 ~ score_note0[20]~input_o $end
$var wire 1 !! score_note0[19]~input_o $end
$var wire 1 "! score_note0[18]~input_o $end
$var wire 1 #! score_note0[17]~input_o $end
$var wire 1 $! score_note0[16]~input_o $end
$var wire 1 %! score_note0[15]~input_o $end
$var wire 1 &! score_note0[14]~input_o $end
$var wire 1 '! score_note0[13]~input_o $end
$var wire 1 (! score_note0[12]~input_o $end
$var wire 1 )! score_note0[11]~input_o $end
$var wire 1 *! score_note0[10]~input_o $end
$var wire 1 +! score_note0[9]~input_o $end
$var wire 1 ,! score_note0[8]~input_o $end
$var wire 1 -! score_note0[7]~input_o $end
$var wire 1 .! score_note0[6]~input_o $end
$var wire 1 /! score_note0[5]~input_o $end
$var wire 1 0! score_note0[4]~input_o $end
$var wire 1 1! score_note0[3]~input_o $end
$var wire 1 2! score_note0[2]~input_o $end
$var wire 1 3! score_note0[1]~input_o $end
$var wire 1 4! score_note0[0]~input_o $end
$var wire 1 5! Add0~2 $end
$var wire 1 6! Add0~3 $end
$var wire 1 7! Add0~5_sumout $end
$var wire 1 8! Add5~126 $end
$var wire 1 9! Add5~61_sumout $end
$var wire 1 :! Add3~1_sumout $end
$var wire 1 ;! tmp_unit~5_combout $end
$var wire 1 <! Add0~6 $end
$var wire 1 =! Add0~7 $end
$var wire 1 >! Add0~11 $end
$var wire 1 ?! Add0~14 $end
$var wire 1 @! Add0~15 $end
$var wire 1 A! Add0~18 $end
$var wire 1 B! Add0~19 $end
$var wire 1 C! Add0~23 $end
$var wire 1 D! Add0~26 $end
$var wire 1 E! Add0~27 $end
$var wire 1 F! Add0~31 $end
$var wire 1 G! Add0~34 $end
$var wire 1 H! Add0~35 $end
$var wire 1 I! Add0~39 $end
$var wire 1 J! Add0~42 $end
$var wire 1 K! Add0~43 $end
$var wire 1 L! Add0~47 $end
$var wire 1 M! Add0~50 $end
$var wire 1 N! Add0~51 $end
$var wire 1 O! Add0~55 $end
$var wire 1 P! Add0~58 $end
$var wire 1 Q! Add0~59 $end
$var wire 1 R! Add0~62 $end
$var wire 1 S! Add0~63 $end
$var wire 1 T! Add0~66 $end
$var wire 1 U! Add0~67 $end
$var wire 1 V! Add0~70 $end
$var wire 1 W! Add0~71 $end
$var wire 1 X! Add0~75 $end
$var wire 1 Y! Add0~78 $end
$var wire 1 Z! Add0~79 $end
$var wire 1 [! Add0~83 $end
$var wire 1 \! Add0~86 $end
$var wire 1 ]! Add0~87 $end
$var wire 1 ^! Add0~90 $end
$var wire 1 _! Add0~91 $end
$var wire 1 `! Add0~94 $end
$var wire 1 a! Add0~95 $end
$var wire 1 b! Add0~99 $end
$var wire 1 c! Add0~103 $end
$var wire 1 d! Add0~106 $end
$var wire 1 e! Add0~107 $end
$var wire 1 f! Add0~110 $end
$var wire 1 g! Add0~111 $end
$var wire 1 h! Add0~115 $end
$var wire 1 i! Add0~119 $end
$var wire 1 j! Add0~122 $end
$var wire 1 k! Add0~123 $end
$var wire 1 l! Add0~125_sumout $end
$var wire 1 m! Add5~77_sumout $end
$var wire 1 n! Add5~14 $end
$var wire 1 o! Add5~18 $end
$var wire 1 p! Add5~73_sumout $end
$var wire 1 q! Add5~17_sumout $end
$var wire 1 r! Add5~106 $end
$var wire 1 s! Add5~69_sumout $end
$var wire 1 t! Add5~98 $end
$var wire 1 u! Add5~101_sumout $end
$var wire 1 v! Add5~30 $end
$var wire 1 w! Add5~33_sumout $end
$var wire 1 x! Add5~90 $end
$var wire 1 y! Add5~25_sumout $end
$var wire 1 z! Add5~118 $end
$var wire 1 {! Add5~121_sumout $end
$var wire 1 |! Add5~110 $end
$var wire 1 }! Add5~113_sumout $end
$var wire 1 ~! Add5~50 $end
$var wire 1 !" Add5~53_sumout $end
$var wire 1 "" Add5~66 $end
$var wire 1 #" Add5~57_sumout $end
$var wire 1 $" Add3~2 $end
$var wire 1 %" Add3~6 $end
$var wire 1 &" Add3~10 $end
$var wire 1 '" Add3~14 $end
$var wire 1 (" Add3~18 $end
$var wire 1 )" Add3~22 $end
$var wire 1 *" Add3~26 $end
$var wire 1 +" Add3~30 $end
$var wire 1 ," Add3~34 $end
$var wire 1 -" Add3~38 $end
$var wire 1 ." Add3~42 $end
$var wire 1 /" Add3~46 $end
$var wire 1 0" Add3~50 $end
$var wire 1 1" Add3~54 $end
$var wire 1 2" Add3~58 $end
$var wire 1 3" Add3~62 $end
$var wire 1 4" Add3~66 $end
$var wire 1 5" Add3~70 $end
$var wire 1 6" Add3~74 $end
$var wire 1 7" Add3~78 $end
$var wire 1 8" Add3~82 $end
$var wire 1 9" Add3~86 $end
$var wire 1 :" Add3~90 $end
$var wire 1 ;" Add3~94 $end
$var wire 1 <" Add3~98 $end
$var wire 1 =" Add3~102 $end
$var wire 1 >" Add3~106 $end
$var wire 1 ?" Add3~110 $end
$var wire 1 @" Add3~114 $end
$var wire 1 A" Add3~118 $end
$var wire 1 B" Add3~121_sumout $end
$var wire 1 C" LessThan2~9_combout $end
$var wire 1 D" LessThan2~10_combout $end
$var wire 1 E" LessThan2~11_combout $end
$var wire 1 F" LessThan2~12_combout $end
$var wire 1 G" LessThan2~13_combout $end
$var wire 1 H" tmp_unit~36_combout $end
$var wire 1 I" tmp_unit~37_combout $end
$var wire 1 J" Add5~82 $end
$var wire 1 K" Add5~86 $end
$var wire 1 L" Add5~1_sumout $end
$var wire 1 M" tmp_unit[8]~6_combout $end
$var wire 1 N" Add5~62 $end
$var wire 1 O" Add5~65_sumout $end
$var wire 1 P" Add3~5_sumout $end
$var wire 1 Q" Add0~9_sumout $end
$var wire 1 R" tmp_unit~7_combout $end
$var wire 1 S" Add0~10 $end
$var wire 1 T" Add0~13_sumout $end
$var wire 1 U" Add3~9_sumout $end
$var wire 1 V" tmp_unit~8_combout $end
$var wire 1 W" Add5~58 $end
$var wire 1 X" Add5~45_sumout $end
$var wire 1 Y" Add3~13_sumout $end
$var wire 1 Z" Add0~17_sumout $end
$var wire 1 [" tmp_unit~9_combout $end
$var wire 1 \" Add5~46 $end
$var wire 1 ]" Add5~49_sumout $end
$var wire 1 ^" Add3~17_sumout $end
$var wire 1 _" Add0~21_sumout $end
$var wire 1 `" tmp_unit~10_combout $end
$var wire 1 a" Add0~22 $end
$var wire 1 b" Add0~25_sumout $end
$var wire 1 c" Add3~21_sumout $end
$var wire 1 d" tmp_unit~11_combout $end
$var wire 1 e" Add5~54 $end
$var wire 1 f" Add5~109_sumout $end
$var wire 1 g" Add0~29_sumout $end
$var wire 1 h" Add3~25_sumout $end
$var wire 1 i" tmp_unit~12_combout $end
$var wire 1 j" Add0~30 $end
$var wire 1 k" Add0~33_sumout $end
$var wire 1 l" Add3~29_sumout $end
$var wire 1 m" tmp_unit~13_combout $end
$var wire 1 n" Add5~114 $end
$var wire 1 o" Add5~117_sumout $end
$var wire 1 p" Add0~37_sumout $end
$var wire 1 q" Add3~33_sumout $end
$var wire 1 r" tmp_unit~14_combout $end
$var wire 1 s" Add0~38 $end
$var wire 1 t" Add0~41_sumout $end
$var wire 1 u" Add3~37_sumout $end
$var wire 1 v" tmp_unit~15_combout $end
$var wire 1 w" Add5~122 $end
$var wire 1 x" Add5~89_sumout $end
$var wire 1 y" Add0~45_sumout $end
$var wire 1 z" Add3~41_sumout $end
$var wire 1 {" tmp_unit~16_combout $end
$var wire 1 |" Add0~46 $end
$var wire 1 }" Add0~49_sumout $end
$var wire 1 ~" Add3~45_sumout $end
$var wire 1 !# tmp_unit~17_combout $end
$var wire 1 "# Add5~26 $end
$var wire 1 ## Add5~29_sumout $end
$var wire 1 $# Add0~53_sumout $end
$var wire 1 %# Add3~49_sumout $end
$var wire 1 &# tmp_unit~18_combout $end
$var wire 1 '# Add0~54 $end
$var wire 1 (# Add0~57_sumout $end
$var wire 1 )# Add3~53_sumout $end
$var wire 1 *# tmp_unit~19_combout $end
$var wire 1 +# Add5~34 $end
$var wire 1 ,# Add5~37_sumout $end
$var wire 1 -# Add3~57_sumout $end
$var wire 1 .# Add0~61_sumout $end
$var wire 1 /# tmp_unit~20_combout $end
$var wire 1 0# Add5~38 $end
$var wire 1 1# Add5~93_sumout $end
$var wire 1 2# Add3~61_sumout $end
$var wire 1 3# Add0~65_sumout $end
$var wire 1 4# tmp_unit~21_combout $end
$var wire 1 5# Add5~94 $end
$var wire 1 6# Add5~41_sumout $end
$var wire 1 7# Add0~69_sumout $end
$var wire 1 8# Add3~65_sumout $end
$var wire 1 9# tmp_unit~22_combout $end
$var wire 1 :# Add5~42 $end
$var wire 1 ;# Add5~97_sumout $end
$var wire 1 <# Add0~73_sumout $end
$var wire 1 =# Add3~69_sumout $end
$var wire 1 ># tmp_unit~23_combout $end
$var wire 1 ?# Add0~74 $end
$var wire 1 @# Add0~77_sumout $end
$var wire 1 A# Add3~73_sumout $end
$var wire 1 B# tmp_unit~24_combout $end
$var wire 1 C# Add5~102 $end
$var wire 1 D# Add5~105_sumout $end
$var wire 1 E# Add0~81_sumout $end
$var wire 1 F# Add3~77_sumout $end
$var wire 1 G# tmp_unit~25_combout $end
$var wire 1 H# Add0~82 $end
$var wire 1 I# Add0~85_sumout $end
$var wire 1 J# Add3~81_sumout $end
$var wire 1 K# tmp_unit~26_combout $end
$var wire 1 L# Add5~70 $end
$var wire 1 M# Add5~5_sumout $end
$var wire 1 N# Add0~89_sumout $end
$var wire 1 O# Add3~85_sumout $end
$var wire 1 P# tmp_unit~27_combout $end
$var wire 1 Q# Add5~6 $end
$var wire 1 R# Add5~9_sumout $end
$var wire 1 S# Add0~93_sumout $end
$var wire 1 T# Add3~89_sumout $end
$var wire 1 U# tmp_unit~28_combout $end
$var wire 1 V# Add5~10 $end
$var wire 1 W# Add5~13_sumout $end
$var wire 1 X# Add0~97_sumout $end
$var wire 1 Y# Add3~93_sumout $end
$var wire 1 Z# tmp_unit~29_combout $end
$var wire 1 [# Add0~98 $end
$var wire 1 \# Add0~101_sumout $end
$var wire 1 ]# Add3~97_sumout $end
$var wire 1 ^# tmp_unit~30_combout $end
$var wire 1 _# Add0~102 $end
$var wire 1 `# Add0~105_sumout $end
$var wire 1 a# Add3~101_sumout $end
$var wire 1 b# tmp_unit~31_combout $end
$var wire 1 c# Add5~74 $end
$var wire 1 d# Add5~21_sumout $end
$var wire 1 e# Add0~109_sumout $end
$var wire 1 f# Add3~105_sumout $end
$var wire 1 g# tmp_unit~32_combout $end
$var wire 1 h# Add5~22 $end
$var wire 1 i# Add5~78 $end
$var wire 1 j# Add5~81_sumout $end
$var wire 1 k# LessThan2~0_combout $end
$var wire 1 l# LessThan2~1_combout $end
$var wire 1 m# LessThan2~2_combout $end
$var wire 1 n# LessThan2~6_combout $end
$var wire 1 o# LessThan2~7_combout $end
$var wire 1 p# LessThan2~8_combout $end
$var wire 1 q# tmp_unit[8]~2_combout $end
$var wire 1 r# Add0~113_sumout $end
$var wire 1 s# Add3~109_sumout $end
$var wire 1 t# tmp_unit~33_combout $end
$var wire 1 u# Add0~114 $end
$var wire 1 v# Add0~117_sumout $end
$var wire 1 w# Add3~113_sumout $end
$var wire 1 x# tmp_unit~34_combout $end
$var wire 1 y# Add0~118 $end
$var wire 1 z# Add0~121_sumout $end
$var wire 1 {# Add3~117_sumout $end
$var wire 1 |# tmp_unit~35_combout $end
$var wire 1 }# Add5~85_sumout $end
$var wire 1 ~# tmp_unit~3_combout $end
$var wire 1 !$ Add2~18 $end
$var wire 1 "$ Add2~21_sumout $end
$var wire 1 #$ Add2~22 $end
$var wire 1 $$ Add2~25_sumout $end
$var wire 1 %$ Add2~26 $end
$var wire 1 &$ Add2~29_sumout $end
$var wire 1 '$ Add2~30 $end
$var wire 1 ($ Add2~33_sumout $end
$var wire 1 )$ Add2~34 $end
$var wire 1 *$ Add2~37_sumout $end
$var wire 1 +$ Add2~38 $end
$var wire 1 ,$ Add2~41_sumout $end
$var wire 1 -$ Add2~42 $end
$var wire 1 .$ Add2~45_sumout $end
$var wire 1 /$ Add2~46 $end
$var wire 1 0$ Add2~49_sumout $end
$var wire 1 1$ Add2~50 $end
$var wire 1 2$ Add2~53_sumout $end
$var wire 1 3$ Add2~54 $end
$var wire 1 4$ Add2~57_sumout $end
$var wire 1 5$ Add2~58 $end
$var wire 1 6$ Add2~61_sumout $end
$var wire 1 7$ Add2~62 $end
$var wire 1 8$ Add2~65_sumout $end
$var wire 1 9$ Add2~66 $end
$var wire 1 :$ Add2~69_sumout $end
$var wire 1 ;$ Add2~70 $end
$var wire 1 <$ Add2~73_sumout $end
$var wire 1 =$ Add2~74 $end
$var wire 1 >$ Add2~77_sumout $end
$var wire 1 ?$ Add2~78 $end
$var wire 1 @$ Add2~81_sumout $end
$var wire 1 A$ Add2~82 $end
$var wire 1 B$ Add2~85_sumout $end
$var wire 1 C$ Equal0~1_combout $end
$var wire 1 D$ Add2~86 $end
$var wire 1 E$ Add2~89_sumout $end
$var wire 1 F$ Add2~90 $end
$var wire 1 G$ Add2~93_sumout $end
$var wire 1 H$ Add2~94 $end
$var wire 1 I$ Add2~97_sumout $end
$var wire 1 J$ Add2~98 $end
$var wire 1 K$ Add2~101_sumout $end
$var wire 1 L$ Add2~102 $end
$var wire 1 M$ Add2~105_sumout $end
$var wire 1 N$ Add2~106 $end
$var wire 1 O$ Add2~109_sumout $end
$var wire 1 P$ Equal0~0_combout $end
$var wire 1 Q$ Equal0~4_combout $end
$var wire 1 R$ Equal0~2_combout $end
$var wire 1 S$ Add2~110 $end
$var wire 1 T$ Add2~113_sumout $end
$var wire 1 U$ Add2~114 $end
$var wire 1 V$ Add2~117_sumout $end
$var wire 1 W$ Add2~118 $end
$var wire 1 X$ Add2~121_sumout $end
$var wire 1 Y$ Add2~122 $end
$var wire 1 Z$ Add2~125_sumout $end
$var wire 1 [$ tmp_tens[28]~1_combout $end
$var wire 1 \$ tmp_tens~4_combout $end
$var wire 1 ]$ Equal0~3_combout $end
$var wire 1 ^$ Equal0~5_combout $end
$var wire 1 _$ Equal0~6_combout $end
$var wire 1 `$ tmp_tens~0_combout $end
$var wire 1 a$ Add2~2 $end
$var wire 1 b$ Add2~5_sumout $end
$var wire 1 c$ tmp_tens~2_combout $end
$var wire 1 d$ Add2~6 $end
$var wire 1 e$ Add2~9_sumout $end
$var wire 1 f$ Add2~10 $end
$var wire 1 g$ Add2~13_sumout $end
$var wire 1 h$ Equal1~0_combout $end
$var wire 1 i$ Add0~1_sumout $end
$var wire 1 j$ Add5~125_sumout $end
$var wire 1 k$ tmp_unit~0_combout $end
$var wire 1 l$ LessThan2~3_combout $end
$var wire 1 m$ LessThan2~4_combout $end
$var wire 1 n$ LessThan2~5_combout $end
$var wire 1 o$ tmp_unit~1_combout $end
$var wire 1 p$ tmp_unit [31] $end
$var wire 1 q$ tmp_unit [30] $end
$var wire 1 r$ tmp_unit [29] $end
$var wire 1 s$ tmp_unit [28] $end
$var wire 1 t$ tmp_unit [27] $end
$var wire 1 u$ tmp_unit [26] $end
$var wire 1 v$ tmp_unit [25] $end
$var wire 1 w$ tmp_unit [24] $end
$var wire 1 x$ tmp_unit [23] $end
$var wire 1 y$ tmp_unit [22] $end
$var wire 1 z$ tmp_unit [21] $end
$var wire 1 {$ tmp_unit [20] $end
$var wire 1 |$ tmp_unit [19] $end
$var wire 1 }$ tmp_unit [18] $end
$var wire 1 ~$ tmp_unit [17] $end
$var wire 1 !% tmp_unit [16] $end
$var wire 1 "% tmp_unit [15] $end
$var wire 1 #% tmp_unit [14] $end
$var wire 1 $% tmp_unit [13] $end
$var wire 1 %% tmp_unit [12] $end
$var wire 1 &% tmp_unit [11] $end
$var wire 1 '% tmp_unit [10] $end
$var wire 1 (% tmp_unit [9] $end
$var wire 1 )% tmp_unit [8] $end
$var wire 1 *% tmp_unit [7] $end
$var wire 1 +% tmp_unit [6] $end
$var wire 1 ,% tmp_unit [5] $end
$var wire 1 -% tmp_unit [4] $end
$var wire 1 .% tmp_unit [3] $end
$var wire 1 /% tmp_unit [2] $end
$var wire 1 0% tmp_unit [1] $end
$var wire 1 1% tmp_unit [0] $end
$var wire 1 2% tmp_tens [31] $end
$var wire 1 3% tmp_tens [30] $end
$var wire 1 4% tmp_tens [29] $end
$var wire 1 5% tmp_tens [28] $end
$var wire 1 6% tmp_tens [27] $end
$var wire 1 7% tmp_tens [26] $end
$var wire 1 8% tmp_tens [25] $end
$var wire 1 9% tmp_tens [24] $end
$var wire 1 :% tmp_tens [23] $end
$var wire 1 ;% tmp_tens [22] $end
$var wire 1 <% tmp_tens [21] $end
$var wire 1 =% tmp_tens [20] $end
$var wire 1 >% tmp_tens [19] $end
$var wire 1 ?% tmp_tens [18] $end
$var wire 1 @% tmp_tens [17] $end
$var wire 1 A% tmp_tens [16] $end
$var wire 1 B% tmp_tens [15] $end
$var wire 1 C% tmp_tens [14] $end
$var wire 1 D% tmp_tens [13] $end
$var wire 1 E% tmp_tens [12] $end
$var wire 1 F% tmp_tens [11] $end
$var wire 1 G% tmp_tens [10] $end
$var wire 1 H% tmp_tens [9] $end
$var wire 1 I% tmp_tens [8] $end
$var wire 1 J% tmp_tens [7] $end
$var wire 1 K% tmp_tens [6] $end
$var wire 1 L% tmp_tens [5] $end
$var wire 1 M% tmp_tens [4] $end
$var wire 1 N% tmp_tens [3] $end
$var wire 1 O% tmp_tens [2] $end
$var wire 1 P% tmp_tens [1] $end
$var wire 1 Q% tmp_tens [0] $end
$upscope $end
$upscope $end
$enddefinitions $end
#0
$dumpvars
0!
0"
b0 #
0C
0B
0A
0@
0?
0>
0=
0<
0;
0:
09
08
07
06
05
04
03
02
01
00
0/
0.
0-
0,
0+
0*
0)
0(
0'
0&
0%
0$
0c
0b
0a
0`
0_
0^
0]
0\
0[
0Z
0Y
0X
0W
0V
0U
0T
0S
0R
0Q
0P
0O
0N
0M
0L
0K
0J
0I
0H
0G
0F
0E
0D
0d
1e
xf
1g
1h
1i
0j
0k
0l
0m
1n
0o
0p
0q
0r
0s
1t
0u
0v
0w
0x
0y
0z
0{
0|
0}
0~
0!!
0"!
0#!
0$!
0%!
0&!
0'!
0(!
0)!
0*!
0+!
0,!
0-!
0.!
0/!
00!
01!
02!
03!
04!
05!
06!
17!
08!
09!
1:!
0;!
0<!
0=!
0>!
0?!
0@!
0A!
0B!
0C!
0D!
0E!
0F!
0G!
0H!
0I!
0J!
0K!
0L!
0M!
0N!
0O!
0P!
0Q!
0R!
0S!
0T!
0U!
0V!
0W!
0X!
0Y!
0Z!
0[!
0\!
0]!
0^!
0_!
0`!
0a!
0b!
0c!
0d!
0e!
0f!
0g!
0h!
0i!
0j!
0k!
0l!
0m!
0n!
0o!
0p!
0q!
0r!
0s!
0t!
0u!
0v!
0w!
0x!
0y!
0z!
0{!
0|!
0}!
0~!
0!"
0""
0#"
0$"
0%"
0&"
0'"
0("
0)"
0*"
0+"
0,"
0-"
0."
0/"
00"
01"
02"
03"
04"
05"
06"
07"
08"
09"
0:"
0;"
0<"
0="
0>"
0?"
0@"
0A"
1B"
1C"
1D"
1E"
1F"
1G"
0H"
0I"
0J"
0K"
0L"
0M"
0N"
0O"
1P"
0Q"
0R"
0S"
1T"
0U"
0V"
0W"
0X"
1Y"
0Z"
0["
0\"
0]"
1^"
0_"
0`"
0a"
0b"
1c"
0d"
0e"
0f"
0g"
1h"
0i"
0j"
0k"
1l"
0m"
0n"
0o"
0p"
1q"
0r"
0s"
0t"
1u"
0v"
0w"
0x"
0y"
1z"
0{"
0|"
0}"
1~"
0!#
0"#
0##
0$#
1%#
0&#
0'#
0(#
1)#
0*#
0+#
0,#
1-#
0.#
0/#
00#
01#
12#
03#
04#
05#
06#
07#
18#
09#
0:#
0;#
0<#
1=#
0>#
0?#
0@#
1A#
0B#
0C#
0D#
0E#
1F#
0G#
0H#
0I#
1J#
0K#
0L#
0M#
0N#
1O#
0P#
0Q#
0R#
0S#
1T#
0U#
0V#
0W#
0X#
1Y#
0Z#
0[#
0\#
1]#
0^#
0_#
0`#
1a#
0b#
0c#
0d#
0e#
1f#
0g#
0h#
0i#
0j#
1k#
1l#
1m#
1n#
1o#
1p#
0q#
0r#
1s#
0t#
0u#
0v#
1w#
0x#
0y#
0z#
1{#
0|#
0}#
0~#
0!$
0"$
0#$
0$$
0%$
0&$
0'$
0($
0)$
0*$
0+$
0,$
0-$
0.$
0/$
00$
01$
02$
03$
04$
05$
06$
07$
08$
09$
0:$
0;$
0<$
0=$
0>$
0?$
0@$
0A$
0B$
1C$
0D$
0E$
0F$
0G$
0H$
0I$
0J$
0K$
0L$
0M$
0N$
0O$
1P$
1Q$
1R$
0S$
0T$
0U$
0V$
0W$
0X$
0Y$
0Z$
0[$
0\$
1]$
1^$
1_$
1`$
0a$
0b$
0c$
0d$
0e$
0f$
0g$
0h$
0i$
0j$
0k$
1l$
1m$
1n$
0o$
01%
00%
0/%
0.%
0-%
0,%
0+%
0*%
0)%
0(%
0'%
0&%
0%%
0$%
0#%
0"%
0!%
0~$
0}$
0|$
0{$
0z$
0y$
0x$
0w$
0v$
0u$
0t$
0s$
0r$
0q$
0p$
0Q%
0P%
0O%
0N%
0M%
0L%
0K%
0J%
0I%
0H%
0G%
0F%
0E%
0D%
0C%
0B%
0A%
0@%
0?%
0>%
0=%
0<%
0;%
0:%
09%
08%
07%
06%
05%
04%
03%
02%
$end
#5000
1!
1k
1l
#10000
0!
0k
0l
#15000
1!
1k
1l
#20000
1"
0!
1q
0k
0l
#25000
1!
1k
1l
#30000
0!
0k
0l
#35000
1!
1k
1l
#40000
0!
0k
0l
#45000
1!
1k
1l
#50000
0!
0k
0l
#55000
1!
1k
1l
#60000
0!
0k
0l
#65000
1!
1k
1l
#70000
b1 #
0!
14!
0k
0l
1j$
1i$
1k$
1o$
#75000
1!
1k
1l
11%
1c
18!
0j$
0i$
16!
19!
1<!
07!
0k$
1Q"
0o$
1$"
0:!
1;!
1%"
0P"
1U"
#80000
b0 #
0!
04!
0k
0l
08!
1j$
1i$
06!
09!
0<!
17!
1k$
0Q"
1o$
0$"
1:!
0;!
0%"
1P"
0U"
#85000
1!
1k
1l
#90000
0!
0k
0l
#95000
1!
1k
1l
#100000
0!
0k
0l
#105000
1!
1k
1l
#110000
0!
0k
0l
#115000
1!
1k
1l
#120000
0!
0k
0l
#125000
1!
1k
1l
#130000
b1 #
0!
14!
0k
0l
18!
0j$
0i$
16!
19!
1<!
07!
0k$
1Q"
0o$
1$"
0:!
1;!
1%"
0P"
1U"
#135000
1!
1k
1l
01%
10%
1b
0c
1N"
09!
0<!
17!
1=!
08!
1j$
1i$
06!
1O"
0N"
19!
07!
1k$
0$"
1:!
0;!
0O"
1o$
1$"
0:!
1;!
1R"
0R"
#140000
b0 #
0!
04!
0k
0l
0j$
0i$
0k$
0o$
#145000
1!
1k
1l
#150000
0!
0k
0l
#155000
1!
1k
1l
#160000
b1 #
0!
14!
0k
0l
1j$
1i$
1k$
1o$
#165000
1!
1k
1l
11%
1c
18!
0j$
0i$
16!
1N"
09!
17!
0k$
1O"
0o$
0$"
1:!
0;!
1R"
#170000
b0 #
0!
04!
0k
0l
08!
1j$
1i$
06!
0N"
19!
07!
1k$
0O"
1o$
1$"
0:!
1;!
0R"
#175000
1!
1k
1l
#180000
0!
0k
0l
#185000
1!
1k
1l
#190000
0!
0k
0l
#195000
1!
1k
1l
#200000
0!
0k
0l
#205000
1!
1k
1l
#210000
0!
0k
0l
#215000
1!
1k
1l
#220000
0!
0k
0l
#225000
1!
1k
1l
