V1/simulation/qsim/V1.msim.vcd
$comment
	File created using the following command:
		vcd file V1.msim.vcd -direction
$end
$date
	Wed Sep 05 17:42:11 2018
$end
$version
	ModelSim Version 10.5b
$end
$timescale
	1ps
$end

$scope module score_vlg_vec_tst $end
$var reg 1 ! clk $end
$var reg 1 " resetN $end
$var reg 32 # score_note0 [31:0] $end
$var wire 1 $ tens [3] $end
$var wire 1 % tens [2] $end
$var wire 1 & tens [1] $end
$var wire 1 ' tens [0] $end
$var wire 1 ( total_score [31] $end
$var wire 1 ) total_score [30] $end
$var wire 1 * total_score [29] $end
$var wire 1 + total_score [28] $end
$var wire 1 , total_score [27] $end
$var wire 1 - total_score [26] $end
$var wire 1 . total_score [25] $end
$var wire 1 / total_score [24] $end
$var wire 1 0 total_score [23] $end
$var wire 1 1 total_score [22] $end
$var wire 1 2 total_score [21] $end
$var wire 1 3 total_score [20] $end
$var wire 1 4 total_score [19] $end
$var wire 1 5 total_score [18] $end
$var wire 1 6 total_score [17] $end
$var wire 1 7 total_score [16] $end
$var wire 1 8 total_score [15] $end
$var wire 1 9 total_score [14] $end
$var wire 1 : total_score [13] $end
$var wire 1 ; total_score [12] $end
$var wire 1 < total_score [11] $end
$var wire 1 = total_score [10] $end
$var wire 1 > total_score [9] $end
$var wire 1 ? total_score [8] $end
$var wire 1 @ total_score [7] $end
$var wire 1 A total_score [6] $end
$var wire 1 B total_score [5] $end
$var wire 1 C total_score [4] $end
$var wire 1 D total_score [3] $end
$var wire 1 E total_score [2] $end
$var wire 1 F total_score [1] $end
$var wire 1 G total_score [0] $end
$var wire 1 H unit [3] $end
$var wire 1 I unit [2] $end
$var wire 1 J unit [1] $end
$var wire 1 K unit [0] $end

$scope module i1 $end
$var wire 1 L gnd $end
$var wire 1 M vcc $end
$var wire 1 N unknown $end
$var tri1 1 O devclrn $end
$var tri1 1 P devpor $end
$var tri1 1 Q devoe $end
$var wire 1 R ~QUARTUS_CREATED_GND~I_combout $end
$var wire 1 S clk~input_o $end
$var wire 1 T clk~inputCLKENA0_outclk $end
$var wire 1 U score_note0[31]~input_o $end
$var wire 1 V tmp_tens[3]~1_combout $end
$var wire 1 W Add2~1_sumout $end
$var wire 1 X Add2~14 $end
$var wire 1 Y Add2~21_sumout $end
$var wire 1 Z resetN~input_o $end
$var wire 1 [ tmp_tens[3]~3_combout $end
$var wire 1 \ score_note0[30]~input_o $end
$var wire 1 ] score_note0[29]~input_o $end
$var wire 1 ^ tmp_unit~4_combout $end
$var wire 1 _ score_note0[28]~input_o $end
$var wire 1 ` score_note0[27]~input_o $end
$var wire 1 a score_note0[26]~input_o $end
$var wire 1 b score_note0[25]~input_o $end
$var wire 1 c score_note0[24]~input_o $end
$var wire 1 d score_note0[23]~input_o $end
$var wire 1 e score_note0[22]~input_o $end
$var wire 1 f score_note0[21]~input_o $end
$var wire 1 g score_note0[20]~input_o $end
$var wire 1 h score_note0[19]~input_o $end
$var wire 1 i score_note0[18]~input_o $end
$var wire 1 j score_note0[17]~input_o $end
$var wire 1 k score_note0[16]~input_o $end
$var wire 1 l score_note0[15]~input_o $end
$var wire 1 m score_note0[14]~input_o $end
$var wire 1 n score_note0[13]~input_o $end
$var wire 1 o score_note0[12]~input_o $end
$var wire 1 p score_note0[11]~input_o $end
$var wire 1 q score_note0[10]~input_o $end
$var wire 1 r score_note0[9]~input_o $end
$var wire 1 s score_note0[8]~input_o $end
$var wire 1 t score_note0[7]~input_o $end
$var wire 1 u score_note0[6]~input_o $end
$var wire 1 v score_note0[5]~input_o $end
$var wire 1 w score_note0[4]~input_o $end
$var wire 1 x score_note0[3]~input_o $end
$var wire 1 y score_note0[2]~input_o $end
$var wire 1 z score_note0[1]~input_o $end
$var wire 1 { score_note0[0]~input_o $end
$var wire 1 | Add5~126 $end
$var wire 1 } Add5~61_sumout $end
$var wire 1 ~ Add3~1_sumout $end
$var wire 1 !! Add0~2 $end
$var wire 1 "! Add0~3 $end
$var wire 1 #! Add0~5_sumout $end
$var wire 1 $! tmp_unit~5_combout $end
$var wire 1 %! tmp_unit[9]~6_combout $end
$var wire 1 &! Add5~62 $end
$var wire 1 '! Add5~65_sumout $end
$var wire 1 (! Add3~2 $end
$var wire 1 )! Add3~5_sumout $end
$var wire 1 *! Add0~6 $end
$var wire 1 +! Add0~7 $end
$var wire 1 ,! Add0~9_sumout $end
$var wire 1 -! tmp_unit~7_combout $end
$var wire 1 .! Add0~10 $end
$var wire 1 /! Add0~11 $end
$var wire 1 0! Add0~13_sumout $end
$var wire 1 1! Add5~66 $end
$var wire 1 2! Add5~57_sumout $end
$var wire 1 3! Add3~6 $end
$var wire 1 4! Add3~9_sumout $end
$var wire 1 5! tmp_unit~8_combout $end
$var wire 1 6! Add5~58 $end
$var wire 1 7! Add5~45_sumout $end
$var wire 1 8! Add3~10 $end
$var wire 1 9! Add3~13_sumout $end
$var wire 1 :! Add0~14 $end
$var wire 1 ;! Add0~15 $end
$var wire 1 <! Add0~17_sumout $end
$var wire 1 =! tmp_unit~9_combout $end
$var wire 1 >! Add0~18 $end
$var wire 1 ?! Add0~19 $end
$var wire 1 @! Add0~21_sumout $end
$var wire 1 A! Add5~46 $end
$var wire 1 B! Add5~49_sumout $end
$var wire 1 C! Add3~14 $end
$var wire 1 D! Add3~17_sumout $end
$var wire 1 E! tmp_unit~10_combout $end
$var wire 1 F! Add5~50 $end
$var wire 1 G! Add5~53_sumout $end
$var wire 1 H! Add0~22 $end
$var wire 1 I! Add0~23 $end
$var wire 1 J! Add0~25_sumout $end
$var wire 1 K! Add3~18 $end
$var wire 1 L! Add3~21_sumout $end
$var wire 1 M! tmp_unit~11_combout $end
$var wire 1 N! Add5~54 $end
$var wire 1 O! Add5~109_sumout $end
$var wire 1 P! Add3~22 $end
$var wire 1 Q! Add3~25_sumout $end
$var wire 1 R! Add0~26 $end
$var wire 1 S! Add0~27 $end
$var wire 1 T! Add0~29_sumout $end
$var wire 1 U! tmp_unit~12_combout $end
$var wire 1 V! Add0~30 $end
$var wire 1 W! Add0~31 $end
$var wire 1 X! Add0~33_sumout $end
$var wire 1 Y! Add5~110 $end
$var wire 1 Z! Add5~113_sumout $end
$var wire 1 [! Add3~26 $end
$var wire 1 \! Add3~29_sumout $end
$var wire 1 ]! tmp_unit~13_combout $end
$var wire 1 ^! Add5~114 $end
$var wire 1 _! Add5~117_sumout $end
$var wire 1 `! Add0~34 $end
$var wire 1 a! Add0~35 $end
$var wire 1 b! Add0~37_sumout $end
$var wire 1 c! Add3~30 $end
$var wire 1 d! Add3~33_sumout $end
$var wire 1 e! tmp_unit~14_combout $end
$var wire 1 f! Add5~118 $end
$var wire 1 g! Add5~121_sumout $end
$var wire 1 h! Add0~38 $end
$var wire 1 i! Add0~39 $end
$var wire 1 j! Add0~41_sumout $end
$var wire 1 k! Add3~34 $end
$var wire 1 l! Add3~37_sumout $end
$var wire 1 m! tmp_unit~15_combout $end
$var wire 1 n! Add0~42 $end
$var wire 1 o! Add0~43 $end
$var wire 1 p! Add0~45_sumout $end
$var wire 1 q! Add5~122 $end
$var wire 1 r! Add5~89_sumout $end
$var wire 1 s! Add3~38 $end
$var wire 1 t! Add3~41_sumout $end
$var wire 1 u! tmp_unit~16_combout $end
$var wire 1 v! Add0~46 $end
$var wire 1 w! Add0~47 $end
$var wire 1 x! Add0~49_sumout $end
$var wire 1 y! Add5~90 $end
$var wire 1 z! Add5~25_sumout $end
$var wire 1 {! Add3~42 $end
$var wire 1 |! Add3~45_sumout $end
$var wire 1 }! tmp_unit~17_combout $end
$var wire 1 ~! Add0~50 $end
$var wire 1 !" Add0~51 $end
$var wire 1 "" Add0~53_sumout $end
$var wire 1 #" Add5~26 $end
$var wire 1 $" Add5~29_sumout $end
$var wire 1 %" Add3~46 $end
$var wire 1 &" Add3~49_sumout $end
$var wire 1 '" tmp_unit~18_combout $end
$var wire 1 (" Add0~54 $end
$var wire 1 )" Add0~55 $end
$var wire 1 *" Add0~57_sumout $end
$var wire 1 +" Add5~30 $end
$var wire 1 ," Add5~33_sumout $end
$var wire 1 -" Add3~50 $end
$var wire 1 ." Add3~53_sumout $end
$var wire 1 /" tmp_unit~19_combout $end
$var wire 1 0" Add5~34 $end
$var wire 1 1" Add5~37_sumout $end
$var wire 1 2" Add3~54 $end
$var wire 1 3" Add3~57_sumout $end
$var wire 1 4" Add0~58 $end
$var wire 1 5" Add0~59 $end
$var wire 1 6" Add0~61_sumout $end
$var wire 1 7" tmp_unit~20_combout $end
$var wire 1 8" Add0~62 $end
$var wire 1 9" Add0~63 $end
$var wire 1 :" Add0~65_sumout $end
$var wire 1 ;" Add5~38 $end
$var wire 1 <" Add5~93_sumout $end
$var wire 1 =" Add3~58 $end
$var wire 1 >" Add3~61_sumout $end
$var wire 1 ?" tmp_unit~21_combout $end
$var wire 1 @" Add5~94 $end
$var wire 1 A" Add5~41_sumout $end
$var wire 1 B" Add0~66 $end
$var wire 1 C" Add0~67 $end
$var wire 1 D" Add0~69_sumout $end
$var wire 1 E" Add3~62 $end
$var wire 1 F" Add3~65_sumout $end
$var wire 1 G" tmp_unit~22_combout $end
$var wire 1 H" Add5~42 $end
$var wire 1 I" Add5~97_sumout $end
$var wire 1 J" Add0~70 $end
$var wire 1 K" Add0~71 $end
$var wire 1 L" Add0~73_sumout $end
$var wire 1 M" Add3~66 $end
$var wire 1 N" Add3~69_sumout $end
$var wire 1 O" tmp_unit~23_combout $end
$var wire 1 P" Add5~98 $end
$var wire 1 Q" Add5~101_sumout $end
$var wire 1 R" Add0~74 $end
$var wire 1 S" Add0~75 $end
$var wire 1 T" Add0~77_sumout $end
$var wire 1 U" Add3~70 $end
$var wire 1 V" Add3~73_sumout $end
$var wire 1 W" tmp_unit~24_combout $end
$var wire 1 X" Add5~102 $end
$var wire 1 Y" Add5~105_sumout $end
$var wire 1 Z" Add0~78 $end
$var wire 1 [" Add0~79 $end
$var wire 1 \" Add0~81_sumout $end
$var wire 1 ]" Add3~74 $end
$var wire 1 ^" Add3~77_sumout $end
$var wire 1 _" tmp_unit~25_combout $end
$var wire 1 `" Add5~106 $end
$var wire 1 a" Add5~69_sumout $end
$var wire 1 b" Add3~78 $end
$var wire 1 c" Add3~81_sumout $end
$var wire 1 d" Add0~82 $end
$var wire 1 e" Add0~83 $end
$var wire 1 f" Add0~85_sumout $end
$var wire 1 g" tmp_unit~26_combout $end
$var wire 1 h" Add0~86 $end
$var wire 1 i" Add0~87 $end
$var wire 1 j" Add0~89_sumout $end
$var wire 1 k" Add5~70 $end
$var wire 1 l" Add5~5_sumout $end
$var wire 1 m" Add3~82 $end
$var wire 1 n" Add3~85_sumout $end
$var wire 1 o" tmp_unit~27_combout $end
$var wire 1 p" Add5~6 $end
$var wire 1 q" Add5~9_sumout $end
$var wire 1 r" Add3~86 $end
$var wire 1 s" Add3~89_sumout $end
$var wire 1 t" Add0~90 $end
$var wire 1 u" Add0~91 $end
$var wire 1 v" Add0~93_sumout $end
$var wire 1 w" tmp_unit~28_combout $end
$var wire 1 x" Add0~94 $end
$var wire 1 y" Add0~95 $end
$var wire 1 z" Add0~98 $end
$var wire 1 {" Add0~99 $end
$var wire 1 |" Add0~102 $end
$var wire 1 }" Add0~103 $end
$var wire 1 ~" Add0~106 $end
$var wire 1 !# Add0~107 $end
$var wire 1 "# Add0~111 $end
$var wire 1 ## Add0~115 $end
$var wire 1 $# Add0~119 $end
$var wire 1 %# Add0~122 $end
$var wire 1 &# Add0~123 $end
$var wire 1 '# Add0~125_sumout $end
$var wire 1 (# Add5~22 $end
$var wire 1 )# Add5~78 $end
$var wire 1 *# Add5~81_sumout $end
$var wire 1 +# Add5~77_sumout $end
$var wire 1 ,# Add5~10 $end
$var wire 1 -# Add5~13_sumout $end
$var wire 1 .# Add3~90 $end
$var wire 1 /# Add3~94 $end
$var wire 1 0# Add3~98 $end
$var wire 1 1# Add3~102 $end
$var wire 1 2# Add3~106 $end
$var wire 1 3# Add3~110 $end
$var wire 1 4# Add3~114 $end
$var wire 1 5# Add3~118 $end
$var wire 1 6# Add3~121_sumout $end
$var wire 1 7# LessThan2~9_combout $end
$var wire 1 8# LessThan2~10_combout $end
$var wire 1 9# LessThan2~11_combout $end
$var wire 1 :# LessThan2~12_combout $end
$var wire 1 ;# LessThan2~13_combout $end
$var wire 1 <# tmp_unit~36_combout $end
$var wire 1 =# tmp_unit~37_combout $end
$var wire 1 ># Add5~82 $end
$var wire 1 ?# Add5~86 $end
$var wire 1 @# Add5~1_sumout $end
$var wire 1 A# LessThan2~0_combout $end
$var wire 1 B# LessThan2~1_combout $end
$var wire 1 C# LessThan2~2_combout $end
$var wire 1 D# LessThan2~6_combout $end
$var wire 1 E# LessThan2~7_combout $end
$var wire 1 F# LessThan2~8_combout $end
$var wire 1 G# tmp_unit[9]~2_combout $end
$var wire 1 H# Add0~97_sumout $end
$var wire 1 I# Add3~93_sumout $end
$var wire 1 J# tmp_unit~29_combout $end
$var wire 1 K# Add5~14 $end
$var wire 1 L# Add5~17_sumout $end
$var wire 1 M# Add0~101_sumout $end
$var wire 1 N# Add3~97_sumout $end
$var wire 1 O# tmp_unit~30_combout $end
$var wire 1 P# Add5~18 $end
$var wire 1 Q# Add5~73_sumout $end
$var wire 1 R# Add0~105_sumout $end
$var wire 1 S# Add3~101_sumout $end
$var wire 1 T# tmp_unit~31_combout $end
$var wire 1 U# Add5~74 $end
$var wire 1 V# Add5~21_sumout $end
$var wire 1 W# Add0~109_sumout $end
$var wire 1 X# Add3~105_sumout $end
$var wire 1 Y# tmp_unit~32_combout $end
$var wire 1 Z# Add0~110 $end
$var wire 1 [# Add0~113_sumout $end
$var wire 1 \# Add3~109_sumout $end
$var wire 1 ]# tmp_unit~33_combout $end
$var wire 1 ^# Add0~114 $end
$var wire 1 _# Add0~117_sumout $end
$var wire 1 `# Add3~113_sumout $end
$var wire 1 a# tmp_unit~34_combout $end
$var wire 1 b# Add0~118 $end
$var wire 1 c# Add0~121_sumout $end
$var wire 1 d# Add3~117_sumout $end
$var wire 1 e# tmp_unit~35_combout $end
$var wire 1 f# Add5~85_sumout $end
$var wire 1 g# tmp_unit~3_combout $end
$var wire 1 h# Add2~22 $end
$var wire 1 i# Add2~25_sumout $end
$var wire 1 j# Add2~26 $end
$var wire 1 k# Add2~29_sumout $end
$var wire 1 l# Add2~30 $end
$var wire 1 m# Add2~33_sumout $end
$var wire 1 n# Add2~34 $end
$var wire 1 o# Add2~37_sumout $end
$var wire 1 p# Add2~38 $end
$var wire 1 q# Add2~41_sumout $end
$var wire 1 r# Add2~42 $end
$var wire 1 s# Add2~93_sumout $end
$var wire 1 t# Add2~94 $end
$var wire 1 u# Add2~45_sumout $end
$var wire 1 v# Add2~46 $end
$var wire 1 w# Add2~49_sumout $end
$var wire 1 x# Add2~50 $end
$var wire 1 y# Add2~53_sumout $end
$var wire 1 z# Add2~54 $end
$var wire 1 {# Add2~57_sumout $end
$var wire 1 |# Add2~58 $end
$var wire 1 }# Add2~61_sumout $end
$var wire 1 ~# Add2~62 $end
$var wire 1 !$ Add2~65_sumout $end
$var wire 1 "$ Add2~66 $end
$var wire 1 #$ Add2~69_sumout $end
$var wire 1 $$ Add2~70 $end
$var wire 1 %$ Add2~73_sumout $end
$var wire 1 &$ Add2~74 $end
$var wire 1 '$ Add2~77_sumout $end
$var wire 1 ($ Add2~78 $end
$var wire 1 )$ Add2~81_sumout $end
$var wire 1 *$ Add2~82 $end
$var wire 1 +$ Add2~85_sumout $end
$var wire 1 ,$ Add2~86 $end
$var wire 1 -$ Add2~89_sumout $end
$var wire 1 .$ Add2~90 $end
$var wire 1 /$ Add2~17_sumout $end
$var wire 1 0$ Add2~18 $end
$var wire 1 1$ Add2~113_sumout $end
$var wire 1 2$ Add2~114 $end
$var wire 1 3$ Add2~117_sumout $end
$var wire 1 4$ Add2~118 $end
$var wire 1 5$ Add2~97_sumout $end
$var wire 1 6$ Add2~98 $end
$var wire 1 7$ Add2~121_sumout $end
$var wire 1 8$ Add2~122 $end
$var wire 1 9$ Add2~125_sumout $end
$var wire 1 :$ Equal0~4_combout $end
$var wire 1 ;$ Equal0~1_combout $end
$var wire 1 <$ Equal0~2_combout $end
$var wire 1 =$ Equal0~0_combout $end
$var wire 1 >$ Add2~126 $end
$var wire 1 ?$ Add2~101_sumout $end
$var wire 1 @$ Add2~102 $end
$var wire 1 A$ Add2~105_sumout $end
$var wire 1 B$ Add2~106 $end
$var wire 1 C$ Add2~109_sumout $end
$var wire 1 D$ tmp_tens~4_combout $end
$var wire 1 E$ Equal0~3_combout $end
$var wire 1 F$ Equal0~5_combout $end
$var wire 1 G$ Equal0~6_combout $end
$var wire 1 H$ tmp_tens~0_combout $end
$var wire 1 I$ Add2~2 $end
$var wire 1 J$ Add2~5_sumout $end
$var wire 1 K$ tmp_tens~2_combout $end
$var wire 1 L$ Add2~6 $end
$var wire 1 M$ Add2~9_sumout $end
$var wire 1 N$ Add2~10 $end
$var wire 1 O$ Add2~13_sumout $end
$var wire 1 P$ Equal1~0_combout $end
$var wire 1 Q$ Add5~125_sumout $end
$var wire 1 R$ Add0~1_sumout $end
$var wire 1 S$ tmp_unit~0_combout $end
$var wire 1 T$ LessThan2~3_combout $end
$var wire 1 U$ LessThan2~4_combout $end
$var wire 1 V$ LessThan2~5_combout $end
$var wire 1 W$ tmp_unit~1_combout $end
$var wire 1 X$ Add6~1_sumout $end
$var wire 1 Y$ Add6~2 $end
$var wire 1 Z$ Add6~3 $end
$var wire 1 [$ Add6~5_sumout $end
$var wire 1 \$ Add6~6 $end
$var wire 1 ]$ Add6~7 $end
$var wire 1 ^$ Add6~9_sumout $end
$var wire 1 _$ Add6~10 $end
$var wire 1 `$ Add6~11 $end
$var wire 1 a$ Add6~13_sumout $end
$var wire 1 b$ Add6~14 $end
$var wire 1 c$ Add6~15 $end
$var wire 1 d$ Add6~17_sumout $end
$var wire 1 e$ Add6~18 $end
$var wire 1 f$ Add6~19 $end
$var wire 1 g$ Add6~21_sumout $end
$var wire 1 h$ Add6~22 $end
$var wire 1 i$ Add6~23 $end
$var wire 1 j$ Add6~25_sumout $end
$var wire 1 k$ Add6~26 $end
$var wire 1 l$ Add6~27 $end
$var wire 1 m$ Add6~29_sumout $end
$var wire 1 n$ Add6~30 $end
$var wire 1 o$ Add6~31 $end
$var wire 1 p$ Add6~33_sumout $end
$var wire 1 q$ Add6~34 $end
$var wire 1 r$ Add6~35 $end
$var wire 1 s$ Add6~37_sumout $end
$var wire 1 t$ Add6~38 $end
$var wire 1 u$ Add6~39 $end
$var wire 1 v$ Add6~41_sumout $end
$var wire 1 w$ Add6~42 $end
$var wire 1 x$ Add6~43 $end
$var wire 1 y$ Add6~45_sumout $end
$var wire 1 z$ Add6~46 $end
$var wire 1 {$ Add6~47 $end
$var wire 1 |$ Add6~49_sumout $end
$var wire 1 }$ Add6~50 $end
$var wire 1 ~$ Add6~51 $end
$var wire 1 !% Add6~53_sumout $end
$var wire 1 "% Add6~54 $end
$var wire 1 #% Add6~55 $end
$var wire 1 $% Add6~57_sumout $end
$var wire 1 %% Add6~58 $end
$var wire 1 &% Add6~59 $end
$var wire 1 '% Add6~61_sumout $end
$var wire 1 (% Add6~62 $end
$var wire 1 )% Add6~63 $end
$var wire 1 *% Add6~65_sumout $end
$var wire 1 +% Add6~66 $end
$var wire 1 ,% Add6~67 $end
$var wire 1 -% Add6~69_sumout $end
$var wire 1 .% Add6~70 $end
$var wire 1 /% Add6~71 $end
$var wire 1 0% Add6~73_sumout $end
$var wire 1 1% Add6~74 $end
$var wire 1 2% Add6~75 $end
$var wire 1 3% Add6~77_sumout $end
$var wire 1 4% Add6~78 $end
$var wire 1 5% Add6~79 $end
$var wire 1 6% Add6~81_sumout $end
$var wire 1 7% Add6~82 $end
$var wire 1 8% Add6~83 $end
$var wire 1 9% Add6~85_sumout $end
$var wire 1 :% Add6~86 $end
$var wire 1 ;% Add6~87 $end
$var wire 1 <% Add6~89_sumout $end
$var wire 1 =% Add6~90 $end
$var wire 1 >% Add6~91 $end
$var wire 1 ?% Add6~93_sumout $end
$var wire 1 @% Add6~94 $end
$var wire 1 A% Add6~95 $end
$var wire 1 B% Add6~97_sumout $end
$var wire 1 C% Add6~98 $end
$var wire 1 D% Add6~99 $end
$var wire 1 E% Add6~101_sumout $end
$var wire 1 F% Add6~102 $end
$var wire 1 G% Add6~103 $end
$var wire 1 H% Add6~105_sumout $end
$var wire 1 I% Add6~106 $end
$var wire 1 J% Add6~107 $end
$var wire 1 K% Add6~109_sumout $end
$var wire 1 L% Add6~110 $end
$var wire 1 M% Add6~111 $end
$var wire 1 N% Add6~113_sumout $end
$var wire 1 O% Add6~114 $end
$var wire 1 P% Add6~115 $end
$var wire 1 Q% Add6~117_sumout $end
$var wire 1 R% Add6~118 $end
$var wire 1 S% Add6~119 $end
$var wire 1 T% Add6~121_sumout $end
$var wire 1 U% tmp_unit [31] $end
$var wire 1 V% tmp_unit [30] $end
$var wire 1 W% tmp_unit [29] $end
$var wire 1 X% tmp_unit [28] $end
$var wire 1 Y% tmp_unit [27] $end
$var wire 1 Z% tmp_unit [26] $end
$var wire 1 [% tmp_unit [25] $end
$var wire 1 \% tmp_unit [24] $end
$var wire 1 ]% tmp_unit [23] $end
$var wire 1 ^% tmp_unit [22] $end
$var wire 1 _% tmp_unit [21] $end
$var wire 1 `% tmp_unit [20] $end
$var wire 1 a% tmp_unit [19] $end
$var wire 1 b% tmp_unit [18] $end
$var wire 1 c% tmp_unit [17] $end
$var wire 1 d% tmp_unit [16] $end
$var wire 1 e% tmp_unit [15] $end
$var wire 1 f% tmp_unit [14] $end
$var wire 1 g% tmp_unit [13] $end
$var wire 1 h% tmp_unit [12] $end
$var wire 1 i% tmp_unit [11] $end
$var wire 1 j% tmp_unit [10] $end
$var wire 1 k% tmp_unit [9] $end
$var wire 1 l% tmp_unit [8] $end
$var wire 1 m% tmp_unit [7] $end
$var wire 1 n% tmp_unit [6] $end
$var wire 1 o% tmp_unit [5] $end
$var wire 1 p% tmp_unit [4] $end
$var wire 1 q% tmp_unit [3] $end
$var wire 1 r% tmp_unit [2] $end
$var wire 1 s% tmp_unit [1] $end
$var wire 1 t% tmp_unit [0] $end
$var wire 1 u% tmp_tens [31] $end
$var wire 1 v% tmp_tens [30] $end
$var wire 1 w% tmp_tens [29] $end
$var wire 1 x% tmp_tens [28] $end
$var wire 1 y% tmp_tens [27] $end
$var wire 1 z% tmp_tens [26] $end
$var wire 1 {% tmp_tens [25] $end
$var wire 1 |% tmp_tens [24] $end
$var wire 1 }% tmp_tens [23] $end
$var wire 1 ~% tmp_tens [22] $end
$var wire 1 !& tmp_tens [21] $end
$var wire 1 "& tmp_tens [20] $end
$var wire 1 #& tmp_tens [19] $end
$var wire 1 $& tmp_tens [18] $end
$var wire 1 %& tmp_tens [17] $end
$var wire 1 && tmp_tens [16] $end
$var wire 1 '& tmp_tens [15] $end
$var wire 1 (& tmp_tens [14] $end
$var wire 1 )& tmp_tens [13] $end
$var wire 1 *& tmp_tens [12] $end
$var wire 1 +& tmp_tens [11] $end
$var wire 1 ,& tmp_tens [10] $end
$var wire 1 -& tmp_tens [9] $end
$var wire 1 .& tmp_tens [8] $end
$var wire 1 /& tmp_tens [7] $end
$var wire 1 0& tmp_tens [6] $end
$var wire 1 1& tmp_tens [5] $end
$var wire 1 2& tmp_tens [4] $end
$var wire 1 3& tmp_tens [3] $end
$var wire 1 4& tmp_tens [2] $end
$var wire 1 5& tmp_tens [1] $end
$var wire 1 6& tmp_tens [0] $end
$upscope $end
$upscope $end
$enddefinitions $end
#0
$dumpvars
0!
0"
b0 #
0'
0&
0%
0$
0G
0F
0E
0D
0C
0B
0A
0@
0?
0>
0=
0<
0;
0:
09
08
07
06
05
04
03
02
01
00
0/
0.
0-
0,
0+
0*
0)
0(
0K
0J
0I
0H
0L
1M
xN
1O
1P
1Q
0R
0S
0T
0U
0V
1W
0X
0Y
0Z
0[
0\
0]
1^
0_
0`
0a
0b
0c
0d
0e
0f
0g
0h
0i
0j
0k
0l
0m
0n
0o
0p
0q
0r
0s
0t
0u
0v
0w
0x
0y
0z
0{
0|
0}
1~
0!!
0"!
1#!
0$!
0%!
0&!
0'!
0(!
1)!
0*!
0+!
0,!
0-!
0.!
0/!
10!
01!
02!
03!
04!
05!
06!
07!
08!
19!
0:!
0;!
0<!
0=!
0>!
0?!
0@!
0A!
0B!
0C!
1D!
0E!
0F!
0G!
0H!
0I!
0J!
0K!
1L!
0M!
0N!
0O!
0P!
1Q!
0R!
0S!
0T!
0U!
0V!
0W!
0X!
0Y!
0Z!
0[!
1\!
0]!
0^!
0_!
0`!
0a!
0b!
0c!
1d!
0e!
0f!
0g!
0h!
0i!
0j!
0k!
1l!
0m!
0n!
0o!
0p!
0q!
0r!
0s!
1t!
0u!
0v!
0w!
0x!
0y!
0z!
0{!
1|!
0}!
0~!
0!"
0""
0#"
0$"
0%"
1&"
0'"
0("
0)"
0*"
0+"
0,"
0-"
1."
0/"
00"
01"
02"
13"
04"
05"
06"
07"
08"
09"
0:"
0;"
0<"
0="
1>"
0?"
0@"
0A"
0B"
0C"
0D"
0E"
1F"
0G"
0H"
0I"
0J"
0K"
0L"
0M"
1N"
0O"
0P"
0Q"
0R"
0S"
0T"
0U"
1V"
0W"
0X"
0Y"
0Z"
0["
0\"
0]"
1^"
0_"
0`"
0a"
0b"
1c"
0d"
0e"
0f"
0g"
0h"
0i"
0j"
0k"
0l"
0m"
1n"
0o"
0p"
0q"
0r"
1s"
0t"
0u"
0v"
0w"
0x"
0y"
0z"
0{"
0|"
0}"
0~"
0!#
0"#
0##
0$#
0%#
0&#
0'#
0(#
0)#
0*#
0+#
0,#
0-#
0.#
0/#
00#
01#
02#
03#
04#
05#
16#
17#
18#
19#
1:#
1;#
0<#
0=#
0>#
0?#
0@#
1A#
1B#
1C#
1D#
1E#
1F#
0G#
0H#
1I#
0J#
0K#
0L#
0M#
1N#
0O#
0P#
0Q#
0R#
1S#
0T#
0U#
0V#
0W#
1X#
0Y#
0Z#
0[#
1\#
0]#
0^#
0_#
1`#
0a#
0b#
0c#
1d#
0e#
0f#
0g#
0h#
0i#
0j#
0k#
0l#
0m#
0n#
0o#
0p#
0q#
0r#
0s#
0t#
0u#
0v#
0w#
0x#
0y#
0z#
0{#
0|#
0}#
0~#
0!$
0"$
0#$
0$$
0%$
0&$
0'$
0($
0)$
0*$
0+$
0,$
0-$
0.$
0/$
00$
01$
02$
03$
04$
05$
06$
07$
08$
09$
1:$
1;$
1<$
1=$
0>$
0?$
0@$
0A$
0B$
0C$
0D$
1E$
1F$
1G$
1H$
0I$
0J$
0K$
0L$
0M$
0N$
0O$
0P$
0Q$
0R$
0S$
1T$
1U$
1V$
0W$
0X$
0Y$
0Z$
0[$
0\$
0]$
0^$
0_$
0`$
0a$
0b$
0c$
0d$
0e$
0f$
0g$
0h$
0i$
0j$
0k$
0l$
0m$
0n$
0o$
0p$
0q$
0r$
0s$
0t$
0u$
0v$
0w$
0x$
0y$
0z$
0{$
0|$
0}$
0~$
0!%
0"%
0#%
0$%
0%%
0&%
0'%
0(%
0)%
0*%
0+%
0,%
0-%
0.%
0/%
00%
01%
02%
03%
04%
05%
06%
07%
08%
09%
0:%
0;%
0<%
0=%
0>%
0?%
0@%
0A%
0B%
0C%
0D%
0E%
0F%
0G%
0H%
0I%
0J%
0K%
0L%
0M%
0N%
0O%
0P%
0Q%
0R%
0S%
0T%
0t%
0s%
0r%
0q%
0p%
0o%
0n%
0m%
0l%
0k%
0j%
0i%
0h%
0g%
0f%
0e%
0d%
0c%
0b%
0a%
0`%
0_%
0^%
0]%
0\%
0[%
0Z%
0Y%
0X%
0W%
0V%
0U%
06&
05&
04&
03&
02&
01&
00&
0/&
0.&
0-&
0,&
0+&
0*&
0)&
0(&
0'&
0&&
0%&
0$&
0#&
0"&
0!&
0~%
0}%
0|%
0{%
0z%
0y%
0x%
0w%
0v%
0u%
$end
#5000
1!
1S
1T
#10000
0!
0S
0T
#15000
1!
1S
1T
#20000
1"
0!
1Z
0S
0T
#25000
1!
1S
1T
#30000
0!
0S
0T
#35000
1!
1S
1T
#40000
0!
0S
0T
#45000
1!
1S
1T
#50000
b10 #
0!
1z
0S
0T
0#!
1+!
1}
1,!
1(!
0~
1$!
13!
0)!
14!
#55000
1!
1S
1T
1s%
1J
1#!
1&!
0}
1X$
1F
1'!
0(!
1~
0$!
1-!
#60000
b0 #
0!
0z
0S
0T
0#!
0&!
1}
0'!
1(!
0~
1$!
0-!
#65000
1!
1S
1T
#70000
0!
0S
0T
#75000
1!
1S
1T
#80000
0!
0S
0T
#85000
1!
1S
1T
#90000
b10 #
0!
1z
0S
0T
1#!
1&!
0}
1'!
0(!
1~
0$!
1-!
#95000
1!
1S
1T
1r%
0s%
0J
1I
0#!
0&!
1}
1.!
0,!
11!
0'!
0X$
1[$
1E
0F
01!
1'!
1:!
00!
12!
03!
1)!
1(!
0~
0-!
1$!
02!
1<!
13!
0A#
07#
1-!
15!
08#
0B#
1A#
17#
05!
18#
1B#
0C#
09#
1<#
1g#
1G#
1C#
19#
0<#
0g#
0G#
1e#
1a#
1]#
1Y#
1T#
1O#
1J#
1w"
1o"
1g"
1_"
1W"
1O"
1G"
1?"
17"
1/"
1'"
1}!
1u!
1m!
1e!
1]!
1U!
1M!
1E!
1=!
15!
0$!
1=#
0e#
0a#
0]#
0Y#
0T#
0O#
0J#
0w"
0o"
0g"
0_"
0W"
0O"
0G"
0?"
07"
0/"
0'"
0}!
0u!
0m!
0e!
0]!
0U!
0M!
0E!
0=!
05!
1$!
0=#
